,created_at,total_count,covid_ratio,sentiment_avg,like_avg,retweet_avg,quote_avg,reply_avg,confirmed_cases
0,2020-11-04,848.0,0.15566037735849056,0.019786725138287626,11.162735849056604,3.0141509433962264,0.5542452830188679,2.3632075471698117,314453
1,2020-11-05,837.0,0.17443249701314215,0.024967393037733515,12.409796893667862,2.9928315412186386,0.7299880525686977,3.2102747909199523,319247
2,2020-11-06,905.0,0.16574585635359115,0.019093833759855832,12.142541436464088,3.3834254143646407,1.0243093922651934,3.479558011049724,324234
3,2020-11-07,591.0,0.15397631133671744,0.017995058147342397,21.671742808798648,4.712351945854484,1.822335025380711,4.196277495769881,329191
4,2020-11-08,524.0,0.133587786259542,0.017565793338694083,12.08969465648855,3.3492366412213737,1.8091603053435117,4.270992366412214,333936
5,2020-11-09,806.0,0.1687344913151365,0.02405089981702884,194.7990074441687,23.54714640198511,5.292803970223326,7.9044665012406945,340731
6,2020-11-10,845.0,0.19053254437869824,0.028421824969901883,12.4603550295858,3.3763313609467454,1.1585798816568047,3.9207100591715975,346013
7,2020-11-11,798.0,0.11904761904761905,0.016760836977002383,32.156641604010034,4.012531328320802,1.169172932330827,4.1002506265664165,350971
8,2020-11-12,737.0,0.19810040705563087,0.021197593708618102,19.192672998643147,5.234735413839892,1.7706919945725916,6.9294436906377195,356650
9,2020-11-13,881.0,0.21906923950056756,0.02129003673839086,17.703745743473327,3.9591373439273547,1.2292849035187288,5.29738933030647,362604
10,2020-11-14,518.0,0.20656370656370654,0.027244685838435808,34.932432432432435,8.237451737451737,2.3861003861003858,7.835907335907336,368279
11,2020-11-15,405.0,0.2518518518518518,0.03704653845925447,37.19259259259259,9.624691358024693,3.466666666666667,15.059259259259257,373662
12,2020-11-16,689.0,0.21480406386066764,0.02771661514586041,21.838896952104502,4.296081277213353,1.4571843251088534,6.502177068214804,381557
13,2020-11-17,896.0,0.22879464285714285,0.025181058441481715,35.636160714285715,8.339285714285714,2.71875,7.0814732142857135,387052
14,2020-11-18,817.0,0.23011015911872704,0.02494508344799042,36.13096695226438,11.408812729498164,3.019583843329253,8.925336597307224,393506
15,2020-11-19,910.0,0.18461538461538465,0.025298653991511117,13.930769230769231,2.9527472527472534,0.8186813186813187,4.160439560439561,399770
16,2020-11-20,1022.0,0.2270058708414873,0.02739773117236773,24.09197651663405,5.733855185909981,1.838551859099804,7.99119373776908,406189
17,2020-11-21,570.0,0.2473684210526316,0.02881535594035592,18.45964912280702,5.564912280701756,1.9105263157894736,8.45438596491228,412543
18,2020-11-22,521.0,0.2111324376199616,0.03297164260971839,68.84069097888676,11.52591170825336,3.272552783109405,12.416506717850288,418848
19,2020-11-23,860.0,0.2616279069767442,0.023641084327494174,23.27209302325581,5.554651162790698,1.7883720930232558,7.02906976744186,426572
20,2020-11-24,852.0,0.22183098591549294,0.025353999487949003,19.43661971830986,4.982394366197184,1.7711267605633805,8.61737089201878,432743
21,2020-11-25,991.0,0.2361251261352169,0.018442581512316245,12.980827447023211,3.683148335015136,1.4833501513622604,5.399596367305752,439142
22,2020-11-26,1001.0,0.23476523476523475,0.0274502476754332,18.125874125874127,4.554445554445555,1.4135864135864136,5.7852147852147855,445828
23,2020-11-27,947.0,0.2323125659978881,0.03093686862337865,13.453009503695881,4.272439281942978,1.5649419218585006,5.286166842661035,452543
