,created_at,total_count,covid_ratio,soft_covid_ratio,sentiment_avg,like_avg,retweet_avg,quote_avg,reply_avg,soft_sentiment_avg,soft_like_avg,soft_retweet_avg,soft_quote_avg,soft_reply_avg,confirmed_cases
0,2020-11-04,848.0,0.15566037735849056,0.2087264150943396,0.019786725138287626,11.162735849056604,3.0141509433962264,0.5542452830188679,2.3632075471698117,0.026791435738222274,14.274764150943394,3.5530660377358485,0.8396226415094341,3.600235849056604,406189
1,2020-11-05,837.0,0.17443249701314215,0.23178016726403824,0.024967393037733515,12.409796893667862,2.9928315412186386,0.7299880525686977,3.2102747909199523,0.03280027144632877,16.842293906810035,3.5854241338112307,1.037037037037037,4.847072879330943,412543
2,2020-11-06,905.0,0.16574585635359115,0.20441988950276244,0.019093833759855832,12.142541436464088,3.3834254143646407,1.0243093922651934,3.479558011049724,0.026539655433578047,18.262983425414365,4.154696132596685,1.2762430939226521,4.343646408839779,418848
3,2020-11-07,591.0,0.15397631133671744,0.19627749576988154,0.017995058147342397,21.671742808798648,4.712351945854484,1.822335025380711,4.196277495769881,0.023318628635887503,26.14213197969543,5.768189509306262,1.964467005076142,4.884940778341794,426572
4,2020-11-08,524.0,0.133587786259542,0.1870229007633588,0.017565793338694083,12.08969465648855,3.3492366412213737,1.8091603053435117,4.270992366412214,0.026549537541903936,15.58969465648855,4.028625954198473,1.9026717557251909,4.522900763358779,432743
5,2020-11-09,806.0,0.1687344913151365,0.2369727047146402,0.02405089981702884,194.7990074441687,23.54714640198511,5.292803970223326,7.9044665012406945,0.03490039530362109,201.924317617866,24.795285359801486,5.666253101736972,9.571960297766747,439142
6,2020-11-10,845.0,0.19053254437869824,0.2485207100591716,0.028421824969901883,12.4603550295858,3.3763313609467454,1.1585798816568047,3.9207100591715975,0.03570868767984151,19.22485207100592,4.22603550295858,1.3857988165680473,5.120710059171596,445828
7,2020-11-11,798.0,0.11904761904761905,0.16416040100250626,0.016760836977002383,32.156641604010034,4.012531328320802,1.169172932330827,4.1002506265664165,0.0237092076330798,34.82456140350877,4.5,1.4611528822055138,5.972431077694234,452543
