,created_at,total_count,covid_ratio,soft_covid_ratio,sentiment_avg,like_avg,retweet_avg,quote_avg,reply_avg,soft_sentiment_avg,soft_like_avg,soft_retweet_avg,soft_quote_avg,soft_reply_avg,confirmed_cases
0,2020-06-06,40.0,0.7,0.775,0.15296897546897534,45.3,12.6,0.875,3.525,0.15484397546897538,52.375,14.85,1.025,4.525,96475
1,2020-06-07,19.0,0.7894736842105263,0.7894736842105263,0.08904647983595343,34.526315789473685,14.0,1.2105263157894737,4.7368421052631575,0.08904647983595343,34.526315789473685,14.0,1.2105263157894737,4.7368421052631575,97178
2,2020-06-08,70.0,0.6714285714285714,0.7285714285714285,0.07159041950113376,56.957142857142856,16.614285714285714,1.0714285714285714,3.085714285714286,0.07803692537621104,60.271428571428565,17.885714285714286,1.1857142857142855,3.2857142857142856,97779
3,2020-06-09,62.0,0.6935483870967742,0.7580645161290323,0.08426493477400727,35.20967741935485,11.741935483870966,0.8870967741935484,2.3548387096774195,0.09406454376716464,37.75806451612903,12.951612903225806,2.5967741935483866,6.112903225806452,98241
4,2020-06-10,74.0,0.527027027027027,0.6351351351351351,0.08241276178776173,31.283783783783782,10.391891891891893,0.5675675675675675,2.256756756756757,0.10324609512109503,35.24324324324324,12.067567567567568,0.7162162162162162,2.45945945945946,98720
5,2020-06-11,67.0,0.5373134328358209,0.6119402985074627,0.08108966800198136,22.507462686567163,7.373134328358209,0.4029850746268657,1.4328358208955223,0.08981874986539158,24.373134328358212,7.9850746268656705,0.9701492537313432,1.6268656716417909,99159
6,2020-06-12,76.0,0.6052631578947368,0.6447368421052632,0.05963046821599444,34.763157894736835,10.697368421052632,0.8289473684210527,1.7763157894736843,0.06163234791524257,36.92105263157895,11.18421052631579,0.8947368421052632,1.868421052631579,99595
7,2020-06-13,27.0,0.6666666666666666,0.8148148148148148,0.07163684052572931,78.96296296296295,21.777777777777782,1.1851851851851851,5.037037037037037,0.09247017385906266,80.37037037037038,22.074074074074073,1.2222222222222223,5.518518518518518,100043
8,2020-06-14,22.0,0.6818181818181818,0.6818181818181818,0.03737878283332822,50.77272727272727,16.181818181818183,0.5454545454545454,3.227272727272727,0.03737878283332822,50.77272727272727,16.181818181818183,0.5454545454545454,3.227272727272727,100404
9,2020-06-15,85.0,0.5647058823529412,0.6588235294117647,0.05133958361899532,31.364705882352943,11.576470588235296,0.7411764705882353,1.7647058823529411,0.07495022787669839,34.45882352941177,12.811764705882355,0.7882352941176469,1.9176470588235293,100763
10,2020-06-16,70.0,0.5571428571428572,0.5857142857142857,0.04867803030303027,42.58571428571429,12.542857142857144,0.6285714285714286,2.4571428571428573,0.05981525974025969,44.94285714285714,12.957142857142856,0.6714285714285714,2.571428571428572,101087
11,2020-06-17,118.0,0.4406779661016949,0.4830508474576271,0.032981265438892536,20.8728813559322,5.516949152542373,0.4322033898305085,1.38135593220339,0.041600936728055364,21.78813559322034,5.788135593220339,0.4745762711864407,1.5254237288135593,101491
12,2020-06-18,101.0,0.5148514851485149,0.5346534653465347,0.05003168173960247,20.91089108910891,8.940594059405939,0.6336633663366337,2.4059405940594054,0.05203545354535448,20.91089108910891,8.940594059405939,0.6336633663366337,2.4257425742574257,101877
13,2020-06-19,105.0,0.4190476190476191,0.5142857142857142,0.05238449975949975,36.08571428571429,11.723809523809527,0.8285714285714286,1.9428571428571428,0.051812710437710435,54.92380952380952,18.2,1.5619047619047621,3.4952380952380957,102314
14,2020-06-20,31.0,0.41935483870967744,0.5161290322580645,0.06003708358547059,29.838709677419356,9.580645161290322,0.5483870967741935,2.6129032258064515,0.08695720647333538,34.935483870967744,11.35483870967742,0.7741935483870968,3.2258064516129035,102762
15,2020-06-21,50.0,0.28,0.3,0.04547619047619047,45.66,10.14,0.86,2.84,0.055476190476190464,45.76,10.18,0.86,2.84,103078
16,2020-06-22,79.0,0.4430379746835443,0.5189873417721519,0.03233617823807695,41.556962025316466,15.075949367088606,1.1772151898734178,2.7848101265822787,0.04194588287942717,41.63291139240506,15.126582278481012,1.240506329113924,2.9873417721518987,103418
17,2020-06-23,91.0,0.5274725274725275,0.6043956043956044,0.0318729484800913,32.846153846153854,10.472527472527473,0.5604395604395604,2.043956043956044,0.045883937491080315,35.20879120879121,11.307692307692307,0.6153846153846154,2.1538461538461537,103767
18,2020-06-24,55.0,0.5636363636363636,0.5818181818181818,0.06395567689885864,46.527272727272724,12.545454545454545,0.4909090909090909,2.090909090909091,0.06536752262888619,46.61818181818182,12.563636363636364,0.509090909090909,2.109090909090909,104087
19,2020-06-25,73.0,0.4657534246575342,0.5342465753424658,0.05293974480618306,29.0,12.58904109589041,0.6849315068493149,1.7260273972602742,0.058247963984265225,29.73972602739726,12.726027397260275,0.6986301369863014,1.8356164383561644,104463
20,2020-06-26,69.0,0.4492753623188406,0.5072463768115942,0.04493276449798187,21.98550724637681,6.0144927536231885,0.43478260869565216,1.2608695652173914,0.05195772424033288,23.33333333333333,6.202898550724638,0.4492753623188406,1.4492753623188406,104629
21,2020-06-27,29.0,0.4482758620689655,0.4482758620689655,0.05849940289595455,62.206896551724135,20.655172413793107,0.9310344827586208,3.2413793103448274,0.05849940289595455,62.206896551724135,20.655172413793107,0.9310344827586208,3.2413793103448274,104878
22,2020-06-28,24.0,0.4166666666666667,0.4166666666666667,0.07430104617604605,90.75,31.41666666666667,1.75,4.75,0.07430104617604605,90.75,31.41666666666667,1.75,4.75,105193
23,2020-06-29,55.0,0.5818181818181818,0.6545454545454545,0.035585075866893974,73.38181818181819,21.98181818181818,0.8,4.090909090909091,0.0478275001093182,76.05454545454545,23.418181818181814,0.9272727272727272,4.2,105830
24,2020-06-30,102.0,0.5196078431372549,0.5784313725490197,0.06031249115807935,61.43137254901961,17.392156862745097,2.049019607843137,5.147058823529412,0.07595032962680015,63.92156862745098,19.313725490196077,2.1862745098039214,5.313725490196078,106097
25,2020-07-01,31.0,0.3548387096774194,0.5806451612903226,0.07125925150118692,44.67741935483871,6.774193548387097,0.3548387096774194,1.6774193548387095,0.1605320679917453,89.35483870967742,15.419354838709678,0.8387096774193549,3.3225806451612905,106288
26,2020-07-02,90.0,0.4444444444444444,0.5444444444444444,0.02603639570306238,22.544444444444448,6.333333333333332,0.4777777777777778,1.4555555555555555,0.037589025172358514,24.6,6.722222222222222,0.4888888888888889,1.5666666666666669,106643
27,2020-07-03,81.0,0.4444444444444444,0.4814814814814815,0.03662157287157288,26.962962962962962,6.851851851851853,0.25925925925925924,1.6790123456790125,0.03785614077280746,27.703703703703702,7.08641975308642,0.2962962962962963,1.7407407407407407,106962
28,2020-07-04,28.0,0.4642857142857143,0.5714285714285714,0.08889378478664182,85.17857142857143,17.785714285714285,1.2857142857142858,3.5,0.09811997526283232,92.64285714285714,20.178571428571427,1.4285714285714286,3.75,107185
29,2020-07-05,28.0,0.6071428571428571,0.6071428571428571,0.06905921459492882,130.0,23.285714285714285,1.6428571428571428,7.071428571428571,0.06905921459492882,130.0,23.285714285714285,1.6428571428571428,7.071428571428571,107394
30,2020-07-06,52.0,0.5384615384615384,0.5961538461538461,0.03990592740592738,32.25,9.73076923076923,0.8461538461538461,2.1923076923076925,0.044713619713619694,33.153846153846146,10.326923076923077,0.8653846153846154,2.3461538461538463,107815
31,2020-07-07,55.0,0.509090909090909,0.5818181818181818,0.013827069395251204,21.618181818181814,8.272727272727273,0.5272727272727272,1.6181818181818182,0.013502394070575888,23.09090909090909,8.545454545454545,0.5636363636363636,1.7818181818181815,108023
32,2020-07-08,106.0,0.4622641509433962,0.5094339622641509,0.02105772459546045,11.933962264150946,5.415094339622642,0.3867924528301887,1.2735849056603774,0.022787284343888117,12.905660377358492,5.669811320754717,0.3962264150943397,1.339622641509434,108334
33,2020-07-09,52.0,0.5576923076923077,0.6538461538461539,0.07150609806859806,40.903846153846146,9.98076923076923,0.75,1.4038461538461535,0.08592917499167499,42.115384615384606,10.653846153846152,0.8076923076923077,1.5576923076923077,108656
34,2020-07-10,83.0,0.5060240963855421,0.5542168674698795,0.035892705019210984,13.024096385542169,5.518072289156627,0.6385542168674698,1.120481927710843,0.04071198212764472,13.096385542168678,5.566265060240964,0.6385542168674698,1.120481927710843,108984
35,2020-07-11,25.0,0.76,0.76,0.1310733766233766,49.68,16.4,0.84,3.08,0.1310733766233766,49.68,16.4,0.84,3.08,109150
36,2020-07-12,23.0,0.7391304347826086,0.7826086956521741,0.0843482182069137,48.91304347826087,13.26086956521739,1.0,2.9130434782608696,0.0843482182069137,51.82608695652174,13.565217391304348,1.0,3.1739130434782608,109348
37,2020-07-13,54.0,0.6296296296296297,0.6851851851851852,0.0574616726600853,25.203703703703702,8.777777777777779,0.5925925925925926,2.1296296296296298,0.056409484107896764,28.203703703703702,10.388888888888891,0.6666666666666666,2.314814814814815,109984
38,2020-07-14,89.0,0.5730337078651685,0.6179775280898876,0.030001297079948714,30.44943820224719,15.067415730337078,1.146067415730337,2.4044943820224716,0.03245804757040705,33.57303370786517,15.752808988764045,1.146067415730337,2.4719101123595504,110350
39,2020-07-15,85.0,0.4705882352941176,0.5058823529411764,0.04778536414565823,23.858823529411765,7.094117647058822,0.5529411764705883,1.9294117647058824,0.049667717086834685,23.894117647058824,7.105882352941176,0.5529411764705883,1.9294117647058824,110693
40,2020-07-16,76.0,0.5789473684210527,0.6447368421052632,0.05076431609326342,33.07894736842105,12.98684210526316,1.4078947368421053,2.7763157894736836,0.057327314498367074,34.1578947368421,13.210526315789476,1.4078947368421053,2.8552631578947367,111144
41,2020-07-17,80.0,0.6,0.7,0.04342406204906202,32.2125,11.45,1.05,3.35,0.0633644029581529,32.5375,11.7625,1.075,3.4625,111559
42,2020-07-18,32.0,0.625,0.625,0.08131200396825385,64.8125,27.5625,2.90625,5.75,0.08131200396825385,64.8125,27.5625,2.90625,5.75,111875
43,2020-07-19,32.0,0.5,0.5625,0.04568959686147185,209.75,67.1875,3.625,9.40625,0.04122531114718615,212.9375,68.3125,3.625,9.90625,112168
44,2020-07-20,78.0,0.5384615384615384,0.5897435897435898,0.06572288822288821,43.66666666666666,11.32051282051282,0.8846153846153846,2.8717948717948723,0.06554528804528803,44.43589743589744,11.782051282051285,0.8846153846153846,2.9230769230769234,112938
45,2020-07-21,67.0,0.4328358208955224,0.4626865671641791,0.03227482177855307,30.402985074626866,12.656716417910447,2.611940298507463,7.4477611940298525,0.0335257101936206,32.492537313432834,13.164179104477613,2.716417910447761,7.850746268656716,113473
46,2020-07-22,74.0,0.5135135135135135,0.5540540540540541,0.06061695624195621,26.0,8.472972972972974,0.4594594594594595,2.108108108108108,0.07322956885456883,28.0,8.864864864864865,0.472972972972973,2.202702702702702,113790
47,2020-07-23,80.0,0.4125,0.5625,0.03385883011664262,33.325,13.475,1.6875,2.625,0.06939954981361228,65.3375,24.4875,3.0375,4.6125,114398
48,2020-07-24,88.0,0.4886363636363637,0.5681818181818182,0.04644244801915254,84.05681818181819,28.96590909090909,1.9886363636363635,4.386363636363637,0.05247107847960117,85.75,30.522727272727273,2.25,4.886363636363637,115115
49,2020-07-25,24.0,0.5,0.5833333333333334,0.026747334455667883,164.20833333333334,41.16666666666666,3.375,14.041666666666664,0.019039001122334583,176.16666666666663,45.125,3.75,15.25,115470
50,2020-07-26,19.0,0.4736842105263158,0.5263157894736842,0.06848646236804137,190.4736842105264,64.78947368421052,4.947368421052632,12.157894736842106,0.07813558517505889,386.6315789473685,150.4736842105263,14.947368421052632,38.0,115789
51,2020-07-27,72.0,0.5138888888888888,0.6111111111111112,0.046532721393832514,142.97222222222226,31.66666666666667,3.9305555555555554,11.833333333333336,0.057716333306611085,147.47222222222226,32.47222222222222,4.083333333333333,12.416666666666664,116471
52,2020-07-28,67.0,0.4029850746268657,0.5074626865671642,0.03591653923743473,27.388059701492534,8.746268656716419,0.9701492537313432,4.388059701492537,0.046593080772185214,30.074626865671643,9.373134328358207,1.1343283582089552,5.119402985074627,116871
53,2020-07-29,94.0,0.44680851063829785,0.5425531914893617,0.04079631804365838,27.319148936170212,8.797872340425531,1.1914893617021276,4.47872340425532,0.05523500583341,32.670212765957444,9.829787234042556,1.3085106382978724,5.404255319148937,117357
54,2020-07-30,60.0,0.4666666666666667,0.5333333333333333,0.0467057479557479,31.2,9.733333333333333,0.7333333333333333,3.8666666666666663,0.0583773749398749,37.98333333333333,10.9,0.85,5.116666666666666,117677
55,2020-07-31,109.0,0.3761467889908257,0.44954128440366975,0.042081838480920994,63.357798165137616,21.256880733944953,3.2201834862385317,5.889908256880734,0.053785043532749904,65.3211009174312,21.72477064220184,3.26605504587156,6.146788990825688,118281
56,2020-08-01,34.0,0.5,0.5882352941176471,0.0997565878203132,40.617647058823536,10.617647058823527,0.5588235294117647,5.235294117647058,0.11495266625168575,52.67647058823529,15.558823529411766,1.3235294117647058,7.117647058823528,118523
57,2020-08-02,27.0,0.5925925925925926,0.5925925925925926,0.1266887793276681,88.1111111111111,33.74074074074074,8.25925925925926,11.518518518518519,0.1266887793276681,88.1111111111111,33.74074074074074,8.25925925925926,11.518518518518519,118768
58,2020-08-03,24.0,0.7083333333333334,0.875,0.15054056186868678,49.875,14.791666666666664,1.4166666666666667,6.5,0.17607296927609414,63.20833333333334,18.70833333333333,2.0,9.875,118973
59,2020-08-04,70.0,0.4428571428571429,0.5285714285714286,0.0436057513914657,62.78571428571429,18.614285714285714,3.4714285714285715,12.042857142857144,0.06222433518862089,65.01428571428572,19.071428571428573,3.585714285714286,12.557142857142857,119659
60,2020-08-05,58.0,0.5172413793103449,0.5862068965517241,0.08101238679902464,32.293103448275865,9.93103448275862,0.9310344827586208,5.431034482758621,0.09025816975170413,33.20689655172413,10.5,1.0344827586206895,5.586206896551723,120033
61,2020-08-06,81.0,0.5061728395061729,0.5925925925925926,0.06189347175458279,26.11111111111111,8.925925925925926,0.7407407407407407,4.320987654320987,0.0694160075178593,29.604938271604933,9.407407407407408,0.8024691358024691,4.691358024691358,120387
62,2020-08-07,64.0,0.5625,0.59375,0.06809123602092339,32.3125,11.171875,1.234375,4.625,0.07590373602092339,32.625,11.21875,1.234375,4.6875,120903
63,2020-08-08,30.0,0.5333333333333333,0.5333333333333333,0.07947619047619046,36.333333333333336,10.466666666666667,1.5,6.533333333333332,0.07947619047619046,36.333333333333336,10.466666666666667,1.5,6.533333333333332,121148
64,2020-08-09,32.0,0.625,0.6875,0.08234814664502157,105.875,27.59375,2.75,11.3125,0.1047439799783549,106.46875,27.875,2.8125,11.3125,121367
65,2020-08-10,64.0,0.421875,0.546875,0.0340786773989899,15.5625,7.375,0.625,3.046875,0.05126482458513705,19.46875,8.40625,0.75,3.671875,122053
66,2020-08-11,42.0,0.5476190476190477,0.6428571428571429,0.05634405277262414,54.023809523809526,14.809523809523812,1.1666666666666667,6.833333333333332,0.08332817975675112,57.61904761904761,15.261904761904766,1.1904761904761905,7.1190476190476195,122389
67,2020-08-12,73.0,0.7123287671232876,0.726027397260274,0.09047621518511924,69.43835616438356,23.71232876712329,2.0821917808219177,9.849315068493153,0.09123725019272956,70.31506849315069,23.863013698630137,2.0821917808219177,9.89041095890411,122703
68,2020-08-13,51.0,0.6274509803921569,0.7058823529411765,0.035541827000160266,23.31372549019608,9.215686274509805,0.7450980392156863,5.352941176470588,0.0411440678965188,25.96078431372549,9.588235294117649,0.7450980392156863,5.549019607843137,123180
69,2020-08-14,76.0,0.4473684210526316,0.4605263157894737,0.061442787840814014,17.30263157894737,7.75,0.8026315789473685,3.684210526315789,0.060565594858357885,17.934210526315788,7.921052631578947,0.8815789473684209,3.7894736842105265,123605
70,2020-08-15,30.0,0.6,0.6666666666666666,0.10582215007214987,134.76666666666668,19.066666666666666,1.8333333333333333,7.133333333333334,0.10748881673881656,145.8,23.7,2.4,10.133333333333333,123825
71,2020-08-16,18.0,0.7777777777777778,0.8333333333333334,0.14802669552669534,105.27777777777777,33.5,4.722222222222221,24.5,0.16006373256373232,106.27777777777777,34.72222222222222,4.722222222222221,24.61111111111111,124004
72,2020-08-17,35.0,0.5714285714285714,0.6,0.035613275613275486,23.742857142857147,9.885714285714286,0.9428571428571428,5.685714285714287,0.03513708513708503,23.742857142857147,9.914285714285716,0.9428571428571428,5.7142857142857135,124218
73,2020-08-18,74.0,0.5405405405405406,0.6216216216216216,0.036592566592566565,45.067567567567565,18.0,1.7162162162162162,5.378378378378378,0.050894368394368325,47.04054054054054,18.66216216216216,1.8378378378378382,5.797297297297297,125084
74,2020-08-19,54.0,0.5740740740740741,0.5925925925925926,0.027936507936507867,22.61111111111111,9.537037037037038,1.1666666666666667,4.814814814814816,0.034417989417989354,22.66666666666667,9.574074074074074,1.2037037037037035,4.814814814814816,125408
75,2020-08-20,73.0,0.4657534246575342,0.5205479452054794,0.03036066140860653,17.616438356164387,6.424657534246576,0.8082191780821918,4.109589041095891,0.03339615331396145,18.12328767123288,6.63013698630137,0.8356164383561644,4.1506849315068495,125625
76,2020-08-21,61.0,0.4754098360655738,0.5573770491803278,0.04546627476955345,17.229508196721312,6.360655737704918,0.639344262295082,3.5081967213114758,0.049990864933487866,18.147540983606557,6.524590163934426,0.6557377049180327,3.80327868852459,126319
77,2020-08-22,31.0,0.7096774193548387,0.7741935483870968,0.1302866219801702,87.12903225806451,23.580645161290327,2.064516129032258,12.193548387096774,0.13259076944560794,88.96774193548387,24.774193548387093,2.096774193548387,12.258064516129034,126560
78,2020-08-23,31.0,0.6129032258064516,0.6451612903225806,0.0768681438036276,61.87096774193547,21.096774193548384,2.064516129032258,10.225806451612904,0.08493265993265986,63.25806451612904,21.322580645161292,2.064516129032258,10.290322580645162,126817
79,2020-08-24,62.0,0.532258064516129,0.5806451612903226,0.028687172082909287,22.016129032258068,10.016129032258064,0.7580645161290323,4.564516129032258,0.034965973926227266,22.467741935483872,10.193548387096774,0.7741935483870968,4.612903225806452,127594
80,2020-08-25,43.0,0.6511627906976745,0.6511627906976745,0.03871139971139958,32.27906976744186,13.209302325581396,0.8372093023255814,5.0,0.03871139971139958,32.27906976744186,13.209302325581396,0.8372093023255814,5.0,127903
81,2020-08-26,44.0,0.4772727272727273,0.5,0.015455693296602319,24.613636363636363,8.295454545454545,0.6136363636363636,4.113636363636363,0.017728420569329596,25.15909090909091,8.409090909090908,0.6363636363636364,4.318181818181818,128380
82,2020-08-27,54.0,0.5555555555555556,0.6851851851851852,0.02347214149876178,31.66666666666667,11.24074074074074,4.296296296296297,11.870370370370368,0.03619340172002198,41.27777777777778,14.314814814814815,4.5,12.74074074074074,128836
83,2020-08-28,58.0,0.5,0.603448275862069,0.02461718788873954,24.82758620689655,10.637931034482758,1.4482758620689655,5.637931034482759,0.031707487435935634,25.017241379310345,10.810344827586208,1.4655172413793105,5.758620689655173,129342
84,2020-08-29,40.0,0.625,0.675,0.06205857683982676,28.35,10.8,1.275,6.2,0.07430560064935053,37.225,13.575,1.4,7.925,129639
85,2020-08-30,27.0,0.7037037037037037,0.7777777777777778,0.0700210304099192,64.51851851851852,19.444444444444443,2.814814814814815,17.37037037037037,0.09399222382555704,71.48148148148148,22.592592592592588,3.4444444444444446,21.592592592592588,129888
86,2020-08-31,65.0,0.3384615384615385,0.4307692307692308,0.004456099456099432,9.461538461538463,4.984615384615385,0.6461538461538462,5.430769230769231,0.013296425796425771,14.6,6.892307692307693,1.0,6.7384615384615385,130918
87,2020-09-01,61.0,0.5081967213114754,0.6721311475409836,0.07116599247746783,40.34426229508197,10.901639344262296,3.836065573770492,23.72131147540984,0.08559818323752741,46.786885245901644,12.0,3.918032786885246,25.21311475409836,131422
88,2020-09-02,53.0,0.6415094339622641,0.6792452830188679,0.10630108361240424,22.962264150943398,8.584905660377359,1.6037735849056605,9.773584905660377,0.11192652036991643,23.358490566037737,8.660377358490566,1.6037735849056605,9.79245283018868,131941
89,2020-09-03,53.0,0.5094339622641509,0.5471698113207547,0.018068079719023092,17.641509433962266,7.754716981132076,0.6981132075471698,5.09433962264151,0.015997849111056662,18.0,8.056603773584905,0.6981132075471698,5.132075471698113,132527
90,2020-09-04,85.0,0.5882352941176471,0.6941176470588235,0.07632133307868592,26.35294117647059,10.835294117647061,1.1294117647058823,6.105882352941176,0.07886525974025964,43.2,15.011764705882351,2.4,9.094117647058825,133141
91,2020-09-05,41.0,0.6341463414634146,0.7317073170731707,0.06746029232091941,54.26829268292683,21.414634146341463,2.2195121951219514,13.24390243902439,0.06674301501827626,72.8048780487805,25.804878048780488,2.463414634146341,15.097560975609756,133511
92,2020-09-06,30.0,0.9,0.9,0.12288744588744588,87.3,28.766666666666666,2.3,16.666666666666668,0.12288744588744588,87.3,28.766666666666666,2.3,16.666666666666668,133890
93,2020-09-07,29.0,0.6896551724137931,0.8275862068965517,0.11682062310295058,51.06896551724138,15.344827586206893,1.0344827586206895,12.310344827586205,0.14742407137881258,54.3448275862069,16.344827586206893,1.1034482758620692,12.689655172413795,134295
94,2020-09-08,54.0,0.5740740740740741,0.6666666666666666,0.0674694698305809,20.796296296296298,10.25925925925926,1.2037037037037035,7.092592592592593,0.0815126797071241,23.14814814814815,11.314814814814815,1.3703703703703705,8.481481481481481,135757
95,2020-09-09,78.0,0.5128205128205128,0.6410256410256411,0.05748330373330369,14.8974358974359,7.1923076923076925,0.5384615384615384,3.8461538461538463,0.06832859270359262,16.576923076923073,7.9743589743589745,0.6153846153846154,4.1923076923076925,136135
96,2020-09-10,87.0,0.4712643678160919,0.5632183908045977,0.06312666898873791,28.62068965517241,10.505747126436782,0.7701149425287356,3.977011494252874,0.07226460002322067,30.24137931034483,11.839080459770114,0.7931034482758621,4.103448275862069,136956
97,2020-09-11,66.0,0.4848484848484849,0.5757575757575758,0.04642611176702082,20.62121212121212,8.969696969696969,0.7727272727272727,5.46969696969697,0.06695526695526688,21.454545454545453,9.409090909090908,0.8181818181818182,5.575757575757576,137676
98,2020-09-12,39.0,0.5641025641025641,0.5897435897435898,0.058338050838050735,75.30769230769229,25.64102564102564,1.7435897435897436,12.282051282051285,0.06731240981240971,75.61538461538461,25.76923076923077,1.7692307692307692,12.384615384615385,138164
99,2020-09-13,27.0,0.7407407407407407,0.7407407407407407,0.061083253166586325,69.70370370370371,27.37037037037037,3.185185185185185,20.074074074074076,0.061083253166586325,69.70370370370371,27.37037037037037,3.185185185185185,20.074074074074076,138640
100,2020-09-14,59.0,0.559322033898305,0.7118644067796609,0.09162690769682287,25.559322033898304,9.1864406779661,1.1016949152542372,7.508474576271187,0.12074615709149605,27.94915254237288,10.067796610169491,1.1355932203389831,7.864406779661017,140098
101,2020-09-15,60.0,0.55,0.5666666666666667,0.04780853174603166,21.08333333333333,8.266666666666667,0.5333333333333333,5.166666666666667,0.051975198412698334,21.88333333333333,8.483333333333333,0.55,5.2,140900
102,2020-09-16,53.0,0.6415094339622641,0.7358490566037735,0.041538770453864726,25.79245283018868,9.075471698113207,0.8113207547169812,8.283018867924529,0.049237557515859336,32.24528301886792,11.943396226415095,1.0,9.358490566037736,141852
103,2020-09-17,57.0,0.6666666666666666,0.7543859649122807,0.06442887521834886,22.78947368421053,12.87719298245614,2.0350877192982457,6.1228070175438605,0.06609820004556842,25.052631578947373,14.210526315789476,2.2280701754385963,6.578947368421053,142879
104,2020-09-18,81.0,0.5679012345679012,0.654320987654321,0.04946317971009323,31.09876543209877,10.975308641975307,1.271604938271605,6.481481481481483,0.06169288416201987,34.2962962962963,12.012345679012347,1.3333333333333333,6.765432098765433,144053
105,2020-09-19,37.0,0.6216216216216216,0.6486486486486487,0.1016291291291291,39.162162162162154,18.16216216216216,2.108108108108108,8.783783783783784,0.1061336336336336,48.78378378378378,20.94594594594595,2.4324324324324325,10.567567567567568,144607
106,2020-09-20,29.0,0.7241379310344828,0.7241379310344828,0.06564592974075728,51.96551724137931,15.965517241379311,1.5172413793103448,10.655172413793103,0.06564592974075728,51.96551724137931,15.965517241379311,1.5172413793103448,10.655172413793103,145750
107,2020-09-21,78.0,0.4487179487179487,0.5128205128205128,0.05383107633107629,29.73076923076923,10.435897435897436,1.0128205128205128,4.794871794871796,0.05806184556184552,29.93589743589743,10.615384615384617,1.0256410256410255,4.846153846153847,147583
108,2020-09-22,73.0,0.5205479452054794,0.6027397260273972,0.0436319036747118,18.068493150684933,8.013698630136986,0.7534246575342466,4.027397260273974,0.05995973680049015,19.27397260273973,8.465753424657532,0.8493150684931506,4.1643835616438345,148855
109,2020-09-23,80.0,0.5,0.5625,0.034291576479076435,18.6625,8.3625,0.625,3.625,0.028909880050505026,19.0125,8.6875,0.65,3.6875,149939
110,2020-09-24,57.0,0.6491228070175439,0.7017543859649122,0.05335727787482169,43.24561403508772,14.649122807017546,1.350877192982456,7.596491228070175,0.051834151878011485,47.82456140350878,16.350877192982455,1.4385964912280702,8.526315789473685,151087
111,2020-09-25,58.0,0.6551724137931034,0.7413793103448276,0.05237504353883657,148.44827586206898,59.77586206896552,6.620689655172414,34.10344827586207,0.06378308951584805,148.75862068965515,60.05172413793103,6.655172413793102,34.20689655172413,152717
112,2020-09-26,30.0,0.6,0.6333333333333333,0.07989770150484429,43.7,11.466666666666667,0.9666666666666668,6.6,0.07989770150484429,43.73333333333333,11.5,0.9666666666666668,6.6,153770
113,2020-09-27,25.0,0.84,0.84,0.11465548340548325,57.36,21.24,1.88,11.28,0.11465548340548325,57.36,21.24,1.88,11.28,155428
114,2020-09-28,78.0,0.4487179487179487,0.5641025641025641,-0.005167101417101396,43.92307692307693,14.564102564102564,2.3846153846153846,14.461538461538463,0.013280192030192052,46.24358974358975,15.538461538461537,2.4871794871794872,14.82051282051282,157219
115,2020-09-29,52.0,0.4615384615384616,0.6730769230769231,0.02000889735264735,40.019230769230774,13.826923076923075,1.0769230769230769,6.730769230769232,0.06655634296259293,47.5,16.78846153846154,1.2884615384615383,10.673076923076923,158991
116,2020-09-30,59.0,0.5932203389830508,0.6101694915254238,0.07265674297453945,17.084745762711865,7.881355932203389,1.0677966101694916,4.5423728813559325,0.07144608922151284,17.508474576271187,8.0,1.0677966101694916,4.5593220338983045,161107
117,2020-10-01,104.0,0.38461538461538464,0.4326923076923077,0.02160071699134204,11.894230769230768,4.471153846153847,0.4615384615384616,2.519230769230769,0.025847511863136902,11.932692307692307,4.471153846153847,0.4615384615384616,2.5769230769230766,162930
118,2020-10-02,59.0,0.6101694915254238,0.6610169491525424,0.06598356445814063,67.89830508474576,19.71186440677966,3.2033898305084745,14.711864406779661,0.0638037762614033,82.66101694915254,23.237288135593218,4.3389830508474585,21.728813559322035,165054
119,2020-10-03,32.0,0.65625,0.75,0.11344685696248187,43.34375,16.59375,1.53125,9.84375,0.1115451952561327,53.96875,20.96875,1.78125,11.625,166360
120,2020-10-04,25.0,0.64,0.68,0.08825252525252525,54.68,19.28,1.72,10.04,0.07644300144300145,54.72,19.32,1.72,10.04,168501
121,2020-10-05,76.0,0.5131578947368421,0.618421052631579,0.05337817397027917,40.10526315789474,15.078947368421053,1.7236842105263157,7.802631578947367,0.07026413888255989,40.64473684210526,15.552631578947368,1.7368421052631582,7.855263157894738,171384
122,2020-10-06,54.0,0.7037037037037037,0.7222222222222222,0.02608579178023616,27.48148148148148,11.648148148148149,1.1851851851851851,10.555555555555557,0.02608579178023616,27.574074074074073,11.685185185185185,1.1851851851851851,10.574074074074074,173756
123,2020-10-07,63.0,0.5079365079365079,0.5714285714285714,0.04139833234079264,17.825396825396822,7.984126984126984,0.9047619047619048,4.206349206349207,0.046072053681180634,24.58730158730159,10.761904761904765,1.0476190476190477,5.682539682539683,175380
124,2020-10-08,97.0,0.4845360824742268,0.5773195876288659,0.04199381517680483,16.79381443298969,7.56701030927835,1.134020618556701,4.783505154639175,0.05664315945059682,18.1340206185567,8.154639175257731,1.2371134020618555,5.0103092783505145,177730
125,2020-10-09,101.0,0.4653465346534654,0.5148514851485149,0.037457031417427386,33.574257425742566,12.019801980198018,1.504950495049505,6.475247524752477,0.04104614032831848,34.15841584158416,12.514851485148515,1.5445544554455446,6.564356435643563,180625
126,2020-10-10,45.0,0.4444444444444444,0.4666666666666667,0.05467318689540903,33.97777777777777,10.111111111111109,0.6666666666666666,7.688888888888888,0.04811234033456247,34.06666666666667,10.155555555555557,0.6666666666666666,7.688888888888888,182767
127,2020-10-11,34.0,0.4411764705882353,0.5294117647058824,0.08809603386809264,26.588235294117645,7.764705882352941,0.8235294117647058,4.970588235294118,0.09138735039470323,29.705882352941174,8.852941176470589,0.9411764705882352,6.0588235294117645,184403
128,2020-10-12,22.0,0.6363636363636364,0.6818181818181818,0.12393097643097632,76.81818181818181,17.90909090909091,2.1818181818181817,15.909090909090908,0.1421127946127945,76.9090909090909,18.09090909090909,2.1818181818181817,15.909090909090908,185378
129,2020-10-13,48.0,0.625,0.6875,0.034847207190957144,29.16666666666667,12.145833333333336,1.7083333333333333,7.854166666666668,0.04512746512746504,32.041666666666664,13.3125,1.875,8.625,189489
130,2020-10-14,53.0,0.6037735849056604,0.660377358490566,0.04928679653679645,39.35849056603774,12.849056603773587,1.30188679245283,6.358490566037736,0.07051321163113608,40.60377358490566,13.39622641509434,1.320754716981132,6.69811320754717,192064
131,2020-10-15,63.0,0.4126984126984127,0.5396825396825397,0.02676853569710709,16.126984126984127,9.587301587301589,1.0793650793650793,2.7777777777777777,0.04100975743832884,20.015873015873016,11.190476190476188,1.2063492063492065,3.111111111111111,194362
132,2020-10-16,79.0,0.5316455696202531,0.6708860759493671,0.07105602437880908,25.05063291139241,10.620253164556964,1.0886075949367089,6.810126582278482,0.08649020342058303,28.16455696202532,13.455696202531644,1.5063291139240509,7.3924050632911396,196928
133,2020-10-17,25.0,0.6,0.68,0.08232121212121196,22.24,9.36,1.16,7.4,0.1112101010101008,30.6,11.08,1.68,10.92,197067
134,2020-10-18,24.0,0.5,0.5833333333333334,0.05197811447811442,66.08333333333333,16.625,2.0416666666666665,6.833333333333332,0.07081492003366993,76.54166666666667,19.416666666666668,2.625,11.833333333333336,200804
135,2020-10-19,57.0,0.4912280701754386,0.6140350877192983,0.04785985797827902,42.122807017543856,18.05263157894737,2.087719298245614,8.157894736842103,0.07973120300751876,48.631578947368425,20.912280701754387,2.298245614035088,9.017543859649123,204111
136,2020-10-20,65.0,0.5076923076923077,0.6,0.052569264069264,31.29230769230769,13.03076923076923,1.907692307692308,7.492307692307692,0.06891541791541783,37.66153846153846,14.907692307692306,2.2461538461538457,8.646153846153847,206349
137,2020-10-21,69.0,0.5072463768115942,0.5507246376811594,0.07329495786017518,30.72463768115942,9.565217391304348,1.884057971014493,7.115942028985508,0.0781258757345713,30.797101449275363,9.565217391304348,1.884057971014493,7.144927536231884,209036
138,2020-10-22,82.0,0.475609756097561,0.6585365853658537,0.03327574525745257,18.341463414634145,6.109756097560974,1.2317073170731707,4.036585365853658,0.05320170344560582,23.04878048780488,7.2560975609756095,1.3780487804878048,4.878048780487805,211617
139,2020-10-23,82.0,0.4146341463414634,0.5975609756097561,0.051851210273466335,34.84146341463415,10.548780487804876,2.5609756097560976,8.487804878048781,0.08618536189420327,36.29268292682927,11.060975609756095,2.5853658536585367,8.682926829268293,214519
140,2020-10-24,44.0,0.6363636363636364,0.6590909090909091,0.06423652105470275,25.613636363636363,7.5681818181818175,1.0909090909090908,7.3181818181818175,0.07345369277187445,25.863636363636363,7.727272727272727,1.1136363636363635,7.363636363636362,216051
141,2020-10-25,33.0,0.6060606060606061,0.6060606060606061,0.08196805719532987,26.15151515151515,9.363636363636363,1.0303030303030305,8.545454545454545,0.08196805719532987,26.15151515151515,9.363636363636363,1.0303030303030305,8.545454545454545,218874
142,2020-10-26,71.0,0.4507042253521127,0.5633802816901409,0.05040769871755783,22.97183098591549,8.295774647887324,1.5352112676056338,7.098591549295776,0.07123889803467262,25.774647887323948,9.492957746478874,1.8450704225352117,7.295774647887324,222973
143,2020-10-27,68.0,0.4705882352941176,0.6029411764705882,0.052666740938799694,21.11764705882353,8.382352941176471,1.3823529411764706,7.235294117647059,0.07930889780154478,24.735294117647058,9.514705882352944,1.6176470588235294,8.088235294117647,225703
144,2020-10-28,111.0,0.32432432432432434,0.4774774774774775,0.034458042458042404,16.783783783783782,6.297297297297297,1.6306306306306306,5.486486486486488,0.042960332626999234,17.756756756756758,6.63963963963964,1.6666666666666667,5.7207207207207205,228366
145,2020-10-29,73.0,0.5616438356164384,0.6986301369863014,0.026170791410517383,29.123287671232877,10.150684931506847,1.9452054794520548,9.246575342465754,0.04919628443601038,34.794520547945204,11.904109589041095,2.2054794520547945,9.753424657534246,231383
146,2020-10-30,60.0,0.5333333333333333,0.6333333333333333,0.054493095638928866,43.88333333333333,11.616666666666667,2.4,10.716666666666667,0.0714722623055955,45.23333333333333,12.333333333333336,2.45,10.833333333333336,234939
147,2020-10-31,40.0,0.475,0.6,0.08367012987012977,24.55,6.6,0.95,7.025,0.1267802489177488,34.175,9.425,1.525,9.8,237313
148,2020-11-01,20.0,0.65,0.75,0.0512588383838383,143.5,35.0,5.85,32.4,0.09625883838383832,146.95,35.6,5.95,33.25,239649
149,2020-11-02,65.0,0.5076923076923077,0.6461538461538462,0.020549728049728017,38.615384615384606,11.215384615384616,1.892307692307692,9.476923076923075,0.04660159285159278,43.338461538461544,12.476923076923075,2.046153846153846,10.169230769230767,243178
150,2020-11-03,74.0,0.5135135135135135,0.6756756756756757,0.042274681337181284,38.28378378378378,11.851351351351349,2.3378378378378377,6.716216216216216,0.0594143209768209,47.17567567567568,15.851351351351349,2.9459459459459465,8.121621621621621,247916
151,2020-11-04,73.0,0.4246575342465753,0.5342465753424658,0.025383762609789952,21.63013698630137,10.205479452054792,1.7123287671232876,6.342465753424658,0.04227873977873972,26.328767123287676,12.136986301369864,2.643835616438356,7.863013698630137,250698
152,2020-11-05,60.0,0.4833333333333333,0.6833333333333333,0.05983651394901385,20.183333333333334,6.916666666666668,2.083333333333333,7.4,0.09145036075036066,23.266666666666666,8.066666666666666,2.25,7.75,253482
153,2020-11-06,97.0,0.3917525773195876,0.4845360824742268,0.03273462905937128,26.474226804123713,8.02061855670103,2.2886597938144333,8.443298969072165,0.0489343099626604,27.75257731958763,8.608247422680412,2.391752577319588,8.711340206185566,258875
154,2020-11-07,45.0,0.5777777777777777,0.6666666666666666,0.09809058842392168,31.488888888888887,11.022222222222224,7.533333333333332,16.42222222222222,0.12175725509058832,41.155555555555566,13.844444444444445,8.088888888888889,18.622222222222227,263221
155,2020-11-08,27.0,0.4814814814814815,0.6296296296296297,0.059154329895070475,46.37037037037037,13.444444444444445,4.0740740740740735,19.555555555555557,0.13575365649439708,47.22222222222222,13.74074074074074,4.111111111111111,19.592592592592588,267165
156,2020-11-09,53.0,0.4339622641509434,0.5660377358490566,0.012936371804296264,17.867924528301888,6.150943396226416,1.0377358490566038,5.90566037735849,0.04640192354814986,27.283018867924532,8.037735849056604,1.3962264150943395,9.056603773584905,272036
157,2020-11-10,60.0,0.6,0.7166666666666667,0.03995286195286192,83.85,20.566666666666666,5.533333333333332,20.53333333333333,0.06787421837421832,90.66666666666669,21.466666666666665,5.75,20.83333333333333,276481
158,2020-11-11,29.0,0.6206896551724138,0.6206896551724138,0.020852863611484203,24.17241379310345,5.896551724137932,0.9310344827586208,7.827586206896553,0.020852863611484203,24.17241379310345,5.896551724137932,0.9310344827586208,7.827586206896553,280465
159,2020-11-12,82.0,0.475609756097561,0.5853658536585366,0.041428835392249945,78.98780487804878,23.21951219512195,5.975609756097561,19.92682926829268,0.061310139724773775,80.82926829268294,23.68292682926829,6.182926829268293,20.463414634146346,285939
160,2020-11-13,105.0,0.4666666666666667,0.6095238095238096,0.037268381089809614,28.97142857142857,8.733333333333333,2.676190476190476,7.7904761904761894,0.05347431801003221,39.6,13.323809523809526,3.7428571428571433,8.847619047619046,290709
161,2020-11-14,48.0,0.4375,0.5,0.05978745791245784,67.0,20.3125,9.041666666666666,23.27083333333333,0.0725512566137565,69.0,20.979166666666668,9.041666666666666,23.58333333333333,295139
162,2020-11-15,51.0,0.4117647058823529,0.4901960784313725,0.07313580624168851,48.96078431372549,13.980392156862745,2.980392156862745,12.92156862745098,0.08792338794103491,52.058823529411775,14.588235294117649,3.0980392156862746,15.07843137254902,299440
163,2020-11-16,57.0,0.3859649122807017,0.543859649122807,0.011439520518467841,41.0,10.964912280701757,1.9122807017543861,12.0,0.03374650551342278,44.66666666666666,12.543859649122805,2.280701754385965,12.280701754385964,305473
164,2020-11-17,90.0,0.4444444444444444,0.5222222222222223,0.05101124672652442,27.644444444444453,6.933333333333334,1.2333333333333334,8.1,0.06475132609160376,36.28888888888889,9.122222222222222,1.8777777777777775,11.011111111111115,309935
165,2020-11-18,71.0,0.38028169014084506,0.4507042253521127,0.005010500714726045,38.54929577464789,11.084507042253524,2.0985915492957745,9.140845070422538,0.005341654302921903,39.394366197183096,11.76056338028169,2.1549295774647885,9.43661971830986,314453
166,2020-11-19,65.0,0.38461538461538464,0.5230769230769231,0.030316317016316967,27.07692307692308,6.061538461538461,1.3692307692307693,9.261538461538462,0.08823473193473186,32.6,7.523076923076923,1.5692307692307692,9.907692307692308,319247
167,2020-11-20,100.0,0.3,0.5,0.023388455988455983,21.13,6.93,2.14,7.82,0.0822455988455988,36.78,11.34,2.88,10.72,324234
168,2020-11-21,54.0,0.4814814814814815,0.5925925925925926,0.042599907808241085,45.907407407407405,13.296296296296294,4.314814814814815,16.814814814814813,0.0699147226230559,48.2962962962963,14.574074074074074,4.37037037037037,17.037037037037038,329191
169,2020-11-22,65.0,0.2923076923076923,0.5384615384615384,0.03960556804306799,36.66153846153846,8.846153846153848,5.0769230769230775,14.292307692307695,0.09364142801642794,45.369230769230775,10.246153846153844,5.584615384615384,19.430769230769233,333936
170,2020-11-23,105.0,0.3619047619047619,0.5238095238095238,0.0348907012299869,23.561904761904763,6.6761904761904765,1.6666666666666667,7.59047619047619,0.06597535731464298,27.97142857142857,7.857142857142858,1.9333333333333331,8.314285714285715,340731
171,2020-11-24,75.0,0.5066666666666667,0.64,0.054227564534231096,35.81333333333333,10.866666666666667,2.56,8.666666666666666,0.09756089786756443,38.56,11.706666666666667,2.6533333333333333,9.173333333333334,346013
172,2020-11-25,75.0,0.5733333333333334,0.68,0.035864442039441995,53.6,12.08,2.7066666666666666,14.893333333333333,0.05287454304954299,54.72,12.546666666666667,2.76,15.12,350971
173,2020-11-26,98.0,0.4489795918367347,0.5612244897959183,0.04190676443737665,49.92857142857143,8.224489795918366,3.122448979591837,15.714285714285715,0.06496402382845526,59.734693877551024,10.683673469387756,3.5204081632653064,17.071428571428573,356650
174,2020-11-27,120.0,0.44166666666666665,0.5583333333333333,0.04949353655603652,17.333333333333332,5.491666666666666,0.9333333333333332,4.533333333333333,0.06458016674683338,22.891666666666666,6.45,1.125,5.341666666666667,362604
175,2020-11-28,54.0,0.5185185185185185,0.5740740740740741,0.06266300571856119,36.685185185185176,9.592592592592592,3.6296296296296298,15.203703703703706,0.06821856127411674,51.77777777777778,11.24074074074074,3.907407407407408,16.555555555555557,368279
176,2020-11-29,37.0,0.5405405405405406,0.5945945945945946,0.09521284271284264,56.51351351351353,13.945945945945946,3.27027027027027,17.864864864864863,0.10796622109122103,57.67567567567568,14.513513513513516,3.3513513513513518,18.135135135135137,373662
177,2020-11-30,77.0,0.5584415584415584,0.6883116883116883,0.03150088860153789,32.896103896103895,10.714285714285714,2.1298701298701297,11.727272727272727,0.06330677211196682,38.194805194805205,12.103896103896105,2.3506493506493507,13.441558441558444,381557
178,2020-12-01,100.0,0.42,0.49,0.06025020292207786,15.77,5.72,1.24,7.61,0.05871686958874452,23.57,7.08,1.51,8.48,387052
179,2020-12-02,92.0,0.5108695652173914,0.6086956521739131,0.058120222671853024,20.72826086956522,6.076086956521738,1.3478260869565215,6.5978260869565215,0.07748623528243083,22.217391304347824,6.445652173913044,1.391304347826087,7.065217391304348,393506
180,2020-12-03,64.0,0.5625,0.6875,0.057092859397546825,36.21875,8.265625,2.171875,10.5625,0.06441951401772822,40.96875,9.125,2.328125,12.140625,399770
181,2020-12-04,96.0,0.4479166666666667,0.5,0.04704186314677383,24.33333333333333,7.28125,1.78125,8.083333333333334,0.05221863082354148,26.28125,7.822916666666668,1.8645833333333333,8.260416666666666,406189
182,2020-12-05,42.0,0.5952380952380952,0.6666666666666666,0.08995774067202626,60.523809523809526,13.857142857142858,5.428571428571429,21.809523809523807,0.09647701504844353,77.47619047619048,15.61904761904762,9.738095238095235,31.523809523809533,412543
183,2020-12-06,29.0,0.6206896551724138,0.6206896551724138,0.11566348833159168,38.0,10.034482758620689,3.7931034482758617,21.344827586206893,0.11566348833159168,38.0,10.034482758620689,3.7931034482758617,21.344827586206893,418848
184,2020-12-07,65.0,0.5076923076923077,0.6153846153846154,0.05050873200873194,38.72307692307693,9.446153846153846,2.7538461538461543,16.892307692307693,0.05253165353165346,40.12307692307692,9.846153846153848,2.907692307692308,17.523076923076925,426572
185,2020-12-08,67.0,0.5970149253731343,0.6716417910447762,0.07737371718248573,45.43283582089552,8.164179104477611,1.7611940298507462,9.328358208955224,0.08013264979216461,45.97014925373134,8.402985074626866,1.7611940298507462,9.432835820895525,432743
186,2020-12-09,90.0,0.5444444444444444,0.6666666666666666,0.047159892576559226,25.766666666666666,6.755555555555556,1.2666666666666666,9.211111111111109,0.06890956188872853,43.72222222222222,9.977777777777778,1.9111111111111112,10.822222222222226,439142
187,2020-12-10,11.0,0.7272727272727273,0.7272727272727273,0.11157024793388408,7.909090909090909,3.363636363636364,0.2727272727272727,1.0909090909090908,0.11157024793388408,7.909090909090909,3.363636363636364,0.2727272727272727,1.0909090909090908,445828
