,created_at,total_count,soft_covid_ratio,soft_sentiment_avg,soft_like_avg,soft_retweet_avg,soft_quote_avg,soft_reply_avg,confirmed_cases
0,2020-06-06,40.0,0.775,0.15484397546897538,52.375,14.85,1.025,4.525,528
1,2020-06-07,19.0,0.7894736842105263,0.08904647983595343,34.526315789473685,14.0,1.2105263157894737,4.7368421052631575,703
2,2020-06-08,70.0,0.7285714285714285,0.07803692537621104,60.271428571428565,17.885714285714286,1.1857142857142855,3.2857142857142856,601
3,2020-06-09,62.0,0.7580645161290323,0.09406454376716464,37.75806451612903,12.951612903225806,2.5967741935483866,6.112903225806452,462
4,2020-06-10,74.0,0.6351351351351351,0.10324609512109503,35.24324324324324,12.067567567567568,0.7162162162162162,2.45945945945946,479
5,2020-06-11,67.0,0.6119402985074627,0.08981874986539158,24.373134328358212,7.9850746268656705,0.9701492537313432,1.6268656716417909,439
6,2020-06-12,76.0,0.6447368421052632,0.06163234791524257,36.92105263157895,11.18421052631579,0.8947368421052632,1.868421052631579,436
7,2020-06-13,27.0,0.8148148148148148,0.09247017385906266,80.37037037037038,22.074074074074073,1.2222222222222223,5.518518518518518,448
8,2020-06-14,22.0,0.6818181818181818,0.03737878283332822,50.77272727272727,16.181818181818183,0.5454545454545454,3.227272727272727,361
9,2020-06-15,85.0,0.6588235294117647,0.07495022787669839,34.45882352941177,12.811764705882355,0.7882352941176469,1.9176470588235293,359
10,2020-06-16,70.0,0.5857142857142857,0.05981525974025969,44.94285714285714,12.957142857142856,0.6714285714285714,2.571428571428572,324
11,2020-06-17,118.0,0.4830508474576271,0.041600936728055364,21.78813559322034,5.788135593220339,0.4745762711864407,1.5254237288135593,404
12,2020-06-18,101.0,0.5346534653465347,0.05203545354535448,20.91089108910891,8.940594059405939,0.6336633663366337,2.4257425742574257,386
13,2020-06-19,105.0,0.5142857142857142,0.051812710437710435,54.92380952380952,18.2,1.5619047619047621,3.4952380952380957,437
14,2020-06-20,31.0,0.5161290322580645,0.08695720647333538,34.935483870967744,11.35483870967742,0.7741935483870968,3.2258064516129035,448
15,2020-06-21,50.0,0.3,0.055476190476190464,45.76,10.18,0.86,2.84,316
16,2020-06-22,79.0,0.5189873417721519,0.04194588287942717,41.63291139240506,15.126582278481012,1.240506329113924,2.9873417721518987,340
17,2020-06-23,91.0,0.6043956043956044,0.045883937491080315,35.20879120879121,11.307692307692307,0.6153846153846154,2.1538461538461537,349
18,2020-06-24,55.0,0.5818181818181818,0.06536752262888619,46.61818181818182,12.563636363636364,0.509090909090909,2.109090909090909,320
19,2020-06-25,73.0,0.5342465753424658,0.058247963984265225,29.73972602739726,12.726027397260275,0.6986301369863014,1.8356164383561644,376
20,2020-06-26,69.0,0.5072463768115942,0.05195772424033288,23.33333333333333,6.202898550724638,0.4492753623188406,1.4492753623188406,166
21,2020-06-27,29.0,0.4482758620689655,0.05849940289595455,62.206896551724135,20.655172413793107,0.9310344827586208,3.2413793103448274,249
22,2020-06-28,24.0,0.4166666666666667,0.07430104617604605,90.75,31.41666666666667,1.75,4.75,315
23,2020-06-29,55.0,0.6545454545454545,0.0478275001093182,76.05454545454545,23.418181818181814,0.9272727272727272,4.2,637
24,2020-06-30,102.0,0.5784313725490197,0.07595032962680015,63.92156862745098,19.313725490196077,2.1862745098039214,5.313725490196078,267
25,2020-07-01,31.0,0.5806451612903226,0.1605320679917453,89.35483870967742,15.419354838709678,0.8387096774193549,3.3225806451612905,191
26,2020-07-02,90.0,0.5444444444444444,0.037589025172358514,24.6,6.722222222222222,0.4888888888888889,1.5666666666666669,355
27,2020-07-03,81.0,0.4814814814814815,0.03785614077280746,27.703703703703702,7.08641975308642,0.2962962962962963,1.7407407407407407,319
28,2020-07-04,28.0,0.5714285714285714,0.09811997526283232,92.64285714285714,20.178571428571427,1.4285714285714286,3.75,223
29,2020-07-05,28.0,0.6071428571428571,0.06905921459492882,130.0,23.285714285714285,1.6428571428571428,7.071428571428571,209
30,2020-07-06,52.0,0.5961538461538461,0.044713619713619694,33.153846153846146,10.326923076923077,0.8653846153846154,2.3461538461538463,421
31,2020-07-07,55.0,0.5818181818181818,0.013502394070575888,23.09090909090909,8.545454545454545,0.5636363636363636,1.7818181818181815,208
32,2020-07-08,106.0,0.5094339622641509,0.022787284343888117,12.905660377358492,5.669811320754717,0.3962264150943397,1.339622641509434,311
33,2020-07-09,52.0,0.6538461538461539,0.08592917499167499,42.115384615384606,10.653846153846152,0.8076923076923077,1.5576923076923077,322
34,2020-07-10,83.0,0.5542168674698795,0.04071198212764472,13.096385542168678,5.566265060240964,0.6385542168674698,1.120481927710843,328
35,2020-07-11,25.0,0.76,0.1310733766233766,49.68,16.4,0.84,3.08,166
36,2020-07-12,23.0,0.7826086956521741,0.0843482182069137,51.82608695652174,13.565217391304348,1.0,3.1739130434782608,198
37,2020-07-13,54.0,0.6851851851851852,0.056409484107896764,28.203703703703702,10.388888888888891,0.6666666666666666,2.314814814814815,636
38,2020-07-14,89.0,0.6179775280898876,0.03245804757040705,33.57303370786517,15.752808988764045,1.146067415730337,2.4719101123595504,366
39,2020-07-15,85.0,0.5058823529411764,0.049667717086834685,23.894117647058824,7.105882352941176,0.5529411764705883,1.9294117647058824,343
40,2020-07-16,76.0,0.6447368421052632,0.057327314498367074,34.1578947368421,13.210526315789476,1.4078947368421053,2.8552631578947367,451
41,2020-07-17,80.0,0.7,0.0633644029581529,32.5375,11.7625,1.075,3.4625,415
42,2020-07-18,32.0,0.625,0.08131200396825385,64.8125,27.5625,2.90625,5.75,316
43,2020-07-19,32.0,0.5625,0.04122531114718615,212.9375,68.3125,3.625,9.90625,293
44,2020-07-20,78.0,0.5897435897435898,0.06554528804528803,44.43589743589744,11.782051282051285,0.8846153846153846,2.9230769230769234,770
45,2020-07-21,67.0,0.4626865671641791,0.0335257101936206,32.492537313432834,13.164179104477613,2.716417910447761,7.850746268656716,535
46,2020-07-22,74.0,0.5540540540540541,0.07322956885456883,28.0,8.864864864864865,0.472972972972973,2.202702702702702,317
47,2020-07-23,80.0,0.5625,0.06939954981361228,65.3375,24.4875,3.0375,4.6125,608
48,2020-07-24,88.0,0.5681818181818182,0.05247107847960117,85.75,30.522727272727273,2.25,4.886363636363637,717
49,2020-07-25,24.0,0.5833333333333334,0.019039001122334583,176.16666666666663,45.125,3.75,15.25,355
50,2020-07-26,19.0,0.5263157894736842,0.07813558517505889,386.6315789473685,150.4736842105263,14.947368421052632,38.0,319
51,2020-07-27,72.0,0.6111111111111112,0.057716333306611085,147.47222222222226,32.47222222222222,4.083333333333333,12.416666666666664,682
52,2020-07-28,67.0,0.5074626865671642,0.046593080772185214,30.074626865671643,9.373134328358207,1.1343283582089552,5.119402985074627,400
53,2020-07-29,94.0,0.5425531914893617,0.05523500583341,32.670212765957444,9.829787234042556,1.3085106382978724,5.404255319148937,486
54,2020-07-30,60.0,0.5333333333333333,0.0583773749398749,37.98333333333333,10.9,0.85,5.116666666666666,320
55,2020-07-31,109.0,0.44954128440366975,0.053785043532749904,65.3211009174312,21.72477064220184,3.26605504587156,6.146788990825688,604
56,2020-08-01,34.0,0.5882352941176471,0.11495266625168575,52.67647058823529,15.558823529411766,1.3235294117647058,7.117647058823528,242
57,2020-08-02,27.0,0.5925925925925926,0.1266887793276681,88.1111111111111,33.74074074074074,8.25925925925926,11.518518518518519,245
58,2020-08-03,24.0,0.875,0.17607296927609414,63.20833333333334,18.70833333333333,2.0,9.875,205
59,2020-08-04,70.0,0.5285714285714286,0.06222433518862089,65.01428571428572,19.071428571428573,3.585714285714286,12.557142857142857,686
60,2020-08-05,58.0,0.5862068965517241,0.09025816975170413,33.20689655172413,10.5,1.0344827586206895,5.586206896551723,374
61,2020-08-06,81.0,0.5925925925925926,0.0694160075178593,29.604938271604933,9.407407407407408,0.8024691358024691,4.691358024691358,354
62,2020-08-07,64.0,0.59375,0.07590373602092339,32.625,11.21875,1.234375,4.6875,516
63,2020-08-08,30.0,0.5333333333333333,0.07947619047619046,36.333333333333336,10.466666666666667,1.5,6.533333333333332,245
64,2020-08-09,32.0,0.6875,0.1047439799783549,106.46875,27.875,2.8125,11.3125,219
65,2020-08-10,64.0,0.546875,0.05126482458513705,19.46875,8.40625,0.75,3.671875,686
66,2020-08-11,42.0,0.6428571428571429,0.08332817975675112,57.61904761904761,15.261904761904766,1.1904761904761905,7.1190476190476195,336
67,2020-08-12,73.0,0.726027397260274,0.09123725019272956,70.31506849315069,23.863013698630137,2.0821917808219177,9.89041095890411,314
68,2020-08-13,51.0,0.7058823529411765,0.0411440678965188,25.96078431372549,9.588235294117649,0.7450980392156863,5.549019607843137,477
69,2020-08-14,76.0,0.4605263157894737,0.060565594858357885,17.934210526315788,7.921052631578947,0.8815789473684209,3.7894736842105265,425
70,2020-08-15,30.0,0.6666666666666666,0.10748881673881656,145.8,23.7,2.4,10.133333333333333,220
71,2020-08-16,18.0,0.8333333333333334,0.16006373256373232,106.27777777777777,34.72222222222222,4.722222222222221,24.61111111111111,179
72,2020-08-17,35.0,0.6,0.03513708513708503,23.742857142857147,9.914285714285716,0.9428571428571428,5.7142857142857135,214
73,2020-08-18,74.0,0.6216216216216216,0.050894368394368325,47.04054054054054,18.66216216216216,1.8378378378378382,5.797297297297297,866
74,2020-08-19,54.0,0.5925925925925926,0.034417989417989354,22.66666666666667,9.574074074074074,1.2037037037037035,4.814814814814816,324
75,2020-08-20,73.0,0.5205479452054794,0.03339615331396145,18.12328767123288,6.63013698630137,0.8356164383561644,4.1506849315068495,217
76,2020-08-21,61.0,0.5573770491803278,0.049990864933487866,18.147540983606557,6.524590163934426,0.6557377049180327,3.80327868852459,694
77,2020-08-22,31.0,0.7741935483870968,0.13259076944560794,88.96774193548387,24.774193548387093,2.096774193548387,12.258064516129034,241
78,2020-08-23,31.0,0.6451612903225806,0.08493265993265986,63.25806451612904,21.322580645161292,2.064516129032258,10.290322580645162,257
79,2020-08-24,62.0,0.5806451612903226,0.034965973926227266,22.467741935483872,10.193548387096774,0.7741935483870968,4.612903225806452,777
80,2020-08-25,43.0,0.6511627906976745,0.03871139971139958,32.27906976744186,13.209302325581396,0.8372093023255814,5.0,309
81,2020-08-26,44.0,0.5,0.017728420569329596,25.15909090909091,8.409090909090908,0.6363636363636364,4.318181818181818,477
82,2020-08-27,54.0,0.6851851851851852,0.03619340172002198,41.27777777777778,14.314814814814815,4.5,12.74074074074074,456
83,2020-08-28,58.0,0.603448275862069,0.031707487435935634,25.017241379310345,10.810344827586208,1.4655172413793105,5.758620689655173,506
84,2020-08-29,40.0,0.675,0.07430560064935053,37.225,13.575,1.4,7.925,297
85,2020-08-30,27.0,0.7777777777777778,0.09399222382555704,71.48148148148148,22.592592592592588,3.4444444444444446,21.592592592592588,249
86,2020-08-31,65.0,0.4307692307692308,0.013296425796425771,14.6,6.892307692307693,1.0,6.7384615384615385,1030
87,2020-09-01,61.0,0.6721311475409836,0.08559818323752741,46.786885245901644,12.0,3.918032786885246,25.21311475409836,504
88,2020-09-02,53.0,0.6792452830188679,0.11192652036991643,23.358490566037737,8.660377358490566,1.6037735849056605,9.79245283018868,519
89,2020-09-03,53.0,0.5471698113207547,0.015997849111056662,18.0,8.056603773584905,0.6981132075471698,5.132075471698113,586
90,2020-09-04,85.0,0.6941176470588235,0.07886525974025964,43.2,15.011764705882351,2.4,9.094117647058825,614
91,2020-09-05,41.0,0.7317073170731707,0.06674301501827626,72.8048780487805,25.804878048780488,2.463414634146341,15.097560975609756,370
92,2020-09-06,30.0,0.9,0.12288744588744588,87.3,28.766666666666666,2.3,16.666666666666668,379
93,2020-09-07,29.0,0.8275862068965517,0.14742407137881258,54.3448275862069,16.344827586206893,1.1034482758620692,12.689655172413795,405
94,2020-09-08,54.0,0.6666666666666666,0.0815126797071241,23.14814814814815,11.314814814814815,1.3703703703703705,8.481481481481481,1462
95,2020-09-09,78.0,0.6410256410256411,0.06832859270359262,16.576923076923073,7.9743589743589745,0.6153846153846154,4.1923076923076925,378
96,2020-09-10,87.0,0.5632183908045977,0.07226460002322067,30.24137931034483,11.839080459770114,0.7931034482758621,4.103448275862069,821
97,2020-09-11,66.0,0.5757575757575758,0.06695526695526688,21.454545454545453,9.409090909090908,0.8181818181818182,5.575757575757576,720
98,2020-09-12,39.0,0.5897435897435898,0.06731240981240971,75.61538461538461,25.76923076923077,1.7692307692307692,12.384615384615385,488
99,2020-09-13,27.0,0.7407407407407407,0.061083253166586325,69.70370370370371,27.37037037037037,3.185185185185185,20.074074074074076,476
100,2020-09-14,59.0,0.7118644067796609,0.12074615709149605,27.94915254237288,10.067796610169491,1.1355932203389831,7.864406779661017,1458
101,2020-09-15,60.0,0.5666666666666667,0.051975198412698334,21.88333333333333,8.483333333333333,0.55,5.2,802
102,2020-09-16,53.0,0.7358490566037735,0.049237557515859336,32.24528301886792,11.943396226415095,1.0,9.358490566037736,952
103,2020-09-17,57.0,0.7543859649122807,0.06609820004556842,25.052631578947373,14.210526315789476,2.2280701754385963,6.578947368421053,1027
104,2020-09-18,81.0,0.654320987654321,0.06169288416201987,34.2962962962963,12.012345679012347,1.3333333333333333,6.765432098765433,1174
105,2020-09-19,37.0,0.6486486486486487,0.1061336336336336,48.78378378378378,20.94594594594595,2.4324324324324325,10.567567567567568,554
106,2020-09-20,29.0,0.7241379310344828,0.06564592974075728,51.96551724137931,15.965517241379311,1.5172413793103448,10.655172413793103,1143
107,2020-09-21,78.0,0.5128205128205128,0.05806184556184552,29.93589743589743,10.615384615384617,1.0256410256410255,4.846153846153847,1833
108,2020-09-22,73.0,0.6027397260273972,0.05995973680049015,19.27397260273973,8.465753424657532,0.8493150684931506,4.1643835616438345,1272
109,2020-09-23,80.0,0.5625,0.028909880050505026,19.0125,8.6875,0.65,3.6875,1084
110,2020-09-24,57.0,0.7017543859649122,0.051834151878011485,47.82456140350878,16.350877192982455,1.4385964912280702,8.526315789473685,1148
111,2020-09-25,58.0,0.7413793103448276,0.06378308951584805,148.75862068965515,60.05172413793103,6.655172413793102,34.20689655172413,1630
112,2020-09-26,30.0,0.6333333333333333,0.07989770150484429,43.73333333333333,11.5,0.9666666666666668,6.6,1053
113,2020-09-27,25.0,0.84,0.11465548340548325,57.36,21.24,1.88,11.28,1658
114,2020-09-28,78.0,0.5641025641025641,0.013280192030192052,46.24358974358975,15.538461538461537,2.4871794871794872,14.82051282051282,1791
115,2020-09-29,52.0,0.6730769230769231,0.06655634296259293,47.5,16.78846153846154,1.2884615384615383,10.673076923076923,1772
116,2020-09-30,59.0,0.6101694915254238,0.07144608922151284,17.508474576271187,8.0,1.0677966101694916,4.5593220338983045,2116
117,2020-10-01,104.0,0.4326923076923077,0.025847511863136902,11.932692307692307,4.471153846153847,0.4615384615384616,2.5769230769230766,1823
118,2020-10-02,59.0,0.6610169491525424,0.0638037762614033,82.66101694915254,23.237288135593218,4.3389830508474585,21.728813559322035,2124
119,2020-10-03,32.0,0.75,0.1115451952561327,53.96875,20.96875,1.78125,11.625,1306
120,2020-10-04,25.0,0.68,0.07644300144300145,54.72,19.32,1.72,10.04,2141
121,2020-10-05,76.0,0.618421052631579,0.07026413888255989,40.64473684210526,15.552631578947368,1.7368421052631582,7.855263157894738,2883
122,2020-10-06,54.0,0.7222222222222222,0.02608579178023616,27.574074074074073,11.685185185185185,1.1851851851851851,10.574074074074074,2372
123,2020-10-07,63.0,0.5714285714285714,0.046072053681180634,24.58730158730159,10.761904761904765,1.0476190476190477,5.682539682539683,1624
124,2020-10-08,97.0,0.5773195876288659,0.05664315945059682,18.1340206185567,8.154639175257731,1.2371134020618555,5.0103092783505145,2350
125,2020-10-09,101.0,0.5148514851485149,0.04104614032831848,34.15841584158416,12.514851485148515,1.5445544554455446,6.564356435643563,2895
126,2020-10-10,45.0,0.4666666666666667,0.04811234033456247,34.06666666666667,10.155555555555557,0.6666666666666666,7.688888888888888,2142
127,2020-10-11,34.0,0.5294117647058824,0.09138735039470323,29.705882352941174,8.852941176470589,0.9411764705882352,6.0588235294117645,1636
128,2020-10-12,22.0,0.6818181818181818,0.1421127946127945,76.9090909090909,18.09090909090909,2.1818181818181817,15.909090909090908,975
129,2020-10-13,48.0,0.6875,0.04512746512746504,32.041666666666664,13.3125,1.875,8.625,4111
130,2020-10-14,53.0,0.660377358490566,0.07051321163113608,40.60377358490566,13.39622641509434,1.320754716981132,6.69811320754717,2575
131,2020-10-15,63.0,0.5396825396825397,0.04100975743832884,20.015873015873016,11.190476190476188,1.2063492063492065,3.111111111111111,2298
132,2020-10-16,79.0,0.6708860759493671,0.08649020342058303,28.16455696202532,13.455696202531644,1.5063291139240509,7.3924050632911396,2566
133,2020-10-17,25.0,0.68,0.1112101010101008,30.6,11.08,1.68,10.92,139
134,2020-10-18,24.0,0.5833333333333334,0.07081492003366993,76.54166666666667,19.416666666666668,2.625,11.833333333333336,3737
135,2020-10-19,57.0,0.6140350877192983,0.07973120300751876,48.631578947368425,20.912280701754387,2.298245614035088,9.017543859649123,3307
136,2020-10-20,65.0,0.6,0.06891541791541783,37.66153846153846,14.907692307692306,2.2461538461538457,8.646153846153847,2238
137,2020-10-21,69.0,0.5507246376811594,0.0781258757345713,30.797101449275363,9.565217391304348,1.884057971014493,7.144927536231884,2687
138,2020-10-22,82.0,0.6585365853658537,0.05320170344560582,23.04878048780488,7.2560975609756095,1.3780487804878048,4.878048780487805,2581
139,2020-10-23,82.0,0.5975609756097561,0.08618536189420327,36.29268292682927,11.060975609756095,2.5853658536585367,8.682926829268293,2902
140,2020-10-24,44.0,0.6590909090909091,0.07345369277187445,25.863636363636363,7.727272727272727,1.1136363636363635,7.363636363636362,1532
141,2020-10-25,33.0,0.6060606060606061,0.08196805719532987,26.15151515151515,9.363636363636363,1.0303030303030305,8.545454545454545,2823
142,2020-10-26,71.0,0.5633802816901409,0.07123889803467262,25.774647887323948,9.492957746478874,1.8450704225352117,7.295774647887324,4099
143,2020-10-27,68.0,0.6029411764705882,0.07930889780154478,24.735294117647058,9.514705882352944,1.6176470588235294,8.088235294117647,2730
144,2020-10-28,111.0,0.4774774774774775,0.042960332626999234,17.756756756756758,6.63963963963964,1.6666666666666667,5.7207207207207205,2663
145,2020-10-29,73.0,0.6986301369863014,0.04919628443601038,34.794520547945204,11.904109589041095,2.2054794520547945,9.753424657534246,3017
146,2020-10-30,60.0,0.6333333333333333,0.0714722623055955,45.23333333333333,12.333333333333336,2.45,10.833333333333336,3556
147,2020-10-31,40.0,0.6,0.1267802489177488,34.175,9.425,1.525,9.8,2374
148,2020-11-01,20.0,0.75,0.09625883838383832,146.95,35.6,5.95,33.25,2336
149,2020-11-02,65.0,0.6461538461538462,0.04660159285159278,43.338461538461544,12.476923076923075,2.046153846153846,10.169230769230767,3529
150,2020-11-03,74.0,0.6756756756756757,0.0594143209768209,47.17567567567568,15.851351351351349,2.9459459459459465,8.121621621621621,4738
151,2020-11-04,73.0,0.5342465753424658,0.04227873977873972,26.328767123287676,12.136986301369864,2.643835616438356,7.863013698630137,2782
152,2020-11-05,60.0,0.6833333333333333,0.09145036075036066,23.266666666666666,8.066666666666666,2.25,7.75,2784
153,2020-11-06,97.0,0.4845360824742268,0.0489343099626604,27.75257731958763,8.608247422680412,2.391752577319588,8.711340206185566,5393
154,2020-11-07,45.0,0.6666666666666666,0.12175725509058832,41.155555555555566,13.844444444444445,8.088888888888889,18.622222222222227,4346
155,2020-11-08,27.0,0.6296296296296297,0.13575365649439708,47.22222222222222,13.74074074074074,4.111111111111111,19.592592592592588,3944
156,2020-11-09,53.0,0.5660377358490566,0.04640192354814986,27.283018867924532,8.037735849056604,1.3962264150943395,9.056603773584905,4871
157,2020-11-10,60.0,0.7166666666666667,0.06787421837421832,90.66666666666669,21.466666666666665,5.75,20.83333333333333,4445
158,2020-11-11,29.0,0.6206896551724138,0.020852863611484203,24.17241379310345,5.896551724137932,0.9310344827586208,7.827586206896553,3984
159,2020-11-12,82.0,0.5853658536585366,0.061310139724773775,80.82926829268294,23.68292682926829,6.182926829268293,20.463414634146346,5474
160,2020-11-13,105.0,0.6095238095238096,0.05347431801003221,39.6,13.323809523809526,3.7428571428571433,8.847619047619046,4770
161,2020-11-14,48.0,0.5,0.0725512566137565,69.0,20.979166666666668,9.041666666666666,23.58333333333333,4430
162,2020-11-15,51.0,0.4901960784313725,0.08792338794103491,52.058823529411775,14.588235294117649,3.0980392156862746,15.07843137254902,4301
163,2020-11-16,57.0,0.543859649122807,0.03374650551342278,44.66666666666666,12.543859649122805,2.280701754385965,12.280701754385964,6033
164,2020-11-17,90.0,0.5222222222222223,0.06475132609160376,36.28888888888889,9.122222222222222,1.8777777777777775,11.011111111111115,4462
165,2020-11-18,71.0,0.4507042253521127,0.005341654302921903,39.394366197183096,11.76056338028169,2.1549295774647885,9.43661971830986,4518
166,2020-11-19,65.0,0.5230769230769231,0.08823473193473186,32.6,7.523076923076923,1.5692307692307692,9.907692307692308,4794
167,2020-11-20,100.0,0.5,0.0822455988455988,36.78,11.34,2.88,10.72,4987
168,2020-11-21,54.0,0.5925925925925926,0.0699147226230559,48.2962962962963,14.574074074074074,4.37037037037037,17.037037037037038,4957
169,2020-11-22,65.0,0.5384615384615384,0.09364142801642794,45.369230769230775,10.246153846153844,5.584615384615384,19.430769230769233,4745
170,2020-11-23,105.0,0.5238095238095238,0.06597535731464298,27.97142857142857,7.857142857142858,1.9333333333333331,8.314285714285715,6795
171,2020-11-24,75.0,0.64,0.09756089786756443,38.56,11.706666666666667,2.6533333333333333,9.173333333333334,5282
172,2020-11-25,75.0,0.68,0.05287454304954299,54.72,12.546666666666667,2.76,15.12,4958
173,2020-11-26,98.0,0.5612244897959183,0.06496402382845526,59.734693877551024,10.683673469387756,3.5204081632653064,17.071428571428573,5679
174,2020-11-27,120.0,0.5583333333333333,0.06458016674683338,22.891666666666666,6.45,1.125,5.341666666666667,5954
175,2020-11-28,54.0,0.5740740740740741,0.06821856127411674,51.77777777777778,11.24074074074074,3.907407407407408,16.555555555555557,5675
176,2020-11-29,37.0,0.5945945945945946,0.10796622109122103,57.67567567567568,14.513513513513516,3.3513513513513518,18.135135135135137,5383
177,2020-11-30,77.0,0.6883116883116883,0.06330677211196682,38.194805194805205,12.103896103896105,2.3506493506493507,13.441558441558444,7895
178,2020-12-01,100.0,0.49,0.05871686958874452,23.57,7.08,1.51,8.48,5495
179,2020-12-02,92.0,0.6086956521739131,0.07748623528243083,22.217391304347824,6.445652173913044,1.391304347826087,7.065217391304348,6454
180,2020-12-03,64.0,0.6875,0.06441951401772822,40.96875,9.125,2.328125,12.140625,6264
181,2020-12-04,96.0,0.5,0.05221863082354148,26.28125,7.822916666666668,1.8645833333333333,8.260416666666666,6419
182,2020-12-05,42.0,0.6666666666666666,0.09647701504844353,77.47619047619048,15.61904761904762,9.738095238095235,31.523809523809533,6354
183,2020-12-06,29.0,0.6206896551724138,0.11566348833159168,38.0,10.034482758620689,3.7931034482758617,21.344827586206893,6305
184,2020-12-07,65.0,0.6153846153846154,0.05253165353165346,40.12307692307692,9.846153846153848,2.907692307692308,17.523076923076925,7724
185,2020-12-08,67.0,0.6716417910447762,0.08013264979216461,45.97014925373134,8.402985074626866,1.7611940298507462,9.432835820895525,6171
186,2020-12-09,90.0,0.6666666666666666,0.06890956188872853,43.72222222222222,9.977777777777778,1.9111111111111112,10.822222222222226,6399
187,2020-12-10,11.0,0.7272727272727273,0.11157024793388408,7.909090909090909,3.363636363636364,0.2727272727272727,1.0909090909090908,6686
