,created_at,total_count,covid_ratio,sentiment_avg,like_avg,retweet_avg,quote_avg,reply_avg,confirmed_cases
0,2020-06-06,40.0,0.7,0.15296897546897534,45.3,12.6,0.875,3.525,107815
1,2020-06-07,19.0,0.7894736842105263,0.08904647983595343,34.526315789473685,14.0,1.2105263157894737,4.7368421052631575,108023
2,2020-06-08,70.0,0.6714285714285714,0.07159041950113376,56.957142857142856,16.614285714285714,1.0714285714285714,3.085714285714286,108334
3,2020-06-09,62.0,0.6935483870967742,0.08426493477400727,35.20967741935485,11.741935483870966,0.8870967741935484,2.3548387096774195,108656
4,2020-06-10,74.0,0.527027027027027,0.08241276178776173,31.283783783783782,10.391891891891893,0.5675675675675675,2.256756756756757,108984
5,2020-06-11,67.0,0.5373134328358209,0.08108966800198136,22.507462686567163,7.373134328358209,0.4029850746268657,1.4328358208955223,109150
6,2020-06-12,76.0,0.6052631578947368,0.05963046821599444,34.763157894736835,10.697368421052632,0.8289473684210527,1.7763157894736843,109348
7,2020-06-13,27.0,0.6666666666666666,0.07163684052572931,78.96296296296295,21.777777777777782,1.1851851851851851,5.037037037037037,109984
8,2020-06-14,22.0,0.6818181818181818,0.03737878283332822,50.77272727272727,16.181818181818183,0.5454545454545454,3.227272727272727,110350
9,2020-06-15,85.0,0.5647058823529412,0.05133958361899532,31.364705882352943,11.576470588235296,0.7411764705882353,1.7647058823529411,110693
10,2020-06-16,70.0,0.5571428571428572,0.04867803030303027,42.58571428571429,12.542857142857144,0.6285714285714286,2.4571428571428573,111144
11,2020-06-17,118.0,0.4406779661016949,0.032981265438892536,20.8728813559322,5.516949152542373,0.4322033898305085,1.38135593220339,111559
12,2020-06-18,101.0,0.5148514851485149,0.05003168173960247,20.91089108910891,8.940594059405939,0.6336633663366337,2.4059405940594054,111875
13,2020-06-19,105.0,0.4190476190476191,0.05238449975949975,36.08571428571429,11.723809523809527,0.8285714285714286,1.9428571428571428,112168
14,2020-06-20,31.0,0.41935483870967744,0.06003708358547059,29.838709677419356,9.580645161290322,0.5483870967741935,2.6129032258064515,112938
15,2020-06-21,50.0,0.28,0.04547619047619047,45.66,10.14,0.86,2.84,113473
16,2020-06-22,79.0,0.4430379746835443,0.03233617823807695,41.556962025316466,15.075949367088606,1.1772151898734178,2.7848101265822787,113790
17,2020-06-23,91.0,0.5274725274725275,0.0318729484800913,32.846153846153854,10.472527472527473,0.5604395604395604,2.043956043956044,114398
18,2020-06-24,55.0,0.5636363636363636,0.06395567689885864,46.527272727272724,12.545454545454545,0.4909090909090909,2.090909090909091,115115
19,2020-06-25,73.0,0.4657534246575342,0.05293974480618306,29.0,12.58904109589041,0.6849315068493149,1.7260273972602742,115470
20,2020-06-26,69.0,0.4492753623188406,0.04493276449798187,21.98550724637681,6.0144927536231885,0.43478260869565216,1.2608695652173914,115789
21,2020-06-27,29.0,0.4482758620689655,0.05849940289595455,62.206896551724135,20.655172413793107,0.9310344827586208,3.2413793103448274,116471
22,2020-06-28,24.0,0.4166666666666667,0.07430104617604605,90.75,31.41666666666667,1.75,4.75,116871
23,2020-06-29,55.0,0.5818181818181818,0.035585075866893974,73.38181818181819,21.98181818181818,0.8,4.090909090909091,117357
24,2020-06-30,102.0,0.5196078431372549,0.06031249115807935,61.43137254901961,17.392156862745097,2.049019607843137,5.147058823529412,117677
25,2020-07-01,31.0,0.3548387096774194,0.07125925150118692,44.67741935483871,6.774193548387097,0.3548387096774194,1.6774193548387095,118281
26,2020-07-02,90.0,0.4444444444444444,0.02603639570306238,22.544444444444448,6.333333333333332,0.4777777777777778,1.4555555555555555,118523
27,2020-07-03,81.0,0.4444444444444444,0.03662157287157288,26.962962962962962,6.851851851851853,0.25925925925925924,1.6790123456790125,118768
28,2020-07-04,28.0,0.4642857142857143,0.08889378478664182,85.17857142857143,17.785714285714285,1.2857142857142858,3.5,118973
29,2020-07-05,28.0,0.6071428571428571,0.06905921459492882,130.0,23.285714285714285,1.6428571428571428,7.071428571428571,119659
30,2020-07-06,52.0,0.5384615384615384,0.03990592740592738,32.25,9.73076923076923,0.8461538461538461,2.1923076923076925,120033
31,2020-07-07,55.0,0.509090909090909,0.013827069395251204,21.618181818181814,8.272727272727273,0.5272727272727272,1.6181818181818182,120387
32,2020-07-08,106.0,0.4622641509433962,0.02105772459546045,11.933962264150946,5.415094339622642,0.3867924528301887,1.2735849056603774,120903
33,2020-07-09,52.0,0.5576923076923077,0.07150609806859806,40.903846153846146,9.98076923076923,0.75,1.4038461538461535,121148
34,2020-07-10,83.0,0.5060240963855421,0.035892705019210984,13.024096385542169,5.518072289156627,0.6385542168674698,1.120481927710843,121367
35,2020-07-11,25.0,0.76,0.1310733766233766,49.68,16.4,0.84,3.08,122053
36,2020-07-12,23.0,0.7391304347826086,0.0843482182069137,48.91304347826087,13.26086956521739,1.0,2.9130434782608696,122389
37,2020-07-13,54.0,0.6296296296296297,0.0574616726600853,25.203703703703702,8.777777777777779,0.5925925925925926,2.1296296296296298,122703
38,2020-07-14,89.0,0.5730337078651685,0.030001297079948714,30.44943820224719,15.067415730337078,1.146067415730337,2.4044943820224716,123180
39,2020-07-15,85.0,0.4705882352941176,0.04778536414565823,23.858823529411765,7.094117647058822,0.5529411764705883,1.9294117647058824,123605
40,2020-07-16,76.0,0.5789473684210527,0.05076431609326342,33.07894736842105,12.98684210526316,1.4078947368421053,2.7763157894736836,123825
41,2020-07-17,80.0,0.6,0.04342406204906202,32.2125,11.45,1.05,3.35,124004
42,2020-07-18,32.0,0.625,0.08131200396825385,64.8125,27.5625,2.90625,5.75,124218
43,2020-07-19,32.0,0.5,0.04568959686147185,209.75,67.1875,3.625,9.40625,125084
44,2020-07-20,78.0,0.5384615384615384,0.06572288822288821,43.66666666666666,11.32051282051282,0.8846153846153846,2.8717948717948723,125408
45,2020-07-21,67.0,0.4328358208955224,0.03227482177855307,30.402985074626866,12.656716417910447,2.611940298507463,7.4477611940298525,125625
46,2020-07-22,74.0,0.5135135135135135,0.06061695624195621,26.0,8.472972972972974,0.4594594594594595,2.108108108108108,126319
47,2020-07-23,80.0,0.4125,0.03385883011664262,33.325,13.475,1.6875,2.625,126560
48,2020-07-24,88.0,0.4886363636363637,0.04644244801915254,84.05681818181819,28.96590909090909,1.9886363636363635,4.386363636363637,126817
49,2020-07-25,24.0,0.5,0.026747334455667883,164.20833333333334,41.16666666666666,3.375,14.041666666666664,127594
50,2020-07-26,19.0,0.4736842105263158,0.06848646236804137,190.4736842105264,64.78947368421052,4.947368421052632,12.157894736842106,127903
51,2020-07-27,72.0,0.5138888888888888,0.046532721393832514,142.97222222222226,31.66666666666667,3.9305555555555554,11.833333333333336,128380
52,2020-07-28,67.0,0.4029850746268657,0.03591653923743473,27.388059701492534,8.746268656716419,0.9701492537313432,4.388059701492537,128836
53,2020-07-29,94.0,0.44680851063829785,0.04079631804365838,27.319148936170212,8.797872340425531,1.1914893617021276,4.47872340425532,129342
54,2020-07-30,60.0,0.4666666666666667,0.0467057479557479,31.2,9.733333333333333,0.7333333333333333,3.8666666666666663,129639
55,2020-07-31,109.0,0.3761467889908257,0.042081838480920994,63.357798165137616,21.256880733944953,3.2201834862385317,5.889908256880734,129888
56,2020-08-01,34.0,0.5,0.0997565878203132,40.617647058823536,10.617647058823527,0.5588235294117647,5.235294117647058,130918
57,2020-08-02,27.0,0.5925925925925926,0.1266887793276681,88.1111111111111,33.74074074074074,8.25925925925926,11.518518518518519,131422
58,2020-08-03,24.0,0.7083333333333334,0.15054056186868678,49.875,14.791666666666664,1.4166666666666667,6.5,131941
59,2020-08-04,70.0,0.4428571428571429,0.0436057513914657,62.78571428571429,18.614285714285714,3.4714285714285715,12.042857142857144,132527
60,2020-08-05,58.0,0.5172413793103449,0.08101238679902464,32.293103448275865,9.93103448275862,0.9310344827586208,5.431034482758621,133141
61,2020-08-06,81.0,0.5061728395061729,0.06189347175458279,26.11111111111111,8.925925925925926,0.7407407407407407,4.320987654320987,133511
62,2020-08-07,64.0,0.5625,0.06809123602092339,32.3125,11.171875,1.234375,4.625,133890
63,2020-08-08,30.0,0.5333333333333333,0.07947619047619046,36.333333333333336,10.466666666666667,1.5,6.533333333333332,134295
64,2020-08-09,32.0,0.625,0.08234814664502157,105.875,27.59375,2.75,11.3125,135757
65,2020-08-10,64.0,0.421875,0.0340786773989899,15.5625,7.375,0.625,3.046875,136135
66,2020-08-11,42.0,0.5476190476190477,0.05634405277262414,54.023809523809526,14.809523809523812,1.1666666666666667,6.833333333333332,136956
67,2020-08-12,73.0,0.7123287671232876,0.09047621518511924,69.43835616438356,23.71232876712329,2.0821917808219177,9.849315068493153,137676
68,2020-08-13,51.0,0.6274509803921569,0.035541827000160266,23.31372549019608,9.215686274509805,0.7450980392156863,5.352941176470588,138164
69,2020-08-14,76.0,0.4473684210526316,0.061442787840814014,17.30263157894737,7.75,0.8026315789473685,3.684210526315789,138640
70,2020-08-15,30.0,0.6,0.10582215007214987,134.76666666666668,19.066666666666666,1.8333333333333333,7.133333333333334,140098
71,2020-08-16,18.0,0.7777777777777778,0.14802669552669534,105.27777777777777,33.5,4.722222222222221,24.5,140900
72,2020-08-17,35.0,0.5714285714285714,0.035613275613275486,23.742857142857147,9.885714285714286,0.9428571428571428,5.685714285714287,141852
73,2020-08-18,74.0,0.5405405405405406,0.036592566592566565,45.067567567567565,18.0,1.7162162162162162,5.378378378378378,142879
74,2020-08-19,54.0,0.5740740740740741,0.027936507936507867,22.61111111111111,9.537037037037038,1.1666666666666667,4.814814814814816,144053
75,2020-08-20,73.0,0.4657534246575342,0.03036066140860653,17.616438356164387,6.424657534246576,0.8082191780821918,4.109589041095891,144607
76,2020-08-21,61.0,0.4754098360655738,0.04546627476955345,17.229508196721312,6.360655737704918,0.639344262295082,3.5081967213114758,145750
77,2020-08-22,31.0,0.7096774193548387,0.1302866219801702,87.12903225806451,23.580645161290327,2.064516129032258,12.193548387096774,147583
78,2020-08-23,31.0,0.6129032258064516,0.0768681438036276,61.87096774193547,21.096774193548384,2.064516129032258,10.225806451612904,148855
79,2020-08-24,62.0,0.532258064516129,0.028687172082909287,22.016129032258068,10.016129032258064,0.7580645161290323,4.564516129032258,149939
80,2020-08-25,43.0,0.6511627906976745,0.03871139971139958,32.27906976744186,13.209302325581396,0.8372093023255814,5.0,151087
81,2020-08-26,44.0,0.4772727272727273,0.015455693296602319,24.613636363636363,8.295454545454545,0.6136363636363636,4.113636363636363,152717
82,2020-08-27,54.0,0.5555555555555556,0.02347214149876178,31.66666666666667,11.24074074074074,4.296296296296297,11.870370370370368,153770
83,2020-08-28,58.0,0.5,0.02461718788873954,24.82758620689655,10.637931034482758,1.4482758620689655,5.637931034482759,155428
84,2020-08-29,40.0,0.625,0.06205857683982676,28.35,10.8,1.275,6.2,157219
85,2020-08-30,27.0,0.7037037037037037,0.0700210304099192,64.51851851851852,19.444444444444443,2.814814814814815,17.37037037037037,158991
86,2020-08-31,65.0,0.3384615384615385,0.004456099456099432,9.461538461538463,4.984615384615385,0.6461538461538462,5.430769230769231,161107
87,2020-09-01,61.0,0.5081967213114754,0.07116599247746783,40.34426229508197,10.901639344262296,3.836065573770492,23.72131147540984,162930
88,2020-09-02,53.0,0.6415094339622641,0.10630108361240424,22.962264150943398,8.584905660377359,1.6037735849056605,9.773584905660377,165054
89,2020-09-03,53.0,0.5094339622641509,0.018068079719023092,17.641509433962266,7.754716981132076,0.6981132075471698,5.09433962264151,166360
90,2020-09-04,85.0,0.5882352941176471,0.07632133307868592,26.35294117647059,10.835294117647061,1.1294117647058823,6.105882352941176,168501
91,2020-09-05,41.0,0.6341463414634146,0.06746029232091941,54.26829268292683,21.414634146341463,2.2195121951219514,13.24390243902439,171384
92,2020-09-06,30.0,0.9,0.12288744588744588,87.3,28.766666666666666,2.3,16.666666666666668,173756
93,2020-09-07,29.0,0.6896551724137931,0.11682062310295058,51.06896551724138,15.344827586206893,1.0344827586206895,12.310344827586205,175380
94,2020-09-08,54.0,0.5740740740740741,0.0674694698305809,20.796296296296298,10.25925925925926,1.2037037037037035,7.092592592592593,177730
95,2020-09-09,78.0,0.5128205128205128,0.05748330373330369,14.8974358974359,7.1923076923076925,0.5384615384615384,3.8461538461538463,180625
96,2020-09-10,87.0,0.4712643678160919,0.06312666898873791,28.62068965517241,10.505747126436782,0.7701149425287356,3.977011494252874,182767
97,2020-09-11,66.0,0.4848484848484849,0.04642611176702082,20.62121212121212,8.969696969696969,0.7727272727272727,5.46969696969697,184403
98,2020-09-12,39.0,0.5641025641025641,0.058338050838050735,75.30769230769229,25.64102564102564,1.7435897435897436,12.282051282051285,185378
99,2020-09-13,27.0,0.7407407407407407,0.061083253166586325,69.70370370370371,27.37037037037037,3.185185185185185,20.074074074074076,189489
100,2020-09-14,59.0,0.559322033898305,0.09162690769682287,25.559322033898304,9.1864406779661,1.1016949152542372,7.508474576271187,192064
101,2020-09-15,60.0,0.55,0.04780853174603166,21.08333333333333,8.266666666666667,0.5333333333333333,5.166666666666667,194362
102,2020-09-16,53.0,0.6415094339622641,0.041538770453864726,25.79245283018868,9.075471698113207,0.8113207547169812,8.283018867924529,196928
103,2020-09-17,57.0,0.6666666666666666,0.06442887521834886,22.78947368421053,12.87719298245614,2.0350877192982457,6.1228070175438605,197067
104,2020-09-18,81.0,0.5679012345679012,0.04946317971009323,31.09876543209877,10.975308641975307,1.271604938271605,6.481481481481483,200804
105,2020-09-19,37.0,0.6216216216216216,0.1016291291291291,39.162162162162154,18.16216216216216,2.108108108108108,8.783783783783784,204111
106,2020-09-20,29.0,0.7241379310344828,0.06564592974075728,51.96551724137931,15.965517241379311,1.5172413793103448,10.655172413793103,206349
107,2020-09-21,78.0,0.4487179487179487,0.05383107633107629,29.73076923076923,10.435897435897436,1.0128205128205128,4.794871794871796,209036
108,2020-09-22,73.0,0.5205479452054794,0.0436319036747118,18.068493150684933,8.013698630136986,0.7534246575342466,4.027397260273974,211617
109,2020-09-23,80.0,0.5,0.034291576479076435,18.6625,8.3625,0.625,3.625,214519
110,2020-09-24,57.0,0.6491228070175439,0.05335727787482169,43.24561403508772,14.649122807017546,1.350877192982456,7.596491228070175,216051
111,2020-09-25,58.0,0.6551724137931034,0.05237504353883657,148.44827586206898,59.77586206896552,6.620689655172414,34.10344827586207,218874
112,2020-09-26,30.0,0.6,0.07989770150484429,43.7,11.466666666666667,0.9666666666666668,6.6,222973
113,2020-09-27,25.0,0.84,0.11465548340548325,57.36,21.24,1.88,11.28,225703
114,2020-09-28,78.0,0.4487179487179487,-0.005167101417101396,43.92307692307693,14.564102564102564,2.3846153846153846,14.461538461538463,228366
115,2020-09-29,52.0,0.4615384615384616,0.02000889735264735,40.019230769230774,13.826923076923075,1.0769230769230769,6.730769230769232,231383
116,2020-09-30,59.0,0.5932203389830508,0.07265674297453945,17.084745762711865,7.881355932203389,1.0677966101694916,4.5423728813559325,234939
117,2020-10-01,104.0,0.38461538461538464,0.02160071699134204,11.894230769230768,4.471153846153847,0.4615384615384616,2.519230769230769,237313
118,2020-10-02,59.0,0.6101694915254238,0.06598356445814063,67.89830508474576,19.71186440677966,3.2033898305084745,14.711864406779661,239649
119,2020-10-03,32.0,0.65625,0.11344685696248187,43.34375,16.59375,1.53125,9.84375,243178
120,2020-10-04,25.0,0.64,0.08825252525252525,54.68,19.28,1.72,10.04,247916
121,2020-10-05,76.0,0.5131578947368421,0.05337817397027917,40.10526315789474,15.078947368421053,1.7236842105263157,7.802631578947367,250698
122,2020-10-06,54.0,0.7037037037037037,0.02608579178023616,27.48148148148148,11.648148148148149,1.1851851851851851,10.555555555555557,253482
123,2020-10-07,63.0,0.5079365079365079,0.04139833234079264,17.825396825396822,7.984126984126984,0.9047619047619048,4.206349206349207,258875
124,2020-10-08,97.0,0.4845360824742268,0.04199381517680483,16.79381443298969,7.56701030927835,1.134020618556701,4.783505154639175,263221
125,2020-10-09,101.0,0.4653465346534654,0.037457031417427386,33.574257425742566,12.019801980198018,1.504950495049505,6.475247524752477,267165
126,2020-10-10,45.0,0.4444444444444444,0.05467318689540903,33.97777777777777,10.111111111111109,0.6666666666666666,7.688888888888888,272036
127,2020-10-11,34.0,0.4411764705882353,0.08809603386809264,26.588235294117645,7.764705882352941,0.8235294117647058,4.970588235294118,276481
128,2020-10-12,22.0,0.6363636363636364,0.12393097643097632,76.81818181818181,17.90909090909091,2.1818181818181817,15.909090909090908,280465
129,2020-10-13,48.0,0.625,0.034847207190957144,29.16666666666667,12.145833333333336,1.7083333333333333,7.854166666666668,285939
130,2020-10-14,53.0,0.6037735849056604,0.04928679653679645,39.35849056603774,12.849056603773587,1.30188679245283,6.358490566037736,290709
131,2020-10-15,63.0,0.4126984126984127,0.02676853569710709,16.126984126984127,9.587301587301589,1.0793650793650793,2.7777777777777777,295139
132,2020-10-16,79.0,0.5316455696202531,0.07105602437880908,25.05063291139241,10.620253164556964,1.0886075949367089,6.810126582278482,299440
133,2020-10-17,25.0,0.6,0.08232121212121196,22.24,9.36,1.16,7.4,305473
134,2020-10-18,24.0,0.5,0.05197811447811442,66.08333333333333,16.625,2.0416666666666665,6.833333333333332,309935
135,2020-10-19,57.0,0.4912280701754386,0.04785985797827902,42.122807017543856,18.05263157894737,2.087719298245614,8.157894736842103,314453
136,2020-10-20,65.0,0.5076923076923077,0.052569264069264,31.29230769230769,13.03076923076923,1.907692307692308,7.492307692307692,319247
137,2020-10-21,69.0,0.5072463768115942,0.07329495786017518,30.72463768115942,9.565217391304348,1.884057971014493,7.115942028985508,324234
138,2020-10-22,82.0,0.475609756097561,0.03327574525745257,18.341463414634145,6.109756097560974,1.2317073170731707,4.036585365853658,329191
139,2020-10-23,82.0,0.4146341463414634,0.051851210273466335,34.84146341463415,10.548780487804876,2.5609756097560976,8.487804878048781,333936
140,2020-10-24,44.0,0.6363636363636364,0.06423652105470275,25.613636363636363,7.5681818181818175,1.0909090909090908,7.3181818181818175,340731
141,2020-10-25,33.0,0.6060606060606061,0.08196805719532987,26.15151515151515,9.363636363636363,1.0303030303030305,8.545454545454545,346013
142,2020-10-26,71.0,0.4507042253521127,0.05040769871755783,22.97183098591549,8.295774647887324,1.5352112676056338,7.098591549295776,350971
143,2020-10-27,68.0,0.4705882352941176,0.052666740938799694,21.11764705882353,8.382352941176471,1.3823529411764706,7.235294117647059,356650
144,2020-10-28,111.0,0.32432432432432434,0.034458042458042404,16.783783783783782,6.297297297297297,1.6306306306306306,5.486486486486488,362604
145,2020-10-29,73.0,0.5616438356164384,0.026170791410517383,29.123287671232877,10.150684931506847,1.9452054794520548,9.246575342465754,368279
146,2020-10-30,60.0,0.5333333333333333,0.054493095638928866,43.88333333333333,11.616666666666667,2.4,10.716666666666667,373662
147,2020-10-31,40.0,0.475,0.08367012987012977,24.55,6.6,0.95,7.025,381557
148,2020-11-01,20.0,0.65,0.0512588383838383,143.5,35.0,5.85,32.4,387052
149,2020-11-02,65.0,0.5076923076923077,0.020549728049728017,38.615384615384606,11.215384615384616,1.892307692307692,9.476923076923075,393506
150,2020-11-03,74.0,0.5135135135135135,0.042274681337181284,38.28378378378378,11.851351351351349,2.3378378378378377,6.716216216216216,399770
151,2020-11-04,73.0,0.4246575342465753,0.025383762609789952,21.63013698630137,10.205479452054792,1.7123287671232876,6.342465753424658,406189
152,2020-11-05,60.0,0.4833333333333333,0.05983651394901385,20.183333333333334,6.916666666666668,2.083333333333333,7.4,412543
153,2020-11-06,97.0,0.3917525773195876,0.03273462905937128,26.474226804123713,8.02061855670103,2.2886597938144333,8.443298969072165,418848
154,2020-11-07,45.0,0.5777777777777777,0.09809058842392168,31.488888888888887,11.022222222222224,7.533333333333332,16.42222222222222,426572
155,2020-11-08,27.0,0.4814814814814815,0.059154329895070475,46.37037037037037,13.444444444444445,4.0740740740740735,19.555555555555557,432743
156,2020-11-09,53.0,0.4339622641509434,0.012936371804296264,17.867924528301888,6.150943396226416,1.0377358490566038,5.90566037735849,439142
157,2020-11-10,60.0,0.6,0.03995286195286192,83.85,20.566666666666666,5.533333333333332,20.53333333333333,445828
158,2020-11-11,29.0,0.6206896551724138,0.020852863611484203,24.17241379310345,5.896551724137932,0.9310344827586208,7.827586206896553,452543
