,created_at,total_count,covid_ratio,soft_covid_ratio,sentiment_avg,like_avg,retweet_avg,quote_avg,reply_avg,soft_sentiment_avg,soft_like_avg,soft_retweet_avg,soft_quote_avg,soft_reply_avg,confirmed_cases
0,2020-11-04,372.0,0.13440860215053765,0.1774193548387097,0.027266152306474875,16.368279569892472,2.9139784946236564,0.4327956989247312,1.8844086021505375,0.03060252583438065,16.983870967741936,3.1155913978494625,0.4516129032258064,1.9274193548387095,280465
1,2020-11-05,435.0,0.11494252873563217,0.15402298850574714,0.02136292108274865,14.742528735632186,2.8551724137931034,0.5103448275862069,2.094252873563218,0.026650233865751074,21.491954022988505,3.5011494252873563,0.8160919540229885,3.8298850574712633,285939
2,2020-11-06,464.0,0.10129310344827586,0.13577586206896552,0.011571464335472945,11.95689655172414,2.118534482758621,0.4590517241379311,2.002155172413793,0.019307499253619933,12.747844827586205,2.3211206896551726,0.5323275862068966,2.273706896551724,290709
3,2020-11-07,317.0,0.05362776025236593,0.0914826498422713,0.004690295246288934,29.580441640378552,4.529968454258675,0.8517350157728707,0.7381703470031545,0.008179980289601728,35.580441640378545,5.83596214511041,1.0094637223974765,1.359621451104101,295139
4,2020-11-08,331.0,0.0634441087613293,0.10574018126888217,0.00884890118273803,5.555891238670695,0.9818731117824774,0.3293051359516616,0.8851963746223565,0.013824139103595286,9.422960725075528,1.6555891238670697,0.3836858006042296,0.9939577039274924,299440
5,2020-11-09,430.0,0.10697674418604652,0.15348837209302327,0.021744819457028743,352.59767441860464,40.71860465116279,8.55813953488372,10.258139534883721,0.027399321285949168,358.39767441860465,41.99302325581395,8.795348837209302,10.881395348837211,305473
6,2020-11-10,451.0,0.12416851441241684,0.16186252771618626,0.02712235996326904,6.1618625277161865,1.042128603104213,0.2039911308203991,0.9223946784922394,0.031937497400357694,15.940133037694011,2.139689578713969,0.4545454545454545,2.3880266075388032,309935
7,2020-11-11,463.0,0.04751619870410368,0.09071274298056156,0.008066798811939195,47.69546436285097,4.6414686825054,1.0518358531317495,3.842332613390929,0.018966177510993918,49.056155507559396,4.866090712742981,1.0777537796976242,3.913606911447084,314453
8,2020-11-12,362.0,0.08287292817679558,0.1270718232044199,0.016050415527280166,12.011049723756908,1.6767955801104972,0.2845303867403315,1.6491712707182318,0.02257047005838441,27.837016574585643,7.0497237569060776,0.7983425414364641,3.861878453038674,319247
9,2020-11-13,423.0,0.1347517730496454,0.182033096926714,0.02005195913883855,20.141843971631207,2.801418439716312,0.7706855791962175,4.130023640661938,0.03006362839569524,23.69739952718676,3.7801418439716317,1.044917257683215,5.113475177304965,324234
10,2020-11-14,267.0,0.10486891385767792,0.12734082397003746,0.02161284967113616,44.7565543071161,7.651685393258427,1.1610486891385767,5.277153558052435,0.0278789753473742,45.66666666666666,7.737827715355805,1.1797752808988764,5.441947565543071,329191
11,2020-11-15,172.0,0.1511627906976744,0.20348837209302328,0.022464484266809817,38.895348837209305,6.848837209302325,1.75,7.965116279069767,0.03210826425942701,44.01744186046512,8.19767441860465,2.1511627906976742,9.430232558139538,333936
12,2020-11-16,320.0,0.159375,0.2,0.03107286593614716,32.275,4.2,1.45625,5.553125,0.03689361246392494,33.75625,4.603125,1.503125,5.69375,340731
13,2020-11-17,398.0,0.16834170854271358,0.21608040201005024,0.02345966998291116,64.43718592964825,12.969849246231155,3.238693467336684,4.949748743718592,0.029002830409865555,114.94221105527642,22.76381909547739,4.565326633165829,8.298994974874372,346013
14,2020-11-18,403.0,0.17866004962779156,0.22084367245657568,0.02410670646557742,55.37717121588089,17.146401985111662,4.498759305210919,11.900744416873447,0.027831725845838737,61.920595533498755,17.920595533498762,4.6302729528535975,12.6575682382134,350971
15,2020-11-19,500.0,0.124,0.154,0.02347754088504087,16.118,1.892,0.46399999999999997,2.7439999999999998,0.025735874218374203,17.887999999999998,2.258,0.528,2.888,356650
16,2020-11-20,531.0,0.17325800376647835,0.23163841807909605,0.027877150574890656,28.549905838041433,4.463276836158191,1.5856873822975517,7.4858757062146895,0.03772702192311414,36.66666666666666,5.770244821092279,1.847457627118644,8.661016949152541,362604
17,2020-11-21,280.0,0.15357142857142858,0.22142857142857145,0.02630164527932385,14.342857142857143,3.9071428571428566,0.7928571428571428,2.946428571428572,0.03514242123617122,15.439285714285715,4.075,0.8785714285714286,3.2928571428571427,368279
18,2020-11-22,252.0,0.13095238095238096,0.1865079365079365,0.017629086356764908,121.52777777777777,17.571428571428573,4.285714285714286,17.777777777777782,0.02055349651083775,133.22222222222223,19.003968253968253,4.738095238095238,19.34126984126984,373662
19,2020-11-23,395.0,0.19746835443037972,0.3265822784810127,0.014380206906314481,26.951898734177213,5.255696202531644,1.8860759493670889,6.567088607594937,0.03369362742859571,32.156962025316446,6.60253164556962,2.174683544303797,7.324050632911392,381557
20,2020-11-24,383.0,0.16971279373368145,0.27676240208877284,0.022642713031094216,16.981723237597908,3.190600522193212,1.010443864229765,5.005221932114883,0.037901894426045836,53.85900783289817,9.462140992167102,2.7336814621409915,10.830287206266318,387052
21,2020-11-25,487.0,0.11293634496919915,0.1868583162217659,0.014051204328411712,3.5708418891170437,0.7946611909650924,0.18275154004106772,0.7905544147843943,0.02246992882773169,18.252566735112936,4.895277207392197,1.102669404517454,4.991786447638604,393506
22,2020-11-26,485.0,0.15670103092783505,0.2020618556701031,0.023890350220063014,16.98556701030928,4.3525773195876285,0.7835051546391752,2.5855670103092785,0.026357882687595487,25.319587628865982,7.0103092783505145,1.2061855670103092,4.657731958762887,399770
23,2020-11-27,446.0,0.14349775784753366,0.2152466367713005,0.027554114576255832,8.27354260089686,2.5358744394618835,0.4708520179372198,1.8026905829596411,0.031778254599162656,28.40134529147982,5.130044843049327,1.0852017937219731,4.92152466367713,406189
24,2020-11-28,301.0,0.08970099667774087,0.1362126245847176,0.01889191511699816,20.09634551495017,3.8870431893687702,1.0498338870431894,3.651162790697674,0.02699205510252019,107.4717607973422,7.458471760797344,2.086378737541528,8.149501661129568,412543
25,2020-11-29,191.0,0.13089005235602094,0.2198952879581152,0.02039363341719361,34.36125654450261,5.701570680628272,1.8376963350785342,13.916230366492147,0.03310279847303031,45.502617801047116,8.24083769633508,3.099476439790576,19.701570680628272,418848
26,2020-11-30,437.0,0.17391304347826084,0.2585812356979405,0.027625366941728482,33.13958810068649,5.977116704805492,1.3363844393592677,5.354691075514874,0.0404310135398726,39.233409610983976,7.274599542334096,1.7551487414187643,8.306636155606407,426572
27,2020-12-01,497.0,0.22535211267605634,0.3018108651911469,0.03940886117571225,22.722334004024145,3.1247484909456738,1.818913480885312,3.579476861167002,0.05236385303160955,44.607645875251514,6.110663983903422,2.507042253521127,6.617706237424548,432743
28,2020-12-02,442.0,0.1425339366515837,0.2307692307692308,0.0154802836052836,6.4502262443438925,1.409502262443439,0.4095022624434389,1.8552036199095023,0.021749809286573968,14.735294117647056,3.434389140271493,1.3574660633484164,7.0588235294117645,439142
29,2020-12-03,498.0,0.17269076305220885,0.25903614457831325,0.019628928774260087,15.921686746987953,3.5,1.0140562248995983,3.6285140562248994,0.03530400642975942,29.45983935742972,7.004016064257027,2.050200803212852,9.295180722891564,445828
30,2020-12-04,437.0,0.17391304347826084,0.2379862700228833,0.028702623653996624,9.082379862700225,1.5423340961098395,0.37757437070938216,2.1212814645308926,0.037670522650499735,15.931350114416475,2.638443935926773,0.816933638443936,4.256292906178491,452543
