,created_at,total_count,soft_covid_ratio,soft_sentiment_avg,soft_like_avg,soft_retweet_avg,soft_quote_avg,soft_reply_avg,confirmed_cases
0,2020-11-04,372.0,0.1774193548387097,0.03060252583438065,16.983870967741936,3.1155913978494625,0.4516129032258064,1.9274193548387095,2784
1,2020-11-05,435.0,0.15402298850574714,0.026650233865751074,21.491954022988505,3.5011494252873563,0.8160919540229885,3.8298850574712633,5393
2,2020-11-06,464.0,0.13577586206896552,0.019307499253619933,12.747844827586205,2.3211206896551726,0.5323275862068966,2.273706896551724,4346
3,2020-11-07,317.0,0.0914826498422713,0.008179980289601728,35.580441640378545,5.83596214511041,1.0094637223974765,1.359621451104101,3944
4,2020-11-08,331.0,0.10574018126888217,0.013824139103595286,9.422960725075528,1.6555891238670697,0.3836858006042296,0.9939577039274924,4871
5,2020-11-09,430.0,0.15348837209302327,0.027399321285949168,358.39767441860465,41.99302325581395,8.795348837209302,10.881395348837211,4445
6,2020-11-10,451.0,0.16186252771618626,0.031937497400357694,15.940133037694011,2.139689578713969,0.4545454545454545,2.3880266075388032,3984
7,2020-11-11,463.0,0.09071274298056156,0.018966177510993918,49.056155507559396,4.866090712742981,1.0777537796976242,3.913606911447084,5474
8,2020-11-12,362.0,0.1270718232044199,0.02257047005838441,27.837016574585643,7.0497237569060776,0.7983425414364641,3.861878453038674,4770
9,2020-11-13,423.0,0.182033096926714,0.03006362839569524,23.69739952718676,3.7801418439716317,1.044917257683215,5.113475177304965,4430
10,2020-11-14,267.0,0.12734082397003746,0.0278789753473742,45.66666666666666,7.737827715355805,1.1797752808988764,5.441947565543071,4301
11,2020-11-15,172.0,0.20348837209302328,0.03210826425942701,44.01744186046512,8.19767441860465,2.1511627906976742,9.430232558139538,6033
12,2020-11-16,320.0,0.2,0.03689361246392494,33.75625,4.603125,1.503125,5.69375,4462
13,2020-11-17,398.0,0.21608040201005024,0.029002830409865555,114.94221105527642,22.76381909547739,4.565326633165829,8.298994974874372,4518
14,2020-11-18,403.0,0.22084367245657568,0.027831725845838737,61.920595533498755,17.920595533498762,4.6302729528535975,12.6575682382134,4794
15,2020-11-19,500.0,0.154,0.025735874218374203,17.887999999999998,2.258,0.528,2.888,4987
16,2020-11-20,531.0,0.23163841807909605,0.03772702192311414,36.66666666666666,5.770244821092279,1.847457627118644,8.661016949152541,4957
17,2020-11-21,280.0,0.22142857142857145,0.03514242123617122,15.439285714285715,4.075,0.8785714285714286,3.2928571428571427,4745
18,2020-11-22,252.0,0.1865079365079365,0.02055349651083775,133.22222222222223,19.003968253968253,4.738095238095238,19.34126984126984,6795
19,2020-11-23,395.0,0.3265822784810127,0.03369362742859571,32.156962025316446,6.60253164556962,2.174683544303797,7.324050632911392,5282
20,2020-11-24,383.0,0.27676240208877284,0.037901894426045836,53.85900783289817,9.462140992167102,2.7336814621409915,10.830287206266318,4958
21,2020-11-25,487.0,0.1868583162217659,0.02246992882773169,18.252566735112936,4.895277207392197,1.102669404517454,4.991786447638604,5679
22,2020-11-26,485.0,0.2020618556701031,0.026357882687595487,25.319587628865982,7.0103092783505145,1.2061855670103092,4.657731958762887,5954
23,2020-11-27,446.0,0.2152466367713005,0.031778254599162656,28.40134529147982,5.130044843049327,1.0852017937219731,4.92152466367713,5675
24,2020-11-28,301.0,0.1362126245847176,0.02699205510252019,107.4717607973422,7.458471760797344,2.086378737541528,8.149501661129568,5383
25,2020-11-29,191.0,0.2198952879581152,0.03310279847303031,45.502617801047116,8.24083769633508,3.099476439790576,19.701570680628272,7895
26,2020-11-30,437.0,0.2585812356979405,0.0404310135398726,39.233409610983976,7.274599542334096,1.7551487414187643,8.306636155606407,5495
27,2020-12-01,497.0,0.3018108651911469,0.05236385303160955,44.607645875251514,6.110663983903422,2.507042253521127,6.617706237424548,6454
28,2020-12-02,442.0,0.2307692307692308,0.021749809286573968,14.735294117647056,3.434389140271493,1.3574660633484164,7.0588235294117645,6264
29,2020-12-03,498.0,0.25903614457831325,0.03530400642975942,29.45983935742972,7.004016064257027,2.050200803212852,9.295180722891564,6419
30,2020-12-04,437.0,0.2379862700228833,0.037670522650499735,15.931350114416475,2.638443935926773,0.816933638443936,4.256292906178491,6354
31,2020-12-05,231.0,0.23376623376623376,0.04209509285807985,5.2943722943722955,1.0303030303030305,0.37662337662337664,1.6493506493506491,6305
32,2020-12-06,262.0,0.09923664122137403,0.005840816837954244,5.541984732824427,0.7786259541984732,0.1297709923664122,0.5954198473282443,7724
33,2020-12-07,340.0,0.3029411764705882,0.06543528244631182,98.12647058823528,13.05,3.873529411764706,13.332352941176472,6171
34,2020-12-08,418.0,0.2296650717703349,0.04104007435945234,13.729665071770336,3.901913875598087,0.6602870813397129,2.8373205741626792,6399
35,2020-12-09,478.0,0.3054393305439331,0.06896574016213138,55.01046025104603,8.880753138075312,2.0543933054393304,5.502092050209205,6686
36,2020-12-10,116.0,0.21551724137931036,0.033216859170522924,31.431034482758623,4.327586206896552,1.7241379310344829,7.413793103448277,6715
