,created_at,total_count,soft_covid_ratio,soft_sentiment_avg,soft_like_avg,soft_retweet_avg,soft_quote_avg,soft_reply_avg,confirmed_cases
0,2020-11-04,372.0,0.1774193548387097,0.03060252583438065,16.983870967741936,3.1155913978494625,0.4516129032258064,1.9274193548387095,406189
1,2020-11-05,435.0,0.15402298850574714,0.026650233865751074,21.491954022988505,3.5011494252873563,0.8160919540229885,3.8298850574712633,412543
2,2020-11-06,464.0,0.13577586206896552,0.019307499253619933,12.747844827586205,2.3211206896551726,0.5323275862068966,2.273706896551724,418848
3,2020-11-07,317.0,0.0914826498422713,0.008179980289601728,35.580441640378545,5.83596214511041,1.0094637223974765,1.359621451104101,426572
4,2020-11-08,331.0,0.10574018126888217,0.013824139103595286,9.422960725075528,1.6555891238670697,0.3836858006042296,0.9939577039274924,432743
5,2020-11-09,430.0,0.15348837209302327,0.027399321285949168,358.39767441860465,41.99302325581395,8.795348837209302,10.881395348837211,439142
6,2020-11-10,451.0,0.16186252771618626,0.031937497400357694,15.940133037694011,2.139689578713969,0.4545454545454545,2.3880266075388032,445828
7,2020-11-11,463.0,0.09071274298056156,0.018966177510993918,49.056155507559396,4.866090712742981,1.0777537796976242,3.913606911447084,452543
