,created_at,total_count,covid_ratio,sentiment_avg,like_avg,retweet_avg,quote_avg,reply_avg,confirmed_cases
0,2020-11-04,372.0,0.13440860215053765,0.027266152306474875,16.368279569892472,2.9139784946236564,0.4327956989247312,1.8844086021505375,4518
1,2020-11-05,435.0,0.11494252873563217,0.02136292108274865,14.742528735632186,2.8551724137931034,0.5103448275862069,2.094252873563218,4794
2,2020-11-06,464.0,0.10129310344827586,0.011571464335472945,11.95689655172414,2.118534482758621,0.4590517241379311,2.002155172413793,4987
3,2020-11-07,317.0,0.05362776025236593,0.004690295246288934,29.580441640378552,4.529968454258675,0.8517350157728707,0.7381703470031545,4957
4,2020-11-08,331.0,0.0634441087613293,0.00884890118273803,5.555891238670695,0.9818731117824774,0.3293051359516616,0.8851963746223565,4745
5,2020-11-09,430.0,0.10697674418604652,0.021744819457028743,352.59767441860464,40.71860465116279,8.55813953488372,10.258139534883721,6795
6,2020-11-10,451.0,0.12416851441241684,0.02712235996326904,6.1618625277161865,1.042128603104213,0.2039911308203991,0.9223946784922394,5282
7,2020-11-11,463.0,0.04751619870410368,0.008066798811939195,47.69546436285097,4.6414686825054,1.0518358531317495,3.842332613390929,4958
8,2020-11-12,362.0,0.08287292817679558,0.016050415527280166,12.011049723756908,1.6767955801104972,0.2845303867403315,1.6491712707182318,5679
9,2020-11-13,423.0,0.1347517730496454,0.02005195913883855,20.141843971631207,2.801418439716312,0.7706855791962175,4.130023640661938,5954
10,2020-11-14,267.0,0.10486891385767792,0.02161284967113616,44.7565543071161,7.651685393258427,1.1610486891385767,5.277153558052435,5675
11,2020-11-15,172.0,0.1511627906976744,0.022464484266809817,38.895348837209305,6.848837209302325,1.75,7.965116279069767,5383
12,2020-11-16,320.0,0.159375,0.03107286593614716,32.275,4.2,1.45625,5.553125,7895
13,2020-11-17,398.0,0.16834170854271358,0.02345966998291116,64.43718592964825,12.969849246231155,3.238693467336684,4.949748743718592,5495
14,2020-11-18,403.0,0.17866004962779156,0.02410670646557742,55.37717121588089,17.146401985111662,4.498759305210919,11.900744416873447,6454
15,2020-11-19,500.0,0.124,0.02347754088504087,16.118,1.892,0.46399999999999997,2.7439999999999998,6264
16,2020-11-20,531.0,0.17325800376647835,0.027877150574890656,28.549905838041433,4.463276836158191,1.5856873822975517,7.4858757062146895,6419
17,2020-11-21,280.0,0.15357142857142858,0.02630164527932385,14.342857142857143,3.9071428571428566,0.7928571428571428,2.946428571428572,6354
18,2020-11-22,252.0,0.13095238095238096,0.017629086356764908,121.52777777777777,17.571428571428573,4.285714285714286,17.777777777777782,6305
19,2020-11-23,395.0,0.19746835443037972,0.014380206906314481,26.951898734177213,5.255696202531644,1.8860759493670889,6.567088607594937,7724
20,2020-11-24,383.0,0.16971279373368145,0.022642713031094216,16.981723237597908,3.190600522193212,1.010443864229765,5.005221932114883,6171
21,2020-11-25,487.0,0.11293634496919915,0.014051204328411712,3.5708418891170437,0.7946611909650924,0.18275154004106772,0.7905544147843943,6399
22,2020-11-26,485.0,0.15670103092783505,0.023890350220063014,16.98556701030928,4.3525773195876285,0.7835051546391752,2.5855670103092785,6686
23,2020-11-27,446.0,0.14349775784753366,0.027554114576255832,8.27354260089686,2.5358744394618835,0.4708520179372198,1.8026905829596411,6715
