,created_at,total_count,soft_covid_ratio,soft_sentiment_avg,soft_like_avg,soft_retweet_avg,soft_quote_avg,soft_reply_avg,confirmed_cases
0,2020-10-10,145.0,0.2482758620689655,0.02719620258413361,6.448275862068965,3.8068965517241384,0.8068965517241379,4.524137931034483,272036
1,2020-10-11,119.0,0.2857142857142857,0.01134257315980003,17.605042016806728,6.924369747899161,2.7983193277310923,20.521008403361343,276481
2,2020-10-12,127.0,0.31496062992125984,0.025588910761154843,13.700787401574805,4.21259842519685,1.4960629921259845,6.31496062992126,280465
3,2020-10-13,185.0,0.2702702702702703,0.015808318058318057,11.135135135135135,5.124324324324324,1.3027027027027027,4.729729729729731,285939
4,2020-10-14,224.0,0.3035714285714285,0.024069151334776308,6.6517857142857135,4.066964285714286,1.4330357142857142,8.0625,290709
5,2020-10-15,229.0,0.222707423580786,0.01053828994877028,10.899563318777295,4.6288209606986905,1.2925764192139737,6.353711790393013,295139
6,2020-10-16,208.0,0.1971153846153846,0.0027993996743996678,4.5480769230769225,1.9423076923076923,0.38461538461538464,2.2115384615384617,299440
7,2020-10-17,113.0,0.2566371681415929,0.012548653411485255,14.132743362831857,6.265486725663718,1.3893805309734513,6.424778761061948,305473
8,2020-10-18,104.0,0.2403846153846154,0.006456911144411155,11.394230769230768,4.048076923076923,0.8461538461538461,7.3269230769230775,309935
9,2020-10-19,196.0,0.29081632653061223,-0.004671551521041318,5.275510204081633,2.270408163265306,0.5612244897959183,2.8061224489795915,314453
10,2020-10-20,239.0,0.17154811715481172,0.012377073182512513,5.2803347280334725,2.1171548117154813,0.6736401673640168,3.4728033472803346,319247
11,2020-10-21,228.0,0.20175438596491227,0.01287574206982102,8.144736842105264,2.8026315789473686,0.7807017543859649,2.8377192982456134,324234
12,2020-10-22,228.0,0.2280701754385965,0.01692029948608896,5.021929824561403,1.8771929824561404,0.5964912280701754,2.548245614035088,329191
13,2020-10-23,222.0,0.1981981981981982,0.008412454662454645,5.4774774774774775,1.9234234234234235,1.6036036036036037,5.567567567567568,333936
14,2020-10-24,124.0,0.27419354838709675,0.01036577371254788,13.024193548387096,4.919354838709677,1.9838709677419355,9.177419354838712,340731
15,2020-10-25,109.0,0.26605504587155965,0.0034845506175781218,9.431192660550456,4.0,1.7522935779816513,7.889908256880734,346013
16,2020-10-26,199.0,0.271356783919598,0.008039591898888372,12.819095477386934,3.597989949748744,2.4572864321608043,10.43718592964824,350971
17,2020-10-27,262.0,0.19083969465648856,0.006569511913023348,8.320610687022901,2.5877862595419847,1.1030534351145038,4.427480916030534,356650
18,2020-10-28,214.0,0.2570093457943925,0.004233633059567618,5.616822429906542,2.004672897196261,0.8971962616822429,3.1401869158878504,362604
19,2020-10-29,226.0,0.2079646017699115,0.0009085322249039074,6.176991150442477,1.8849557522123892,0.9203539823008848,4.389380530973451,368279
20,2020-10-30,234.0,0.28205128205128205,0.024244752161418817,9.239316239316238,2.623931623931624,1.2777777777777777,6.05982905982906,373662
21,2020-10-31,171.0,0.29239766081871343,0.009006438655561454,20.24561403508772,3.83625730994152,1.286549707602339,5.6491228070175445,381557
22,2020-11-01,126.0,0.20634920634920634,0.01758994422684898,20.67460317460317,4.365079365079366,1.2460317460317458,6.071428571428571,387052
23,2020-11-02,212.0,0.1792452830188679,0.003476394107290332,6.047169811320754,1.891509433962264,0.6037735849056604,3.2405660377358485,393506
24,2020-11-03,261.0,0.1685823754789272,0.010366768049957696,5.574712643678161,1.9272030651341,0.6973180076628352,3.2337164750957856,399770
25,2020-11-04,312.0,0.125,0.007811155858030857,4.237179487179486,1.1153846153846154,0.3717948717948718,1.8814102564102564,406189
26,2020-11-05,239.0,0.16736401673640167,0.011694741799344306,6.920502092050209,1.6276150627615062,0.7573221757322176,3.8953974895397487,412543
27,2020-11-06,229.0,0.13100436681222707,0.013310569828037062,4.790393013100436,1.5851528384279476,0.6681222707423581,1.7729257641921397,418848
28,2020-11-07,168.0,0.17857142857142858,0.011165524290524288,7.172619047619048,2.1726190476190474,0.6071428571428571,3.136904761904762,426572
29,2020-11-08,110.0,0.17272727272727273,0.007570100354191263,7.372727272727272,1.6181818181818182,0.6454545454545455,3.1272727272727274,432743
30,2020-11-09,204.0,0.25,0.034863153594771205,20.053921568627448,3.333333333333333,1.53921568627451,5.485294117647059,439142
31,2020-11-10,222.0,0.23873873873873874,0.025945710320710327,6.702702702702703,1.6126126126126126,0.536036036036036,3.2882882882882885,445828
32,2020-11-11,234.0,0.18803418803418806,0.02175315425315424,9.209401709401707,1.8418803418803416,0.8888888888888888,4.0726495726495715,452543
