,created_at,total_count,covid_ratio,sentiment_avg,like_avg,retweet_avg,quote_avg,reply_avg,confirmed_cases
0,2020-10-10,145.0,0.21379310344827587,0.02754103017034051,4.593103448275862,2.655172413793104,0.4620689655172414,3.6068965517241383,182767
1,2020-10-11,119.0,0.2184873949579832,0.005471279420859244,7.579831932773108,5.327731092436975,1.4621848739495795,9.344537815126053,184403
2,2020-10-12,127.0,0.2598425196850393,0.021332020997375314,4.4330708661417315,1.8661417322834648,0.4015748031496063,3.0236220472440944,185378
3,2020-10-13,185.0,0.20540540540540544,0.010225030225030218,9.183783783783783,4.681081081081081,1.2648648648648648,4.140540540540541,189489
4,2020-10-14,224.0,0.23214285714285715,0.016238050144300124,5.450892857142856,3.602678571428572,1.1473214285714286,6.3794642857142865,192064
5,2020-10-15,229.0,0.13973799126637554,0.012101867080033002,3.9563318777292578,2.039301310043668,0.4716157205240175,2.3842794759825328,194362
6,2020-10-16,208.0,0.15384615384615385,0.0069159862128612025,3.6105769230769234,1.6201923076923077,0.3365384615384616,1.9182692307692308,196928
7,2020-10-17,113.0,0.2035398230088496,0.012548653411485255,8.991150442477878,3.654867256637168,0.6548672566371682,3.1150442477876106,197067
8,2020-10-18,104.0,0.18269230769230768,0.005388535076035089,8.846153846153848,3.0096153846153846,0.6442307692307693,4.9423076923076925,200804
9,2020-10-19,196.0,0.17857142857142858,-0.002409425891568745,2.1785714285714284,1.1938775510204085,0.32653061224489793,1.5306122448979589,204111
10,2020-10-20,239.0,0.1297071129707113,0.011243879319193123,3.8410041841004174,1.4184100418410042,0.4225941422594142,2.573221757322176,206349
11,2020-10-21,228.0,0.14473684210526316,0.002385975987949683,3.947368421052632,1.5263157894736843,0.5043859649122807,1.6271929824561404,209036
12,2020-10-22,228.0,0.15350877192982454,0.017115231259968094,3.4254385964912277,1.4868421052631582,0.4780701754385965,2.004385964912281,211617
13,2020-10-23,222.0,0.13963963963963966,0.005749564499564482,3.40990990990991,0.8468468468468469,0.3603603603603603,3.612612612612613,214519
14,2020-10-24,124.0,0.21774193548387094,0.00895448338996725,12.306451612903226,4.669354838709677,1.8951612903225807,8.879032258064516,216051
15,2020-10-25,109.0,0.21100917431192664,-0.005418702093014029,5.908256880733945,2.2293577981651382,0.8256880733944955,3.8256880733944953,218874
16,2020-10-26,199.0,0.20100502512562812,0.005052433886604729,5.3869346733668335,1.7386934673366834,1.1758793969849246,4.824120603015075,222973
17,2020-10-27,262.0,0.1450381679389313,-0.0009927519469504352,5.755725190839693,1.5992366412213739,0.6870229007633588,3.175572519083969,225703
18,2020-10-28,214.0,0.22897196261682246,0.008049832436514652,5.317757009345795,1.94392523364486,0.8317757009345794,2.7383177570093458,228366
19,2020-10-29,226.0,0.13716814159292035,0.0025625566665389704,3.2743362831858414,1.1283185840707963,0.4557522123893805,2.4513274336283186,231383
20,2020-10-30,234.0,0.2478632478632479,0.02223010014676681,8.32905982905983,2.4017094017094016,1.1709401709401708,5.273504273504273,234939
21,2020-10-31,171.0,0.1871345029239766,0.0012093786655190176,18.339181286549707,3.1871345029239766,1.023391812865497,4.538011695906434,237313
22,2020-11-01,126.0,0.14285714285714285,0.01183046450903592,13.103174603174605,2.412698412698413,0.8888888888888888,5.325396825396825,239649
23,2020-11-02,212.0,0.12264150943396225,0.004021348366867231,4.9905660377358485,1.5,0.4811320754716981,2.806603773584906,243178
24,2020-11-03,261.0,0.12260536398467432,0.005051085568326946,4.494252873563219,1.6475095785440612,0.6168582375478927,2.670498084291188,247916
25,2020-11-04,312.0,0.07051282051282051,0.00242435515873016,1.807692307692308,0.5480769230769231,0.13782051282051286,0.4903846153846154,250698
26,2020-11-05,239.0,0.11297071129707112,0.004398377076201344,5.460251046025106,1.1213389121338913,0.3891213389121339,1.8828451882845187,253482
27,2020-11-06,229.0,0.1091703056768559,0.011193878901302471,4.2008733624454155,1.480349344978166,0.6113537117903929,1.5720524017467248,258875
28,2020-11-07,168.0,0.13095238095238096,0.00556036556036556,5.363095238095238,1.6904761904761905,0.5535714285714286,2.488095238095238,263221
29,2020-11-08,110.0,0.11818181818181818,0.001565082644628109,5.127272727272726,1.0,0.4727272727272727,2.6909090909090905,267165
30,2020-11-09,204.0,0.16666666666666666,0.02103089720736777,15.96078431372549,2.6960784313725488,1.2990196078431373,4.382352941176471,272036
31,2020-11-10,222.0,0.14414414414414414,0.018626410501410496,4.13963963963964,1.1756756756756757,0.3288288288288289,2.0270270270270268,276481
32,2020-11-11,234.0,0.1282051282051282,0.019366883116883112,5.538461538461538,1.1025641025641026,0.44017094017094016,2.1965811965811968,280465
33,2020-11-12,201.0,0.21393034825870647,0.01185036517747958,9.243781094527364,2.855721393034826,1.3482587064676617,6.82089552238806,285939
34,2020-11-13,228.0,0.19298245614035087,0.013377422407027663,8.236842105263158,1.9429824561403508,0.9736842105263158,4.271929824561403,290709
35,2020-11-14,139.0,0.22302158273381292,0.011350919264588326,8.280575539568343,3.129496402877698,1.1151079136690647,5.683453237410072,295139
36,2020-11-15,106.0,0.2358490566037736,0.022631027253668782,6.660377358490566,2.952830188679245,0.8301886792452831,6.39622641509434,299440
37,2020-11-16,220.0,0.19090909090909086,0.020482897153351696,5.777272727272727,1.6363636363636365,0.7681818181818182,3.654545454545455,305473
38,2020-11-17,267.0,0.15730337078651685,0.004306888665502879,4.104868913857678,2.168539325842697,0.9288389513108616,3.1760299625468167,309935
39,2020-11-18,222.0,0.1891891891891892,0.012040124540124531,5.4774774774774775,1.9009009009009008,0.6396396396396397,2.400900900900901,314453
40,2020-11-19,219.0,0.1506849315068493,0.014601263779345963,4.095890410958904,1.1506849315068493,0.45662100456620996,1.7716894977168949,319247
41,2020-11-20,213.0,0.22535211267605634,0.021913958498465516,8.272300469483568,2.1220657276995305,0.976525821596244,4.859154929577465,324234
42,2020-11-21,145.0,0.21379310344827587,0.015769331243469152,9.213793103448275,3.0965517241379312,0.9793103448275862,4.5793103448275865,329191
43,2020-11-22,112.0,0.25,0.040392248376623384,6.544642857142858,1.7857142857142858,0.6160714285714286,3.2767857142857144,333936
44,2020-11-23,221.0,0.22171945701357465,0.021315388043329195,7.506787330316743,2.4886877828054303,0.6877828054298643,1.9592760180995477,340731
45,2020-11-24,243.0,0.10288065843621401,0.009985002880064596,6.283950617283951,1.9053497942386832,0.6502057613168725,2.1069958847736627,346013
46,2020-11-25,235.0,0.251063829787234,0.009576463725399885,7.365957446808512,2.327659574468085,1.0936170212765957,3.3531914893617016,350971
47,2020-11-26,257.0,0.19066147859922175,0.013357062846362448,7.027237354085603,2.4357976653696496,1.5992217898832686,3.6809338521400776,356650
48,2020-11-27,232.0,0.1896551724137931,0.012558233194009038,10.89655172413793,4.392241379310345,2.5732758620689653,9.396551724137929,362604
49,2020-11-28,132.0,0.18181818181818185,0.011734935939481396,8.303030303030303,2.984848484848485,1.7196969696969695,5.75,368279
50,2020-11-29,105.0,0.22857142857142854,0.030175324675324664,9.209523809523807,6.704761904761906,3.695238095238096,12.742857142857142,373662
51,2020-11-30,213.0,0.20187793427230047,0.016425107886375478,5.990610328638498,1.4460093896713615,0.7136150234741784,3.0328638497652585,381557
52,2020-12-01,268.0,0.19029850746268656,0.01694680009045679,8.134328358208956,2.149253731343284,1.6529850746268655,6.130597014925373,387052
53,2020-12-02,233.0,0.17167381974248927,-0.0008606605602313777,8.30901287553648,3.446351931330472,1.4291845493562232,3.3819742489270386,393506
54,2020-12-03,227.0,0.22466960352422907,0.00531865619696016,4.0484581497797345,1.4229074889867843,0.7136563876651982,2.73568281938326,399770
55,2020-12-04,228.0,0.17543859649122806,0.02306584010531377,4.535087719298246,1.3947368421052628,0.5263157894736842,2.2894736842105257,406189
56,2020-12-05,129.0,0.17829457364341084,0.034235838450954716,14.093023255813955,3.37984496124031,1.124031007751938,3.875968992248062,412543
57,2020-12-06,101.0,0.19801980198019806,0.02828845384538453,12.900990099009901,3.3069306930693068,1.0693069306930694,5.524752475247523,418848
58,2020-12-07,204.0,0.22058823529411764,0.01675398947457768,6.71078431372549,2.397058823529412,1.0245098039215683,3.57843137254902,426572
59,2020-12-08,217.0,0.17972350230414744,0.022189582903868604,10.03225806451613,1.95852534562212,1.2442396313364057,5.3963133640553,432743
60,2020-12-09,245.0,0.1959183673469388,0.019618119975262818,14.583673469387755,4.293877551020408,2.620408163265306,4.481632653061224,439142
61,2020-12-10,61.0,0.16393442622950818,0.005967520639651803,1.459016393442623,0.3278688524590164,0.18032786885245905,1.0163934426229508,445828
