,created_at,total_count,covid_ratio,soft_covid_ratio,sentiment_avg,like_avg,retweet_avg,quote_avg,reply_avg,soft_sentiment_avg,soft_like_avg,soft_retweet_avg,soft_quote_avg,soft_reply_avg,confirmed_cases
0,2020-10-10,145.0,0.21379310344827587,0.2482758620689655,0.02754103017034051,4.593103448275862,2.655172413793104,0.4620689655172414,3.6068965517241383,0.02719620258413361,6.448275862068965,3.8068965517241384,0.8068965517241379,4.524137931034483,182767
1,2020-10-11,119.0,0.2184873949579832,0.2857142857142857,0.005471279420859244,7.579831932773108,5.327731092436975,1.4621848739495795,9.344537815126053,0.01134257315980003,17.605042016806728,6.924369747899161,2.7983193277310923,20.521008403361343,184403
2,2020-10-12,127.0,0.2598425196850393,0.31496062992125984,0.021332020997375314,4.4330708661417315,1.8661417322834648,0.4015748031496063,3.0236220472440944,0.025588910761154843,13.700787401574805,4.21259842519685,1.4960629921259845,6.31496062992126,185378
3,2020-10-13,185.0,0.20540540540540544,0.2702702702702703,0.010225030225030218,9.183783783783783,4.681081081081081,1.2648648648648648,4.140540540540541,0.015808318058318057,11.135135135135135,5.124324324324324,1.3027027027027027,4.729729729729731,189489
4,2020-10-14,224.0,0.23214285714285715,0.3035714285714285,0.016238050144300124,5.450892857142856,3.602678571428572,1.1473214285714286,6.3794642857142865,0.024069151334776308,6.6517857142857135,4.066964285714286,1.4330357142857142,8.0625,192064
5,2020-10-15,229.0,0.13973799126637554,0.222707423580786,0.012101867080033002,3.9563318777292578,2.039301310043668,0.4716157205240175,2.3842794759825328,0.01053828994877028,10.899563318777295,4.6288209606986905,1.2925764192139737,6.353711790393013,194362
6,2020-10-16,208.0,0.15384615384615385,0.1971153846153846,0.0069159862128612025,3.6105769230769234,1.6201923076923077,0.3365384615384616,1.9182692307692308,0.0027993996743996678,4.5480769230769225,1.9423076923076923,0.38461538461538464,2.2115384615384617,196928
7,2020-10-17,113.0,0.2035398230088496,0.2566371681415929,0.012548653411485255,8.991150442477878,3.654867256637168,0.6548672566371682,3.1150442477876106,0.012548653411485255,14.132743362831857,6.265486725663718,1.3893805309734513,6.424778761061948,197067
8,2020-10-18,104.0,0.18269230769230768,0.2403846153846154,0.005388535076035089,8.846153846153848,3.0096153846153846,0.6442307692307693,4.9423076923076925,0.006456911144411155,11.394230769230768,4.048076923076923,0.8461538461538461,7.3269230769230775,200804
9,2020-10-19,196.0,0.17857142857142858,0.29081632653061223,-0.002409425891568745,2.1785714285714284,1.1938775510204085,0.32653061224489793,1.5306122448979589,-0.004671551521041318,5.275510204081633,2.270408163265306,0.5612244897959183,2.8061224489795915,204111
10,2020-10-20,239.0,0.1297071129707113,0.17154811715481172,0.011243879319193123,3.8410041841004174,1.4184100418410042,0.4225941422594142,2.573221757322176,0.012377073182512513,5.2803347280334725,2.1171548117154813,0.6736401673640168,3.4728033472803346,206349
11,2020-10-21,228.0,0.14473684210526316,0.20175438596491227,0.002385975987949683,3.947368421052632,1.5263157894736843,0.5043859649122807,1.6271929824561404,0.01287574206982102,8.144736842105264,2.8026315789473686,0.7807017543859649,2.8377192982456134,209036
12,2020-10-22,228.0,0.15350877192982454,0.2280701754385965,0.017115231259968094,3.4254385964912277,1.4868421052631582,0.4780701754385965,2.004385964912281,0.01692029948608896,5.021929824561403,1.8771929824561404,0.5964912280701754,2.548245614035088,211617
13,2020-10-23,222.0,0.13963963963963966,0.1981981981981982,0.005749564499564482,3.40990990990991,0.8468468468468469,0.3603603603603603,3.612612612612613,0.008412454662454645,5.4774774774774775,1.9234234234234235,1.6036036036036037,5.567567567567568,214519
14,2020-10-24,124.0,0.21774193548387094,0.27419354838709675,0.00895448338996725,12.306451612903226,4.669354838709677,1.8951612903225807,8.879032258064516,0.01036577371254788,13.024193548387096,4.919354838709677,1.9838709677419355,9.177419354838712,216051
15,2020-10-25,109.0,0.21100917431192664,0.26605504587155965,-0.005418702093014029,5.908256880733945,2.2293577981651382,0.8256880733944955,3.8256880733944953,0.0034845506175781218,9.431192660550456,4.0,1.7522935779816513,7.889908256880734,218874
16,2020-10-26,199.0,0.20100502512562812,0.271356783919598,0.005052433886604729,5.3869346733668335,1.7386934673366834,1.1758793969849246,4.824120603015075,0.008039591898888372,12.819095477386934,3.597989949748744,2.4572864321608043,10.43718592964824,222973
17,2020-10-27,262.0,0.1450381679389313,0.19083969465648856,-0.0009927519469504352,5.755725190839693,1.5992366412213739,0.6870229007633588,3.175572519083969,0.006569511913023348,8.320610687022901,2.5877862595419847,1.1030534351145038,4.427480916030534,225703
18,2020-10-28,214.0,0.22897196261682246,0.2570093457943925,0.008049832436514652,5.317757009345795,1.94392523364486,0.8317757009345794,2.7383177570093458,0.004233633059567618,5.616822429906542,2.004672897196261,0.8971962616822429,3.1401869158878504,228366
19,2020-10-29,226.0,0.13716814159292035,0.2079646017699115,0.0025625566665389704,3.2743362831858414,1.1283185840707963,0.4557522123893805,2.4513274336283186,0.0009085322249039074,6.176991150442477,1.8849557522123892,0.9203539823008848,4.389380530973451,231383
20,2020-10-30,234.0,0.2478632478632479,0.28205128205128205,0.02223010014676681,8.32905982905983,2.4017094017094016,1.1709401709401708,5.273504273504273,0.024244752161418817,9.239316239316238,2.623931623931624,1.2777777777777777,6.05982905982906,234939
21,2020-10-31,171.0,0.1871345029239766,0.29239766081871343,0.0012093786655190176,18.339181286549707,3.1871345029239766,1.023391812865497,4.538011695906434,0.009006438655561454,20.24561403508772,3.83625730994152,1.286549707602339,5.6491228070175445,237313
22,2020-11-01,126.0,0.14285714285714285,0.20634920634920634,0.01183046450903592,13.103174603174605,2.412698412698413,0.8888888888888888,5.325396825396825,0.01758994422684898,20.67460317460317,4.365079365079366,1.2460317460317458,6.071428571428571,239649
23,2020-11-02,212.0,0.12264150943396225,0.1792452830188679,0.004021348366867231,4.9905660377358485,1.5,0.4811320754716981,2.806603773584906,0.003476394107290332,6.047169811320754,1.891509433962264,0.6037735849056604,3.2405660377358485,243178
24,2020-11-03,261.0,0.12260536398467432,0.1685823754789272,0.005051085568326946,4.494252873563219,1.6475095785440612,0.6168582375478927,2.670498084291188,0.010366768049957696,5.574712643678161,1.9272030651341,0.6973180076628352,3.2337164750957856,247916
25,2020-11-04,312.0,0.07051282051282051,0.125,0.00242435515873016,1.807692307692308,0.5480769230769231,0.13782051282051286,0.4903846153846154,0.007811155858030857,4.237179487179486,1.1153846153846154,0.3717948717948718,1.8814102564102564,250698
26,2020-11-05,239.0,0.11297071129707112,0.16736401673640167,0.004398377076201344,5.460251046025106,1.1213389121338913,0.3891213389121339,1.8828451882845187,0.011694741799344306,6.920502092050209,1.6276150627615062,0.7573221757322176,3.8953974895397487,253482
27,2020-11-06,229.0,0.1091703056768559,0.13100436681222707,0.011193878901302471,4.2008733624454155,1.480349344978166,0.6113537117903929,1.5720524017467248,0.013310569828037062,4.790393013100436,1.5851528384279476,0.6681222707423581,1.7729257641921397,258875
28,2020-11-07,168.0,0.13095238095238096,0.17857142857142858,0.00556036556036556,5.363095238095238,1.6904761904761905,0.5535714285714286,2.488095238095238,0.011165524290524288,7.172619047619048,2.1726190476190474,0.6071428571428571,3.136904761904762,263221
29,2020-11-08,110.0,0.11818181818181818,0.17272727272727273,0.001565082644628109,5.127272727272726,1.0,0.4727272727272727,2.6909090909090905,0.007570100354191263,7.372727272727272,1.6181818181818182,0.6454545454545455,3.1272727272727274,267165
30,2020-11-09,204.0,0.16666666666666666,0.25,0.02103089720736777,15.96078431372549,2.6960784313725488,1.2990196078431373,4.382352941176471,0.034863153594771205,20.053921568627448,3.333333333333333,1.53921568627451,5.485294117647059,272036
31,2020-11-10,222.0,0.14414414414414414,0.23873873873873874,0.018626410501410496,4.13963963963964,1.1756756756756757,0.3288288288288289,2.0270270270270268,0.025945710320710327,6.702702702702703,1.6126126126126126,0.536036036036036,3.2882882882882885,276481
32,2020-11-11,234.0,0.1282051282051282,0.18803418803418806,0.019366883116883112,5.538461538461538,1.1025641025641026,0.44017094017094016,2.1965811965811968,0.02175315425315424,9.209401709401707,1.8418803418803416,0.8888888888888888,4.0726495726495715,280465
33,2020-11-12,201.0,0.21393034825870647,0.25870646766169153,0.01185036517747958,9.243781094527364,2.855721393034826,1.3482587064676617,6.82089552238806,0.018076808717355952,17.46766169154229,3.766169154228856,1.756218905472637,8.955223880597012,285939
34,2020-11-13,228.0,0.19298245614035087,0.2543859649122807,0.013377422407027663,8.236842105263158,1.9429824561403508,0.9736842105263158,4.271929824561403,0.011455516948938,9.87719298245614,2.8377192982456134,1.3070175438596492,4.7368421052631575,290709
35,2020-11-14,139.0,0.22302158273381292,0.2949640287769784,0.011350919264588326,8.280575539568343,3.129496402877698,1.1151079136690647,5.683453237410072,0.009472422062350123,10.251798561151078,3.3741007194244603,1.1942446043165469,6.014388489208633,295139
36,2020-11-15,106.0,0.2358490566037736,0.2735849056603773,0.022631027253668782,6.660377358490566,2.952830188679245,0.8301886792452831,6.39622641509434,0.022002096436058726,10.10377358490566,3.8396226415094334,1.0849056603773586,8.113207547169809,299440
37,2020-11-16,220.0,0.19090909090909086,0.2409090909090909,0.020482897153351696,5.777272727272727,1.6363636363636365,0.7681818181818182,3.654545454545455,0.02719088613406794,7.3590909090909085,1.945454545454545,0.8590909090909091,3.945454545454545,305473
38,2020-11-17,267.0,0.15730337078651685,0.2172284644194757,0.004306888665502879,4.104868913857678,2.168539325842697,0.9288389513108616,3.1760299625468167,0.01100022653861604,5.910112359550562,2.617977528089888,1.2397003745318351,4.400749063670412,309935
39,2020-11-18,222.0,0.1891891891891892,0.25225225225225223,0.012040124540124531,5.4774774774774775,1.9009009009009008,0.6396396396396397,2.400900900900901,0.016354483541983534,7.364864864864866,2.391891891891892,0.9054054054054054,3.2612612612612613,314453
40,2020-11-19,219.0,0.1506849315068493,0.2420091324200913,0.014601263779345963,4.095890410958904,1.1506849315068493,0.45662100456620996,1.7716894977168949,0.012208500530418331,7.899543378995434,1.8675799086757991,0.6392694063926939,2.6712328767123292,319247
41,2020-11-20,213.0,0.22535211267605634,0.28169014084507044,0.021913958498465516,8.272300469483568,2.1220657276995305,0.976525821596244,4.859154929577465,0.025122096213645487,9.07981220657277,2.4788732394366195,1.1971830985915493,5.446009389671363,324234
42,2020-11-21,145.0,0.21379310344827587,0.2827586206896552,0.015769331243469152,9.213793103448275,3.0965517241379312,0.9793103448275862,4.5793103448275865,0.0222311912225705,14.482758620689655,6.958620689655173,1.1724137931034482,5.358620689655171,329191
43,2020-11-22,112.0,0.25,0.33035714285714285,0.040392248376623384,6.544642857142858,1.7857142857142858,0.6160714285714286,3.2767857142857144,0.04883718885281384,10.053571428571429,3.008928571428572,0.875,4.044642857142857,333936
44,2020-11-23,221.0,0.22171945701357465,0.3212669683257919,0.021315388043329195,7.506787330316743,2.4886877828054303,0.6877828054298643,1.9592760180995477,0.03561608734402849,9.23076923076923,2.97737556561086,0.8868778280542986,2.936651583710407,340731
45,2020-11-24,243.0,0.10288065843621401,0.1934156378600823,0.009985002880064596,6.283950617283951,1.9053497942386832,0.6502057613168725,2.1069958847736627,0.007161500365204059,9.790123456790123,2.7078189300411517,1.3004115226337452,3.9506172839506166,346013
46,2020-11-25,235.0,0.251063829787234,0.3148936170212766,0.009576463725399885,7.365957446808512,2.327659574468085,1.0936170212765957,3.3531914893617016,0.015621152635780282,14.842553191489364,4.051063829787234,1.7829787234042551,4.817021276595745,350971
47,2020-11-26,257.0,0.19066147859922175,0.2607003891050584,0.013357062846362448,7.027237354085603,2.4357976653696496,1.5992217898832686,3.6809338521400776,0.021763037546111457,9.214007782101167,3.1828793774319064,2.272373540856031,6.505836575875486,356650
48,2020-11-27,232.0,0.1896551724137931,0.27586206896551724,0.012558233194009038,10.89655172413793,4.392241379310345,2.5732758620689653,9.396551724137929,0.020067049808429098,14.47844827586207,5.448275862068965,2.931034482758621,10.775862068965518,362604
49,2020-11-28,132.0,0.18181818181818185,0.3257575757575757,0.011734935939481396,8.303030303030303,2.984848484848485,1.7196969696969695,5.75,0.02124321315609191,19.068181818181817,5.318181818181818,2.7424242424242418,10.409090909090908,368279
50,2020-11-29,105.0,0.22857142857142854,0.3238095238095238,0.030175324675324664,9.209523809523807,6.704761904761906,3.695238095238096,12.742857142857142,0.028429292929292905,22.476190476190478,10.495238095238095,5.276190476190476,17.552380952380954,373662
51,2020-11-30,213.0,0.20187793427230047,0.28169014084507044,0.016425107886375478,5.990610328638498,1.4460093896713615,0.7136150234741784,3.0328638497652585,0.017798880827049827,7.131455399061032,1.7652582159624413,0.8356807511737089,3.5727699530516426,381557
52,2020-12-01,268.0,0.19029850746268656,0.23507462686567165,0.01694680009045679,8.134328358208956,2.149253731343284,1.6529850746268655,6.130597014925373,0.019525424823932262,9.727611940298509,2.462686567164179,1.8283582089552242,6.8320895522388065,387052
53,2020-12-02,233.0,0.17167381974248927,0.1931330472103004,-0.0008606605602313777,8.30901287553648,3.446351931330472,1.4291845493562232,3.3819742489270386,-5.593953018846403e-05,8.42489270386266,3.4763948497854082,1.446351931330472,3.5836909871244638,393506
54,2020-12-03,227.0,0.22466960352422907,0.2907488986784141,0.00531865619696016,4.0484581497797345,1.4229074889867843,0.7136563876651982,2.73568281938326,0.0030670653991138586,6.356828193832599,1.753303964757709,0.9823788546255506,4.409691629955947,399770
55,2020-12-04,228.0,0.17543859649122806,0.30701754385964913,0.02306584010531377,4.535087719298246,1.3947368421052628,0.5263157894736842,2.2894736842105257,0.03981195729222041,11.842105263157894,3.3245614035087723,1.600877192982456,7.048245614035088,406189
56,2020-12-05,129.0,0.17829457364341084,0.2868217054263566,0.034235838450954716,14.093023255813955,3.37984496124031,1.124031007751938,3.875968992248062,0.0317935165609584,16.34108527131783,4.155038759689924,1.4728682170542635,5.1395348837209305,412543
57,2020-12-06,101.0,0.19801980198019806,0.2871287128712871,0.02828845384538453,12.900990099009901,3.3069306930693068,1.0693069306930694,5.524752475247523,0.03518164316431641,15.653465346534656,3.98019801980198,1.2970297029702973,7.702970297029703,418848
58,2020-12-07,204.0,0.22058823529411764,0.3235294117647059,0.01675398947457768,6.71078431372549,2.397058823529412,1.0245098039215683,3.57843137254902,0.02550535113035109,10.81372549019608,3.4166666666666665,2.1666666666666665,6.941176470588236,426572
59,2020-12-08,217.0,0.17972350230414744,0.2949308755760369,0.022189582903868604,10.03225806451613,1.95852534562212,1.2442396313364057,5.3963133640553,0.03426679013084541,13.32258064516129,2.7327188940092166,1.7741935483870968,7.493087557603687,432743
60,2020-12-09,245.0,0.1959183673469388,0.2775510204081633,0.019618119975262818,14.583673469387755,4.293877551020408,2.620408163265306,4.481632653061224,0.027966141001855276,21.959183673469386,5.591836734693878,3.159183673469388,5.979591836734693,439142
61,2020-12-10,61.0,0.16393442622950818,0.2786885245901639,0.005967520639651803,1.459016393442623,0.3278688524590164,0.18032786885245905,1.0163934426229508,0.009816253873630935,3.2459016393442623,0.9016393442622952,0.3934426229508197,1.7540983606557377,445828
