,created_at,total_count,soft_covid_ratio,soft_sentiment_avg,soft_like_avg,soft_retweet_avg,soft_quote_avg,soft_reply_avg,confirmed_cases
0,2020-05-05,78.0,0.5769230769230769,0.09497312872312864,7.4230769230769225,6.012820512820514,0.41025641025641024,0.5769230769230769,1258
1,2020-05-06,92.0,0.6086956521739131,0.0903446146245058,12.782608695652176,8.815217391304348,0.6413043478260869,0.8586956521739131,1479
2,2020-05-07,74.0,0.6351351351351351,0.10601725507975494,11.148648648648651,8.824324324324325,1.0135135135135136,1.054054054054054,1507
3,2020-05-08,104.0,0.5192307692307693,0.08486038267288258,5.0,3.6346153846153846,0.3942307692307692,0.5,1473
4,2020-05-09,60.0,0.6,0.08587911856661849,12.95,7.083333333333332,0.45,1.2,1244
5,2020-05-10,35.0,0.6571428571428571,0.05281488352916918,14.228571428571426,7.628571428571429,0.5142857142857142,1.2285714285714286,1173
6,2020-05-11,84.0,0.5833333333333334,0.08775162337662333,6.25,4.761904761904762,0.5238095238095238,0.4404761904761905,1173
7,2020-05-12,78.0,0.5769230769230769,0.07843803187553186,8.538461538461537,5.358974358974359,0.6282051282051282,0.5641025641025641,1155
8,2020-05-13,75.0,0.5866666666666667,0.08283379028379023,9.2,6.8,0.5066666666666667,0.8933333333333333,1149
9,2020-05-14,103.0,0.5533980582524272,0.0754133831378976,6.155339805825242,4.6699029126213585,0.6796116504854369,0.8737864077669902,1213
10,2020-05-15,124.0,0.5241935483870968,0.09523569508448533,6.524193548387097,5.451612903225807,0.782258064516129,0.7580645161290323,1178
11,2020-05-16,71.0,0.4929577464788733,0.06739210515618957,11.661971830985912,6.014084507042254,0.647887323943662,1.3098591549295775,1247
12,2020-05-17,47.0,0.5106382978723404,0.05523972629025807,8.531914893617019,5.1914893617021285,0.2978723404255319,0.7234042553191491,1126
13,2020-05-18,45.0,0.6222222222222222,0.07449138207471526,8.888888888888891,5.2,0.4444444444444444,0.7111111111111111,1079
14,2020-05-19,76.0,0.5131578947368421,0.07604482323232316,7.039473684210527,4.907894736842105,0.5,0.8421052631578947,1082
15,2020-05-20,85.0,0.5058823529411764,0.08054322638146155,4.623529411764705,4.0705882352941165,0.3647058823529412,0.5882352941176471,1082
16,2020-05-21,88.0,0.6136363636363636,0.12971818427784326,8.568181818181818,7.011363636363638,0.6818181818181818,0.9431818181818182,1167
17,2020-05-22,92.0,0.6521739130434783,0.12237322761779275,7.532608695652174,5.271739130434782,0.2608695652173913,0.8586956521739131,1205
18,2020-05-23,57.0,0.5789473684210527,0.09568061568061556,9.771929824561404,5.859649122807018,0.4736842105263158,0.8947368421052632,1204
19,2020-05-24,35.0,0.6,0.0827061430632858,16.17142857142857,8.514285714285714,0.6571428571428571,0.9428571428571428,955
20,2020-05-25,71.0,0.4507042253521127,0.07325290124585893,6.619718309859155,5.478873239436621,0.4929577464788733,0.8873239436619719,1013
21,2020-05-26,92.0,0.5,0.06579112161992592,8.402173913043477,5.7391304347826075,0.29347826086956524,0.8913043478260869,971
22,2020-05-27,83.0,0.5421686746987951,0.0931124324136371,5.289156626506023,4.686746987951807,0.6024096385542169,0.8192771084337349,899
23,2020-05-28,76.0,0.4342105263157895,0.05798902638540784,5.315789473684211,3.2236842105263164,0.18421052631578946,0.4473684210526316,987
24,2020-05-29,112.0,0.6517857142857143,0.10532345738958457,6.991071428571429,4.794642857142857,0.5625,1.1964285714285714,933
25,2020-05-30,53.0,0.5849056603773585,0.08696300947480183,14.716981132075471,7.641509433962264,0.490566037735849,2.207547169811321,772
26,2020-05-31,45.0,0.5333333333333333,0.06428605785748634,15.111111111111109,9.6,1.0666666666666669,1.3555555555555556,798
27,2020-06-01,66.0,0.5757575757575758,0.1041204796886614,12.636363636363635,5.5,0.4545454545454545,0.9090909090909092,809
28,2020-06-02,71.0,0.5633802816901409,0.11155445298050924,9.0,4.690140845070423,0.3380281690140845,0.9577464788732394,672
29,2020-06-03,68.0,0.4852941176470588,0.07010138777733305,3.9852941176470584,3.2205882352941178,0.3235294117647059,0.8529411764705882,681
30,2020-06-04,50.0,0.58,0.08155126262626254,5.26,3.68,0.4,0.62,628
31,2020-06-05,79.0,0.5569620253164557,0.09442049009860937,11.658227848101266,5.569620253164557,0.37974683544303794,1.1898734177215189,678
32,2020-06-06,30.0,0.4666666666666667,0.0707789802789802,20.166666666666668,8.1,1.1333333333333333,1.9666666666666663,528
33,2020-06-07,23.0,0.5217391304347826,0.07603864734299517,16.391304347826086,8.826086956521738,1.0,2.0,703
34,2020-06-08,62.0,0.532258064516129,0.12229472140762455,6.145161290322582,5.629032258064517,1.1290322580645162,1.7258064516129032,601
35,2020-06-09,60.0,0.55,0.06819561688311679,9.316666666666666,6.5166666666666675,0.95,1.3,462
36,2020-06-10,65.0,0.4153846153846154,0.05138278388278383,4.046153846153846,2.892307692307692,0.09230769230769233,0.5384615384615384,479
37,2020-06-11,108.0,0.3425925925925926,0.060106922398589,3.62037037037037,2.2685185185185186,0.1574074074074074,0.5925925925925926,439
38,2020-06-12,84.0,0.4047619047619048,0.06462859891431316,3.261904761904762,2.9166666666666665,0.17857142857142858,0.5476190476190477,436
39,2020-06-13,30.0,0.36666666666666653,0.03458074795574787,5.166666666666667,3.8,0.36666666666666653,0.6333333333333333,448
40,2020-06-14,19.0,0.4736842105263158,0.1189074960127591,10.157894736842103,3.947368421052632,0.3157894736842105,0.8421052631578947,361
41,2020-06-15,57.0,0.4736842105263158,0.07992889420520989,3.5964912280701755,3.6666666666666665,0.4035087719298245,0.7543859649122807,359
42,2020-06-16,55.0,0.5272727272727272,0.07120375836284923,6.472727272727273,3.363636363636364,0.14545454545454545,0.7272727272727273,324
43,2020-06-17,71.0,0.4647887323943662,0.08063446334573086,3.084507042253522,3.2957746478873235,0.323943661971831,0.5774647887323944,404
44,2020-06-18,74.0,0.4459459459459459,0.05656531531531522,4.0,2.3513513513513518,0.21621621621621626,0.527027027027027,386
45,2020-06-19,63.0,0.3492063492063492,0.04432359307359302,5.206349206349207,2.1746031746031744,0.20634920634920634,0.4761904761904762,437
46,2020-06-20,35.0,0.4,0.02775262832405677,9.685714285714283,4.714285714285714,0.4857142857142857,1.2,448
47,2020-06-21,30.0,0.2333333333333333,0.011722222222222169,6.166666666666668,3.433333333333333,0.3,0.6666666666666666,316
48,2020-06-22,63.0,0.4603174603174603,0.08600779417105935,6.507936507936507,2.6507936507936507,0.19047619047619047,0.5396825396825397,340
49,2020-06-23,67.0,0.41791044776119396,0.06562762486269938,5.208955223880597,3.955223880597015,0.41791044776119396,0.5970149253731343,349
50,2020-06-24,81.0,0.41975308641975306,0.06957738763294308,15.17283950617284,7.395061728395063,1.6913580246913582,0.7901234567901234,320
51,2020-06-25,87.0,0.4022988505747127,0.08410934053175423,7.252873563218392,4.965517241379311,0.4827586206896552,0.7126436781609196,376
52,2020-06-26,64.0,0.296875,0.04539924918831165,5.125,2.71875,0.171875,0.484375,166
53,2020-06-27,33.0,0.3939393939393939,0.09648964391388627,8.121212121212121,4.333333333333333,0.4848484848484849,1.2424242424242424,249
54,2020-06-28,19.0,0.42105263157894735,0.057356459330143474,8.631578947368421,3.0526315789473686,0.21052631578947367,0.4736842105263158,315
55,2020-06-29,74.0,0.35135135135135137,0.06241980616980612,9.459459459459461,4.378378378378378,0.33783783783783783,0.5135135135135135,637
56,2020-06-30,78.0,0.4615384615384616,0.09701858326858323,3.756410256410256,3.2564102564102564,0.3974358974358974,0.5512820512820513,267
57,2020-07-01,21.0,0.19047619047619047,0.02090548340548333,8.952380952380953,3.4761904761904763,0.14285714285714285,0.4761904761904762,191
58,2020-07-02,72.0,0.375,0.06426066217732879,3.763888888888889,2.4444444444444446,0.2916666666666667,0.5694444444444444,355
59,2020-07-03,67.0,0.3582089552238806,0.05702413258383401,5.955223880597014,2.5970149253731343,0.19402985074626866,0.4477611940298508,319
60,2020-07-04,36.0,0.4444444444444444,0.0432168911335577,5.861111111111112,2.9166666666666665,0.3611111111111111,0.25,223
61,2020-07-05,25.0,0.28,0.0298030303030302,7.32,2.08,0.24,0.28,209
62,2020-07-06,49.0,0.4489795918367347,0.0821119356833642,5.857142857142858,4.061224489795919,0.22448979591836732,0.6326530612244898,421
63,2020-07-07,61.0,0.5081967213114754,0.04382950837868863,4.721311475409836,3.2131147540983607,0.4426229508196721,0.6885245901639344,208
64,2020-07-08,54.0,0.4074074074074074,0.09226056864945748,6.592592592592593,3.888888888888889,0.3333333333333333,0.6111111111111112,311
65,2020-07-09,52.0,0.40384615384615385,0.07486235986235977,5.5769230769230775,3.5961538461538463,0.4230769230769231,0.4230769230769231,322
66,2020-07-10,65.0,0.4,0.06619017094017088,11.769230769230768,4.569230769230769,0.6307692307692307,0.953846153846154,328
67,2020-07-11,10.0,0.5,0.10693181818181802,23.3,7.2,0.7,1.4,166
68,2020-07-12,16.0,0.375,0.03682021103896088,12.375,4.0,0.875,0.4375,198
69,2020-07-13,63.0,0.492063492063492,0.0666083739893262,10.206349206349207,7.142857142857142,1.761904761904762,1.5396825396825398,636
70,2020-07-14,62.0,0.4838709677419355,0.09312601824698594,5.419354838709676,4.048387096774194,0.5806451612903226,1.032258064516129,366
71,2020-07-15,44.0,0.6136363636363636,0.12945477502295674,10.340909090909092,7.227272727272727,0.75,0.7727272727272727,343
72,2020-07-16,76.0,0.3947368421052632,0.0624824608870661,5.894736842105262,3.9736842105263164,0.4473684210526316,0.8289473684210527,451
73,2020-07-17,52.0,0.4230769230769231,0.07613428238428233,6.730769230769232,5.5769230769230775,0.5769230769230769,0.8269230769230769,415
74,2020-07-18,14.0,0.7142857142857143,0.14966141001855274,12.142857142857142,7.0,0.7857142857142857,1.0714285714285714,316
75,2020-07-19,17.0,0.4705882352941176,0.11862150920974435,7.1764705882352935,6.352941176470589,1.2352941176470589,1.3529411764705883,293
76,2020-07-20,50.0,0.32,0.0689166666666666,3.74,3.62,0.54,0.94,770
77,2020-07-21,65.0,0.5076923076923077,0.07375858709192035,17.476923076923075,16.076923076923073,1.876923076923077,2.0615384615384613,535
78,2020-07-22,76.0,0.32894736842105265,0.06166538505354292,13.526315789473687,8.894736842105264,1.0789473684210529,1.868421052631579,317
79,2020-07-23,81.0,0.34567901234567894,0.07631763234193784,12.82716049382716,8.814814814814815,0.9506172839506172,1.1358024691358024,608
80,2020-07-24,57.0,0.3333333333333333,0.060741961324667984,8.631578947368421,6.421052631578947,0.7368421052631579,1.2982456140350878,717
81,2020-07-25,15.0,0.4666666666666667,-0.009987974987975065,9.933333333333334,7.6,0.5333333333333333,1.2666666666666666,355
82,2020-07-26,16.0,0.4375,0.07394255050505039,8.25,6.25,0.875,2.375,319
83,2020-07-27,46.0,0.4782608695652174,0.09945377689942897,8.326086956521738,4.456521739130435,0.3695652173913043,2.0,682
84,2020-07-28,48.0,0.4166666666666667,0.06608007154882144,6.0625,4.791666666666667,0.7291666666666666,1.4375,400
85,2020-07-29,58.0,0.4827586206896552,0.06921903766731345,6.706896551724138,5.344827586206896,1.0862068965517242,2.431034482758621,486
86,2020-07-30,55.0,0.4909090909090909,0.0715281057326511,14.690909090909093,8.8,1.2,1.9090909090909087,320
87,2020-07-31,62.0,0.3870967741935484,0.07251387725178034,16.70967741935484,9.983870967741936,1.3064516129032258,1.8548387096774197,604
88,2020-08-01,21.0,0.3809523809523809,0.07619047619047611,5.047619047619048,3.761904761904762,0.2380952380952381,0.7619047619047619,242
89,2020-08-02,15.0,0.4666666666666667,0.06627946127946112,9.733333333333333,8.466666666666667,2.533333333333333,3.933333333333333,245
90,2020-08-03,26.0,0.3461538461538461,0.07258852258852251,9.961538461538463,5.0769230769230775,0.4230769230769231,1.3076923076923077,205
91,2020-08-04,60.0,0.4833333333333333,0.06476851851851849,6.966666666666668,4.366666666666666,0.35,1.8,686
92,2020-08-05,62.0,0.4354838709677419,0.09080744440371448,5.951612903225807,4.919354838709677,0.7741935483870968,1.5,374
93,2020-08-06,73.0,0.4246575342465753,0.05759377038486624,6.383561643835616,4.780821917808218,0.5342465753424658,1.2054794520547945,354
94,2020-08-07,60.0,0.38333333333333336,0.04491149591149588,5.216666666666667,4.316666666666666,0.75,1.0166666666666666,516
95,2020-08-08,25.0,0.32,0.0605757575757576,6.52,4.36,0.8,1.48,245
96,2020-08-09,22.0,0.5454545454545454,0.09466540404040404,10.0,8.590909090909092,1.2727272727272727,4.0,219
97,2020-08-10,40.0,0.45,0.07051452020202009,5.85,5.2,0.425,1.325,686
98,2020-08-11,59.0,0.42372881355932196,0.04715270134761655,4.983050847457627,3.3389830508474576,0.3050847457627119,0.8305084745762712,336
99,2020-08-12,54.0,0.4444444444444444,0.10401795735129064,4.0,4.388888888888889,0.6851851851851852,1.1296296296296295,314
100,2020-08-13,63.0,0.2857142857142857,0.038912175420111855,6.825396825396825,5.111111111111111,0.7460317460317459,2.3650793650793656,477
101,2020-08-14,60.0,0.4166666666666667,0.050893804112554,12.366666666666667,10.716666666666667,1.3333333333333333,2.283333333333333,425
102,2020-08-15,28.0,0.35714285714285715,0.05665485025178898,6.428571428571429,7.678571428571429,1.3214285714285714,2.9285714285714284,220
103,2020-08-16,20.0,0.4,0.0868863636363636,6.05,8.3,1.15,1.7,179
104,2020-08-17,57.0,0.456140350877193,0.059898989898989875,14.824561403508772,10.508771929824562,1.4385964912280702,2.6842105263157894,214
105,2020-08-18,51.0,0.5098039215686274,0.09587347565288737,7.019607843137255,5.568627450980392,0.7450980392156863,2.431372549019608,866
106,2020-08-19,55.0,0.4909090909090909,0.07336042240587691,10.10909090909091,6.6,0.8545454545454545,2.4,324
107,2020-08-20,57.0,0.5087719298245614,0.06718943824206976,5.596491228070176,5.192982456140351,0.7192982456140351,2.491228070175439,217
108,2020-08-21,43.0,0.5581395348837209,0.06856031242659151,20.813953488372096,12.953488372093025,1.8604651162790695,3.8372093023255816,694
109,2020-08-22,20.0,0.45,0.08231313131313125,6.95,4.85,0.95,2.4,241
110,2020-08-23,16.0,0.5625,0.11746212121212105,7.4375,7.875,1.375,2.25,257
111,2020-08-24,47.0,0.5106382978723404,0.04866322802493006,9.085106382978724,7.042553191489363,1.0425531914893618,4.212765957446808,777
112,2020-08-25,66.0,0.3636363636363637,0.08044022475840654,4.621212121212121,3.196969696969697,0.6666666666666666,1.5909090909090908,309
113,2020-08-26,75.0,0.4133333333333333,0.06600993265993264,3.2266666666666666,2.533333333333333,0.32,0.8666666666666667,477
114,2020-08-27,65.0,0.38461538461538464,0.05524875124875117,4.815384615384615,3.753846153846154,0.3384615384615385,1.2923076923076924,456
115,2020-08-28,72.0,0.25,0.04227007174923838,2.625,2.4027777777777777,0.3611111111111111,1.0972222222222223,506
116,2020-08-29,32.0,0.25,0.05001104797979794,3.1875,1.90625,0.46875,0.6875,297
117,2020-08-30,32.0,0.28125,0.05514993686868682,6.4375,3.15625,0.53125,1.46875,249
118,2020-08-31,59.0,0.3728813559322034,0.06304656736860123,4.423728813559323,3.6271186440677967,0.5254237288135594,1.9491525423728813,1030
119,2020-09-01,58.0,0.3448275862068966,0.058437639946260576,3.2586206896551726,3.0689655172413794,0.27586206896551724,1.0517241379310345,504
120,2020-09-02,73.0,0.5205479452054794,0.07230269096707449,2.7397260273972597,1.9315068493150684,0.3150684931506849,1.2465753424657535,519
121,2020-09-03,67.0,0.3582089552238806,0.04467085567831828,4.074626865671642,4.029850746268656,0.582089552238806,1.0746268656716418,586
122,2020-09-04,67.0,0.41791044776119396,0.047282688290150934,4.358208955223882,3.1044776119402986,0.4029850746268657,1.2686567164179106,614
123,2020-09-05,25.0,0.44,0.05484559884559876,6.88,4.92,0.44,1.56,370
124,2020-09-06,23.0,0.3478260869565217,0.059365393061045164,5.956521739130435,4.043478260869565,0.39130434782608703,1.608695652173913,379
125,2020-09-07,32.0,0.4375,0.06346838924963913,4.0625,2.5,0.1875,0.75,405
126,2020-09-08,68.0,0.4558823529411765,0.0546346474195738,8.338235294117647,5.441176470588236,0.5588235294117647,2.117647058823529,1462
127,2020-09-09,70.0,0.4,0.06393542568542561,3.7428571428571433,3.3714285714285714,0.4857142857142857,1.0857142857142856,378
128,2020-09-10,72.0,0.5833333333333334,0.06257838804713795,4.388888888888889,4.208333333333333,0.6111111111111112,1.4166666666666667,821
129,2020-09-11,61.0,0.5573770491803278,0.06146212036727253,4.475409836065574,3.295081967213114,0.26229508196721313,1.1639344262295082,720
130,2020-09-12,33.0,0.6060606060606061,0.05777471686562585,3.0909090909090913,2.6666666666666665,0.24242424242424246,0.696969696969697,488
131,2020-09-13,28.0,0.6785714285714286,0.06235569985569971,4.75,2.642857142857143,0.3928571428571429,0.3928571428571429,476
132,2020-09-14,73.0,0.4931506849315068,0.046334405700844,2.164383561643836,2.219178082191781,0.1506849315068493,1.4246575342465753,1458
133,2020-09-15,56.0,0.5,0.07380746237889088,4.375,3.946428571428572,0.25,2.125,802
134,2020-09-16,61.0,0.4426229508196721,0.05219336219336215,4.213114754098362,3.459016393442623,0.2786885245901639,1.0655737704918034,952
135,2020-09-17,63.0,0.4126984126984127,0.07446580315627924,1.9206349206349207,2.063492063492064,0.1746031746031746,0.8253968253968254,1027
136,2020-09-18,66.0,0.4696969696969697,0.06951827073039185,5.545454545454546,4.5,0.5454545454545454,1.5909090909090908,1174
137,2020-09-19,34.0,0.5588235294117647,0.053918302169352415,5.705882352941178,4.147058823529412,0.5588235294117647,1.7352941176470589,554
138,2020-09-20,30.0,0.6,0.06396850019469054,4.733333333333333,4.7,0.5666666666666667,1.2333333333333334,1143
139,2020-09-21,68.0,0.35294117647058826,0.05794611026228665,5.044117647058823,4.676470588235294,0.3088235294117647,1.7941176470588236,1833
140,2020-09-22,61.0,0.4426229508196721,0.04669268800416332,4.60655737704918,3.918032786885246,0.3114754098360656,1.1639344262295082,1272
141,2020-09-23,73.0,0.4246575342465753,0.08230689972128319,3.506849315068493,3.6575342465753424,0.4657534246575342,0.8904109589041096,1084
142,2020-09-24,50.0,0.4,0.05835656565656557,5.56,4.1,1.02,3.58,1148
143,2020-09-25,69.0,0.4782608695652174,0.07419578810883151,3.7971014492753614,4.492753623188406,0.8840579710144928,1.6666666666666667,1630
144,2020-09-26,23.0,0.5217391304347826,0.07825020390237769,4.826086956521738,5.304347826086956,0.6521739130434783,2.0434782608695654,1053
145,2020-09-27,18.0,0.6666666666666666,0.13615359948693267,6.666666666666668,6.9444444444444455,0.6666666666666666,1.8888888888888888,1658
146,2020-09-28,49.0,0.4693877551020408,0.08691271313720281,5.775510204081633,6.551020408163265,0.5510204081632653,1.5510204081632653,1791
147,2020-09-29,64.0,0.28125,0.044490609217171656,2.75,2.21875,0.1875,0.59375,1772
148,2020-09-30,86.0,0.3372093023255814,0.03603887714352828,1.837209302325581,2.1046511627906983,0.16279069767441862,0.4302325581395349,2116
149,2020-10-01,72.0,0.3611111111111111,0.05550121753246747,3.888888888888889,3.7083333333333335,0.375,0.9722222222222222,1823
150,2020-10-02,64.0,0.375,0.07262231691919184,5.9375,4.984375,0.765625,1.8125,2124
151,2020-10-03,28.0,0.35714285714285715,0.06535804473304464,7.4642857142857135,3.4285714285714284,0.35714285714285715,1.2142857142857142,1306
152,2020-10-04,19.0,0.5263157894736842,0.07670464038885069,18.210526315789476,8.210526315789473,0.8421052631578947,2.263157894736842,2141
153,2020-10-05,56.0,0.375,0.03970753452896305,3.678571428571429,3.696428571428572,0.3392857142857143,0.75,2883
154,2020-10-06,64.0,0.390625,0.05081323841089458,7.890625,6.375,0.6875,1.078125,2372
155,2020-10-07,67.0,0.4328358208955224,0.05979905666472829,4.014925373134329,4.044776119402985,0.4776119402985074,0.8208955223880597,1624
156,2020-10-08,64.0,0.53125,0.036095610119047584,9.796875,8.296875,1.09375,2.765625,2350
157,2020-10-09,87.0,0.3793103448275862,0.04473430943258525,4.64367816091954,3.2643678160919536,0.5287356321839081,1.7126436781609196,2895
158,2020-10-10,28.0,0.5,0.06488984230055654,6.25,6.5357142857142865,1.3214285714285714,2.25,2142
159,2020-10-11,36.0,0.5,0.056878249616344786,6.972222222222222,5.888888888888888,0.75,1.3333333333333333,1636
160,2020-10-12,25.0,0.48,0.10181212121212116,5.6,4.96,1.08,1.52,975
161,2020-10-13,49.0,0.5714285714285714,0.05308191241864698,4.469387755102041,5.1224489795918355,0.4693877551020408,1.5714285714285714,4111
162,2020-10-14,59.0,0.4915254237288136,0.05768343238682212,4.084745762711863,4.627118644067797,1.152542372881356,2.067796610169492,2575
163,2020-10-15,64.0,0.375,0.056437984758297186,8.015625,6.125,0.953125,1.796875,2298
164,2020-10-16,63.0,0.4126984126984127,0.04629920029579887,5.746031746031746,5.7142857142857135,0.7142857142857143,1.619047619047619,2566
165,2020-10-17,26.0,0.6153846153846154,0.06455183705183701,5.307692307692308,6.6923076923076925,0.6923076923076923,1.6153846153846154,139
166,2020-10-18,27.0,0.4074074074074074,0.06066057399390722,4.666666666666667,4.925925925925926,0.6666666666666666,1.0,3737
167,2020-10-19,58.0,0.3793103448275862,0.06176985370950884,4.844827586206896,5.758620689655173,1.0517241379310345,1.4655172413793105,3307
168,2020-10-20,54.0,0.5,0.07615986251402906,7.833333333333332,5.611111111111112,0.9074074074074074,1.0925925925925926,2238
169,2020-10-21,53.0,0.4528301886792453,0.1077968362874022,6.264150943396228,5.60377358490566,0.9433962264150944,1.509433962264151,2687
170,2020-10-22,70.0,0.4857142857142857,0.06414594928880635,4.842857142857143,4.171428571428572,1.0285714285714285,1.7857142857142858,2581
171,2020-10-23,58.0,0.4310344827586207,0.06413780663780658,4.724137931034483,4.275862068965517,0.7413793103448276,1.7241379310344829,2902
172,2020-10-24,22.0,0.6818181818181818,0.16466499409681215,6.863636363636362,6.863636363636362,3.5,3.863636363636364,1532
173,2020-10-25,22.0,0.4545454545454545,0.0558195592286501,5.727272727272728,6.227272727272728,1.4090909090909092,3.1818181818181817,2823
174,2020-10-26,74.0,0.5,0.07347561035061025,10.27027027027027,8.5,1.7567567567567568,4.391891891891892,4099
175,2020-10-27,44.0,0.4318181818181818,0.08801538108356283,8.204545454545455,6.363636363636362,1.6590909090909092,2.4545454545454546,2730
176,2020-10-28,57.0,0.5614035087719298,0.12630609035214296,4.5438596491228065,4.859649122807016,1.087719298245614,1.8771929824561404,2663
177,2020-10-29,72.0,0.5138888888888888,0.06848011989939065,5.6805555555555545,4.861111111111111,1.2222222222222223,2.0138888888888893,3017
178,2020-10-30,58.0,0.5,0.07603148168880923,13.10344827586207,11.241379310344827,3.844827586206896,5.620689655172414,3556
179,2020-10-31,25.0,0.6,0.07275757575757569,7.24,5.76,1.24,4.24,2374
180,2020-11-01,17.0,0.8235294117647058,0.15871021135727012,10.235294117647056,8.529411764705884,1.9411764705882355,2.5294117647058822,2336
181,2020-11-02,56.0,0.5892857142857143,0.08493910497099265,14.535714285714285,7.982142857142858,1.5178571428571428,3.4285714285714284,3529
182,2020-11-03,67.0,0.4477611940298508,0.07457463763433902,6.298507462686567,4.059701492537314,1.0746268656716418,2.253731343283582,4738
183,2020-11-04,60.0,0.43333333333333335,0.0634188311688311,6.566666666666666,5.5166666666666675,0.8,2.3666666666666667,2782
184,2020-11-05,58.0,0.4310344827586207,0.050802420759317235,7.362068965517241,5.551724137931035,1.3448275862068966,3.362068965517241,2784
185,2020-11-06,63.0,0.4603174603174603,0.06617893217893206,10.841269841269842,7.428571428571429,3.0793650793650795,3.333333333333333,5393
186,2020-11-07,32.0,0.65625,0.10133641098484836,11.40625,9.78125,4.34375,14.59375,4346
187,2020-11-08,28.0,0.6071428571428571,0.1380167748917748,19.857142857142858,13.214285714285715,5.214285714285714,8.035714285714286,3944
188,2020-11-09,78.0,0.38461538461538464,0.04872016872016865,4.794871794871796,3.8205128205128207,1.2179487179487178,2.730769230769231,4871
189,2020-11-10,73.0,0.3972602739726027,0.05743169216628111,10.547945205479452,7.520547945205481,2.232876712328767,4.095890410958904,4445
190,2020-11-11,27.0,0.6296296296296297,0.12643097643097634,16.88888888888889,7.666666666666668,1.9259259259259256,6.0,3984
191,2020-11-12,66.0,0.5,0.06597919126328207,11.333333333333336,6.9393939393939394,1.2878787878787878,4.212121212121212,5474
192,2020-11-13,84.0,0.4047619047619048,0.030716304198447005,9.666666666666666,6.2857142857142865,1.3333333333333333,5.1190476190476195,4770
193,2020-11-14,37.0,0.5405405405405406,0.09223353223353213,26.864864864864863,13.702702702702705,5.297297297297297,6.702702702702703,4430
194,2020-11-15,31.0,0.5806451612903226,0.11466275659824045,7.645161290322582,5.451612903225807,1.5483870967741935,6.903225806451613,4301
195,2020-11-16,61.0,0.4754098360655738,0.05681123293828206,8.065573770491802,6.967213114754099,1.6557377049180328,6.868852459016392,6033
196,2020-11-17,96.0,0.4166666666666667,0.0511073452423898,7.09375,5.416666666666668,1.0520833333333333,3.114583333333333,4462
197,2020-11-18,73.0,0.4657534246575342,0.07113021111308772,23.698630136986303,10.863013698630137,2.7260273972602738,5.63013698630137,4518
198,2020-11-19,72.0,0.5833333333333334,0.06866960778419103,13.861111111111109,11.583333333333336,2.805555555555556,8.875,4794
199,2020-11-20,108.0,0.5,0.05891397678600053,17.52777777777778,12.601851851851851,2.6666666666666665,5.462962962962963,4987
200,2020-11-21,53.0,0.5849056603773585,0.08631003430531725,11.169811320754716,7.20754716981132,3.150943396226415,7.09433962264151,4957
201,2020-11-22,47.0,0.40425531914893614,0.07362185686653767,6.0,5.1489361702127665,1.680851063829787,5.1489361702127665,4745
202,2020-11-23,99.0,0.5858585858585859,0.07581671695308052,8.050505050505048,6.616161616161616,1.5252525252525253,3.5656565656565657,6795
203,2020-11-24,110.0,0.5272727272727272,0.05652075954348676,15.381818181818181,10.336363636363636,2.409090909090909,5.4818181818181815,5282
204,2020-11-25,126.0,0.4603174603174603,0.028249916970155036,12.5,8.380952380952381,3.73015873015873,6.7857142857142865,4958
205,2020-11-26,100.0,0.46,0.05776396103896096,5.16,3.31,0.83,2.72,5679
206,2020-11-27,95.0,0.5894736842105263,0.10278785220627318,11.36842105263158,6.547368421052632,1.4842105263157894,3.1684210526315786,5954
207,2020-11-28,76.0,0.631578947368421,0.08898035809220013,5.394736842105262,4.526315789473684,1.118421052631579,2.0789473684210527,5675
208,2020-11-29,42.0,0.5238095238095238,0.09188638081495218,6.238095238095237,4.5,1.1904761904761905,1.9285714285714288,5383
209,2020-11-30,76.0,0.5921052631578947,0.11809694691273635,6.276315789473684,4.9605263157894735,1.0394736842105263,2.7236842105263164,7895
210,2020-12-01,72.0,0.5694444444444444,0.07813820246111905,11.472222222222221,6.777777777777778,1.0972222222222223,2.8472222222222223,5495
211,2020-12-02,68.0,0.5588235294117647,0.08012391699103875,12.205882352941178,6.235294117647059,1.0588235294117647,3.779411764705882,6454
212,2020-12-03,84.0,0.4761904761904762,0.05701101147529709,6.261904761904763,4.035714285714286,0.9047619047619048,2.9047619047619047,6264
213,2020-12-04,79.0,0.4810126582278481,0.0711920363977325,7.5316455696202524,5.215189873417722,0.8987341772151899,2.7848101265822787,6419
214,2020-12-05,35.0,0.5714285714285714,0.08202110389610379,6.6571428571428575,4.685714285714286,1.1142857142857143,3.6,6354
215,2020-12-06,54.0,0.5185185185185185,0.050620323606434606,5.888888888888888,5.0555555555555545,1.5925925925925926,1.7037037037037035,6305
216,2020-12-07,70.0,0.6571428571428571,0.06486224489795911,10.857142857142858,8.428571428571429,1.6142857142857143,4.1571428571428575,7724
217,2020-12-08,98.0,0.5,0.0602348313062598,11.530612244897961,7.5,1.806122448979592,4.061224489795919,6171
218,2020-12-09,81.0,0.4691358024691358,0.0579211092405536,7.4444444444444455,5.25925925925926,0.9506172839506172,1.5185185185185186,6399
219,2020-12-10,9.0,0.6666666666666666,0.09550505050505034,26.11111111111111,9.0,2.2222222222222223,2.2222222222222223,6686
