,created_at,total_count,covid_ratio,sentiment_avg,like_avg,retweet_avg,quote_avg,reply_avg,confirmed_cases
0,2020-05-05,78.0,0.5641025641025641,0.0916320253820253,7.397435897435898,5.974358974358975,0.3974358974358974,0.5769230769230769,1258
1,2020-05-06,92.0,0.6086956521739131,0.0903446146245058,12.782608695652176,8.815217391304348,0.6413043478260869,0.8586956521739131,1479
2,2020-05-07,74.0,0.6081081081081081,0.10202462608712597,10.851351351351349,8.662162162162161,1.0135135135135136,1.0,1507
3,2020-05-08,104.0,0.4903846153846154,0.07857833139083134,4.730769230769232,3.4807692307692313,0.375,0.5,1473
4,2020-05-09,60.0,0.5333333333333333,0.07244393338143333,11.733333333333333,6.316666666666666,0.43333333333333335,1.1,1244
5,2020-05-10,35.0,0.6285714285714286,0.050338693052978715,14.085714285714285,7.542857142857143,0.5142857142857142,1.2285714285714286,1173
6,2020-05-11,84.0,0.5357142857142857,0.08046446608946603,6.238095238095237,4.761904761904762,0.5238095238095238,0.4047619047619048,1173
7,2020-05-12,78.0,0.5769230769230769,0.07843803187553186,8.538461538461537,5.358974358974359,0.6282051282051282,0.5641025641025641,1155
8,2020-05-13,75.0,0.5866666666666667,0.08283379028379023,9.2,6.8,0.5066666666666667,0.8933333333333333,1149
9,2020-05-14,103.0,0.4951456310679612,0.07148269273876062,6.1456310679611645,4.640776699029126,0.6796116504854369,0.8446601941747572,1213
10,2020-05-15,124.0,0.4758064516129033,0.08717117895545311,6.201612903225807,5.217741935483871,0.75,0.717741935483871,1178
11,2020-05-16,71.0,0.4507042253521127,0.058894452574029976,10.873239436619716,5.535211267605634,0.6056338028169014,1.2253521126760565,1247
12,2020-05-17,47.0,0.44680851063829785,0.0526865348008964,8.340425531914894,5.0638297872340425,0.2978723404255319,0.7234042553191491,1126
13,2020-05-18,45.0,0.5777777777777777,0.08199138207471526,8.6,5.0,0.4444444444444444,0.6666666666666666,1079
14,2020-05-19,76.0,0.5,0.07078166533758631,6.947368421052633,4.802631578947368,0.5,0.8421052631578947,1082
15,2020-05-20,85.0,0.4941176470588236,0.08091087344028508,4.6,4.0705882352941165,0.3647058823529412,0.5647058823529412,1082
16,2020-05-21,88.0,0.6022727272727273,0.12588295700511595,8.488636363636363,6.9431818181818175,0.6818181818181818,0.9090909090909092,1167
17,2020-05-22,92.0,0.6086956521739131,0.1131340971830101,7.423913043478262,5.206521739130435,0.2608695652173913,0.8152173913043478,1205
18,2020-05-23,57.0,0.5263157894736842,0.0854466975519606,9.421052631578947,5.578947368421051,0.456140350877193,0.8070175438596491,1204
19,2020-05-24,35.0,0.5714285714285714,0.0731823335394763,15.885714285714286,8.371428571428572,0.6571428571428571,0.9142857142857144,955
20,2020-05-25,71.0,0.4507042253521127,0.07325290124585893,6.619718309859155,5.478873239436621,0.4929577464788733,0.8873239436619719,1013
21,2020-05-26,92.0,0.4673913043478261,0.06004578000501909,8.217391304347826,5.652173913043479,0.29347826086956524,0.8804347826086957,971
22,2020-05-27,83.0,0.5301204819277109,0.09386544446182987,5.289156626506023,4.686746987951807,0.6024096385542169,0.8072289156626506,899
23,2020-05-28,76.0,0.42105263157894735,0.053603061473127135,3.986842105263158,3.0394736842105265,0.17105263157894735,0.3947368421052632,987
24,2020-05-29,112.0,0.5089285714285714,0.07693691337804055,4.4375,3.008928571428572,0.26785714285714285,0.6517857142857143,933
25,2020-05-30,53.0,0.4716981132075472,0.05751332394021068,14.547169811320755,7.547169811320754,0.4716981132075472,2.1320754716981134,772
26,2020-05-31,45.0,0.4,0.04535594035594029,11.666666666666664,7.5777777777777775,0.8888888888888888,0.9333333333333332,798
27,2020-06-01,66.0,0.5,0.09867014298832473,12.43939393939394,5.409090909090909,0.4090909090909091,0.9090909090909092,809
28,2020-06-02,71.0,0.5492957746478874,0.10967651870820876,9.0,4.690140845070423,0.3380281690140845,0.9577464788732394,672
29,2020-06-03,68.0,0.4411764705882353,0.06766727776969363,3.7647058823529416,3.147058823529412,0.3235294117647059,0.8529411764705882,681
30,2020-06-04,50.0,0.44,0.07405126262626255,5.1,3.44,0.4,0.56,628
31,2020-06-05,79.0,0.4936708860759494,0.08683706086961053,11.354430379746836,5.291139240506329,0.3670886075949367,1.1645569620253164,678
32,2020-06-06,30.0,0.4,0.06351972101972098,20.066666666666666,8.066666666666666,1.1,1.9666666666666663,528
33,2020-06-07,23.0,0.43478260869565216,0.07736714975845409,14.782608695652176,7.565217391304348,0.8695652173913043,1.5652173913043481,703
34,2020-06-08,62.0,0.3870967741935484,0.0650366568914955,3.9032258064516134,3.967741935483871,0.3225806451612903,0.4677419354838709,601
35,2020-06-09,60.0,0.5,0.06611228354978345,8.933333333333334,6.35,0.9,1.2333333333333334,462
36,2020-06-10,65.0,0.38461538461538464,0.04369047619047614,3.892307692307692,2.8769230769230765,0.09230769230769233,0.4307692307692308,479
37,2020-06-11,108.0,0.3148148148148148,0.056032848324514925,3.388888888888889,2.0370370370370368,0.1388888888888889,0.5555555555555556,439
38,2020-06-12,84.0,0.3809523809523809,0.06462859891431316,3.2261904761904763,2.8928571428571432,0.17857142857142858,0.5476190476190477,436
39,2020-06-13,30.0,0.3,0.0322890812890812,4.933333333333334,3.7,0.3,0.5333333333333333,448
40,2020-06-14,19.0,0.3157894736842105,0.050629984051036636,9.263157894736842,3.684210526315789,0.3157894736842105,0.7368421052631579,361
41,2020-06-15,57.0,0.43859649122807015,0.06589380648591166,3.3508771929824563,3.5087719298245608,0.4035087719298245,0.7192982456140351,359
42,2020-06-16,55.0,0.5272727272727272,0.07120375836284923,6.472727272727273,3.363636363636364,0.14545454545454545,0.7272727272727273,324
43,2020-06-17,71.0,0.4225352112676056,0.07392831737902153,2.915492957746478,3.126760563380281,0.323943661971831,0.5492957746478874,404
44,2020-06-18,74.0,0.4324324324324325,0.05656531531531522,3.8243243243243237,2.256756756756757,0.21621621621621626,0.5135135135135135,386
45,2020-06-19,63.0,0.3015873015873016,0.038856220939554216,5.126984126984127,2.126984126984127,0.20634920634920634,0.4603174603174603,437
46,2020-06-20,35.0,0.4,0.02775262832405677,9.685714285714283,4.714285714285714,0.4857142857142857,1.2,448
47,2020-06-21,30.0,0.2333333333333333,0.011722222222222169,6.166666666666668,3.433333333333333,0.3,0.6666666666666666,316
48,2020-06-22,63.0,0.3968253968253968,0.08318191634518153,6.428571428571429,2.6031746031746037,0.19047619047619047,0.492063492063492,340
49,2020-06-23,67.0,0.4029850746268657,0.06406401434386501,5.1940298507462686,3.925373134328358,0.41791044776119396,0.582089552238806,349
50,2020-06-24,81.0,0.3580246913580247,0.05966343327454428,9.246913580246913,5.08641975308642,0.9135802469135802,0.5185185185185185,320
51,2020-06-25,87.0,0.3563218390804598,0.07450342920170497,5.839080459770115,3.9885057471264367,0.4137931034482759,0.5402298850574713,376
52,2020-06-26,64.0,0.21875,0.03616629464285711,4.21875,2.421875,0.171875,0.359375,166
53,2020-06-27,33.0,0.30303030303030304,0.0658422609937761,7.96969696969697,4.2727272727272725,0.4848484848484849,1.2121212121212122,249
54,2020-06-28,19.0,0.3684210526315789,0.03961323763955337,8.631578947368421,3.0526315789473686,0.15789473684210525,0.4736842105263158,315
55,2020-06-29,74.0,0.25675675675675674,0.04025047775047772,9.202702702702704,4.243243243243243,0.32432432432432434,0.5,637
56,2020-06-30,78.0,0.3974358974358974,0.08588804713804711,3.5128205128205128,3.0128205128205128,0.3717948717948718,0.4871794871794872,267
57,2020-07-01,21.0,0.19047619047619047,0.02090548340548333,8.952380952380953,3.4761904761904763,0.14285714285714285,0.4761904761904762,191
58,2020-07-02,72.0,0.25,0.04614197530864192,2.805555555555556,1.5694444444444444,0.18055555555555555,0.3333333333333333,355
59,2020-07-03,67.0,0.20895522388059698,0.028632002326032108,3.776119402985074,1.7611940298507462,0.1044776119402985,0.19402985074626866,319
60,2020-07-04,36.0,0.3055555555555556,0.03444865319865312,5.4444444444444455,2.75,0.3611111111111111,0.25,223
61,2020-07-05,25.0,0.28,0.0298030303030302,7.32,2.08,0.24,0.28,209
62,2020-07-06,49.0,0.3877551020408163,0.07522418058132338,5.367346938775509,3.6938775510204085,0.22448979591836732,0.5306122448979592,421
63,2020-07-07,61.0,0.29508196721311475,0.060761892934024,4.147540983606556,2.7049180327868854,0.4262295081967213,0.6557377049180327,208
64,2020-07-08,54.0,0.35185185185185186,0.08238402543958095,6.592592592592593,3.888888888888889,0.3333333333333333,0.5925925925925926,311
65,2020-07-09,52.0,0.36538461538461536,0.0688527444777444,5.115384615384615,3.3653846153846154,0.4230769230769231,0.4230769230769231,322
66,2020-07-10,65.0,0.3384615384615385,0.05463034188034183,11.276923076923078,4.1692307692307695,0.6,0.8923076923076924,328
67,2020-07-11,10.0,0.5,0.10693181818181802,23.3,7.2,0.7,1.4,166
68,2020-07-12,16.0,0.25,0.026775568181818064,12.375,4.0,0.875,0.375,198
69,2020-07-13,63.0,0.4603174603174603,0.06264012002107225,9.682539682539682,6.730158730158731,1.761904761904762,1.4761904761904765,636
70,2020-07-14,62.0,0.41935483870967744,0.07619053437601819,4.096774193548387,3.5161290322580645,0.5645161290322581,0.9032258064516128,366
71,2020-07-15,44.0,0.5909090909090909,0.1203638659320477,10.272727272727273,7.227272727272727,0.75,0.7727272727272727,343
72,2020-07-16,76.0,0.34210526315789475,0.06072807492215381,5.0131578947368425,3.6184210526315783,0.4473684210526316,0.7631578947368421,451
73,2020-07-17,52.0,0.3461538461538461,0.062002580752580715,6.1923076923076925,5.115384615384615,0.5769230769230769,0.7692307692307693,415
74,2020-07-18,14.0,0.7142857142857143,0.14966141001855274,12.142857142857142,7.0,0.7857142857142857,1.0714285714285714,316
75,2020-07-19,17.0,0.4705882352941176,0.11862150920974435,7.1764705882352935,6.352941176470589,1.2352941176470589,1.3529411764705883,293
76,2020-07-20,50.0,0.32,0.0689166666666666,3.74,3.62,0.54,0.94,770
77,2020-07-21,65.0,0.476923076923077,0.07117117450450777,16.0,14.892307692307694,1.8307692307692307,1.8307692307692307,535
78,2020-07-22,76.0,0.27631578947368424,0.05559082365003416,13.394736842105265,8.881578947368421,1.0657894736842106,1.7631578947368418,317
79,2020-07-23,81.0,0.2962962962962963,0.055947261971567484,12.629629629629632,8.753086419753087,0.925925925925926,1.1111111111111112,608
80,2020-07-24,57.0,0.3157894736842105,0.05834961682706034,8.614035087719298,6.421052631578947,0.7368421052631579,1.2982456140350878,717
81,2020-07-25,15.0,0.4,-0.009987974987975065,9.466666666666667,7.2,0.5333333333333333,1.0666666666666669,355
82,2020-07-26,16.0,0.4375,0.07394255050505039,8.25,6.25,0.875,2.375,319
83,2020-07-27,46.0,0.43478260869565216,0.0863197189284145,8.195652173913043,4.391304347826087,0.3478260869565217,1.9565217391304348,682
84,2020-07-28,48.0,0.3333333333333333,0.06260784932659923,5.479166666666668,4.4375,0.6041666666666666,1.125,400
85,2020-07-29,58.0,0.4827586206896552,0.06921903766731345,6.706896551724138,5.344827586206896,1.0862068965517242,2.431034482758621,486
86,2020-07-30,55.0,0.4545454545454545,0.0730432572478026,14.527272727272727,8.727272727272727,1.181818181818182,1.8545454545454545,320
87,2020-07-31,62.0,0.3387096774193548,0.061330470604664025,16.338709677419356,9.725806451612904,1.3064516129032258,1.8387096774193548,604
88,2020-08-01,21.0,0.3809523809523809,0.07619047619047611,5.047619047619048,3.761904761904762,0.2380952380952381,0.7619047619047619,242
89,2020-08-02,15.0,0.4666666666666667,0.06627946127946112,9.733333333333333,8.466666666666667,2.533333333333333,3.933333333333333,245
90,2020-08-03,26.0,0.3461538461538461,0.07258852258852251,9.961538461538463,5.0769230769230775,0.4230769230769231,1.3076923076923077,205
91,2020-08-04,60.0,0.4,0.055740740740740695,6.616666666666666,4.2,0.35,1.75,686
92,2020-08-05,62.0,0.4032258064516129,0.08811927236070373,5.790322580645161,4.741935483870968,0.7419354838709677,1.5,374
93,2020-08-06,73.0,0.3561643835616438,0.054259918164027705,5.328767123287672,4.356164383561644,0.4931506849315068,1.0684931506849316,354
94,2020-08-07,60.0,0.35,0.049078162578162526,4.866666666666666,4.05,0.7,0.9333333333333332,516
95,2020-08-08,25.0,0.24,0.06390909090909093,4.88,3.4,0.64,1.0,245
96,2020-08-09,22.0,0.5,0.09466540404040404,10.0,8.545454545454545,1.2727272727272727,4.0,219
97,2020-08-10,40.0,0.425,0.07051452020202009,5.825,5.175,0.425,1.325,686
98,2020-08-11,59.0,0.3389830508474576,0.03500580869224935,4.898305084745763,3.254237288135593,0.288135593220339,0.8305084745762712,336
99,2020-08-12,54.0,0.3703703703703704,0.08142536475869806,3.8333333333333335,4.2407407407407405,0.6666666666666666,1.0925925925925926,314
100,2020-08-13,63.0,0.25396825396825395,0.037089718042098915,6.682539682539683,4.904761904761905,0.7460317460317459,2.3174603174603177,477
101,2020-08-14,60.0,0.3333333333333333,0.04183031204906197,11.766666666666667,10.5,1.3,2.183333333333333,425
102,2020-08-15,28.0,0.2857142857142857,0.05145562770562765,5.428571428571429,7.071428571428571,1.25,2.571428571428572,220
103,2020-08-16,20.0,0.35,0.0618863636363636,6.0,8.25,1.05,1.7,179
104,2020-08-17,57.0,0.3333333333333333,0.04891736918052703,6.824561403508773,6.140350877192982,0.8070175438596491,1.649122807017544,214
105,2020-08-18,51.0,0.4509803921568628,0.0860695540842599,6.941176470588236,5.549019607843137,0.7450980392156863,2.392156862745098,866
106,2020-08-19,55.0,0.4,0.07081496786042232,8.618181818181819,5.8181818181818175,0.7454545454545455,2.0727272727272728,324
107,2020-08-20,57.0,0.4912280701754386,0.06718943824206976,5.228070175438597,4.9298245614035086,0.6842105263157895,2.1578947368421053,217
108,2020-08-21,43.0,0.4883720930232558,0.07088589382194033,20.162790697674414,12.465116279069766,1.837209302325581,3.4418604651162785,694
109,2020-08-22,20.0,0.35,0.07020202020202015,6.8,4.65,0.95,2.3,241
110,2020-08-23,16.0,0.5625,0.11746212121212105,7.4375,7.875,1.375,2.25,257
111,2020-08-24,47.0,0.425531914893617,0.04096819256393717,4.829787234042553,4.042553191489361,0.425531914893617,1.1489361702127658,777
112,2020-08-25,66.0,0.3181818181818182,0.06434173990992169,4.606060606060606,3.1818181818181817,0.6666666666666666,1.5606060606060606,309
113,2020-08-26,75.0,0.2933333333333333,0.04633417508417505,2.9466666666666668,2.32,0.28,0.8533333333333334,477
114,2020-08-27,65.0,0.3692307692307693,0.05294105894105886,4.8,3.7384615384615385,0.3384615384615385,1.2923076923076924,456
115,2020-08-28,72.0,0.19444444444444445,0.032766103495270114,2.4444444444444446,2.25,0.3472222222222222,1.0555555555555556,506
116,2020-08-29,32.0,0.21875,0.045323547979797936,3.15625,1.875,0.46875,0.6875,297
117,2020-08-30,32.0,0.1875,0.03108743686868682,6.15625,3.09375,0.53125,1.4375,249
118,2020-08-31,59.0,0.2711864406779661,0.04352936141071728,4.0,3.4237288135593222,0.4406779661016949,1.847457627118644,1030
119,2020-09-01,58.0,0.3103448275862069,0.05378246753246746,3.155172413793104,3.0172413793103448,0.27586206896551724,1.0517241379310345,504
120,2020-09-02,73.0,0.3287671232876712,0.06364591775550674,2.5616438356164384,1.8219178082191783,0.2465753424657534,1.0136986301369864,519
121,2020-09-03,67.0,0.3582089552238806,0.04467085567831828,4.074626865671642,4.029850746268656,0.582089552238806,1.0746268656716418,586
122,2020-09-04,67.0,0.3582089552238806,0.04205880769313601,3.6417910447761193,2.6417910447761197,0.3582089552238806,0.9253731343283582,614
123,2020-09-05,25.0,0.36,0.04395670995670988,6.68,4.84,0.44,1.56,370
124,2020-09-06,23.0,0.3043478260869565,0.052843653930610385,5.695652173913044,3.8260869565217392,0.39130434782608703,1.608695652173913,379
125,2020-09-07,32.0,0.40625,0.058780889249639125,4.0625,2.5,0.1875,0.75,405
126,2020-09-08,68.0,0.4117647058823529,0.04572431245225357,7.661764705882352,5.220588235294118,0.5588235294117647,2.073529411764706,1462
127,2020-09-09,70.0,0.3857142857142857,0.06393542568542561,3.7285714285714286,3.3714285714285714,0.4857142857142857,1.0857142857142856,378
128,2020-09-10,72.0,0.5277777777777778,0.06304135101010093,4.263888888888889,3.888888888888889,0.6111111111111112,1.375,821
129,2020-09-11,61.0,0.5245901639344263,0.056616575591985366,4.213114754098362,3.0,0.2295081967213115,1.0491803278688523,720
130,2020-09-12,33.0,0.5757575757575758,0.05407101316192215,3.0303030303030303,2.636363636363636,0.24242424242424246,0.6666666666666666,488
131,2020-09-13,28.0,0.6428571428571429,0.05799062049062036,4.714285714285714,2.642857142857143,0.3928571428571429,0.35714285714285715,476
132,2020-09-14,73.0,0.4383561643835616,0.040758094645080886,1.9589041095890407,2.1232876712328768,0.1506849315068493,1.3835616438356164,1458
133,2020-09-15,56.0,0.42857142857142855,0.06123305761698612,4.160714285714286,3.8928571428571432,0.25,2.0357142857142856,802
134,2020-09-16,61.0,0.3770491803278688,0.037960873370709386,3.2295081967213117,2.950819672131148,0.21311475409836064,1.0,952
135,2020-09-17,63.0,0.36507936507936506,0.06252324835658159,1.746031746031746,1.968253968253968,0.1746031746031746,0.8253968253968254,1027
136,2020-09-18,66.0,0.3939393939393939,0.054160326205780665,5.348484848484849,4.424242424242424,0.5303030303030303,1.5757575757575757,1174
137,2020-09-19,34.0,0.35294117647058826,0.02925821591262762,4.647058823529412,3.5882352941176467,0.5294117647058824,1.6764705882352942,554
138,2020-09-20,30.0,0.43333333333333335,0.05145117845117834,4.466666666666667,4.566666666666666,0.5333333333333333,1.2,1143
139,2020-09-21,68.0,0.3235294117647059,0.051293449197860885,5.029411764705882,4.632352941176472,0.3088235294117647,1.7794117647058822,1833
140,2020-09-22,61.0,0.3770491803278688,0.03190576727461966,3.180327868852459,3.0491803278688523,0.2786885245901639,0.918032786885246,1272
141,2020-09-23,73.0,0.3698630136986301,0.06986249481112489,3.1232876712328768,3.4520547945205484,0.4383561643835616,0.821917808219178,1084
142,2020-09-24,50.0,0.36,0.048356565656565584,2.8,3.22,0.36,0.92,1148
143,2020-09-25,69.0,0.43478260869565216,0.06712194407846576,3.739130434782609,4.376811594202898,0.8695652173913043,1.6231884057971016,1630
144,2020-09-26,23.0,0.43478260869565216,0.05495827843653922,4.826086956521738,5.304347826086956,0.6521739130434783,2.0,1053
145,2020-09-27,18.0,0.5555555555555556,0.11349046015712673,6.5,6.722222222222222,0.6666666666666666,1.8333333333333333,1658
146,2020-09-28,49.0,0.42857142857142855,0.07670863150454976,5.7346938775510194,6.530612244897959,0.5510204081632653,1.5102040816326532,1791
147,2020-09-29,64.0,0.234375,0.026539614898989847,2.3125,2.046875,0.125,0.53125,1772
148,2020-09-30,86.0,0.2790697674418605,0.03506988489546626,1.7906976744186047,2.081395348837209,0.16279069767441862,0.3953488372093023,2116
149,2020-10-01,72.0,0.3194444444444444,0.04159128487253482,3.430555555555556,3.458333333333333,0.375,0.9444444444444444,1823
150,2020-10-02,64.0,0.34375,0.07212515782828276,5.390625,4.453125,0.71875,1.75,2124
151,2020-10-03,28.0,0.35714285714285715,0.06535804473304464,7.4642857142857135,3.4285714285714284,0.35714285714285715,1.2142857142857142,1306
152,2020-10-04,19.0,0.5263157894736842,0.07670464038885069,18.210526315789476,8.210526315789473,0.8421052631578947,2.263157894736842,2141
153,2020-10-05,56.0,0.375,0.03970753452896305,3.678571428571429,3.696428571428572,0.3392857142857143,0.75,2883
154,2020-10-06,64.0,0.375,0.045344488410894584,7.890625,6.375,0.6875,1.078125,2372
155,2020-10-07,67.0,0.3880597014925373,0.046818504878206366,4.014925373134329,4.029850746268656,0.4776119402985074,0.7910447761194029,1624
156,2020-10-08,64.0,0.46875,0.03708519345238092,4.390625,4.671875,0.625,1.796875,2350
157,2020-10-09,87.0,0.3218390804597701,0.03782614735200938,4.252873563218391,3.1149425287356323,0.5172413793103449,1.6436781609195403,2895
158,2020-10-10,28.0,0.5,0.06488984230055654,6.25,6.5357142857142865,1.3214285714285714,2.25,2142
159,2020-10-11,36.0,0.4444444444444444,0.05097196454339306,4.333333333333333,4.6944444444444455,0.6666666666666666,1.2222222222222223,1636
160,2020-10-12,25.0,0.44,0.08181212121212117,5.56,4.96,1.08,1.48,975
161,2020-10-13,49.0,0.5102040816326531,0.04968055187442928,4.408163265306122,5.040816326530612,0.4693877551020408,1.5102040816326532,4111
162,2020-10-14,59.0,0.4576271186440678,0.05485857362976,4.033898305084746,4.59322033898305,1.152542372881356,2.0508474576271185,2575
163,2020-10-15,64.0,0.328125,0.06060465142496384,8.0,6.078125,0.953125,1.75,2298
164,2020-10-16,63.0,0.3809523809523809,0.048141603923916775,5.476190476190476,5.253968253968254,0.5873015873015873,1.5238095238095235,2566
165,2020-10-17,26.0,0.5769230769230769,0.05814158064158063,5.269230769230768,6.615384615384616,0.6923076923076923,1.5769230769230769,139
166,2020-10-18,27.0,0.3333333333333333,0.06066057399390722,4.5555555555555545,4.888888888888889,0.6666666666666666,0.8888888888888888,3737
167,2020-10-19,58.0,0.3275862068965517,0.05314916405433643,4.637931034482759,5.603448275862068,1.0517241379310345,1.4482758620689655,3307
168,2020-10-20,54.0,0.4814814814814815,0.07307344276094263,7.814814814814816,5.592592592592593,0.9074074074074074,1.0740740740740742,2238
169,2020-10-21,53.0,0.4339622641509434,0.10465218219935188,6.2075471698113205,5.547169811320754,0.9433962264150944,1.490566037735849,2687
170,2020-10-22,70.0,0.42857142857142855,0.059646876932591124,4.685714285714286,4.057142857142857,1.0285714285714285,1.7285714285714286,2581
171,2020-10-23,58.0,0.3965517241379311,0.05293091008608244,4.706896551724138,4.224137931034483,0.7413793103448276,1.7068965517241383,2902
172,2020-10-24,22.0,0.6363636363636364,0.16466499409681215,6.863636363636362,6.863636363636362,3.5,3.8181818181818175,1532
173,2020-10-25,22.0,0.4545454545454545,0.0558195592286501,5.727272727272728,6.227272727272728,1.4090909090909092,3.1818181818181817,2823
174,2020-10-26,74.0,0.4594594594594595,0.0715451084201083,9.797297297297296,8.162162162162161,1.6891891891891893,4.27027027027027,4099
175,2020-10-27,44.0,0.4090909090909091,0.08233356290174464,8.136363636363637,6.3181818181818175,1.6363636363636365,2.4318181818181817,2730
176,2020-10-28,57.0,0.5263157894736842,0.12192012543986225,4.421052631578949,4.7368421052631575,1.087719298245614,1.824561403508772,2663
177,2020-10-29,72.0,0.4444444444444444,0.06165141619568696,5.527777777777778,4.861111111111111,1.2222222222222223,1.930555555555556,3017
178,2020-10-30,58.0,0.4655172413793103,0.0719562465790914,12.189655172413795,10.344827586206897,3.7068965517241383,5.413793103448277,3556
179,2020-10-31,25.0,0.56,0.07275757575757569,7.12,5.72,1.24,4.16,2374
180,2020-11-01,17.0,0.7647058823529411,0.15871021135727012,9.882352941176473,8.294117647058824,1.8235294117647056,2.3529411764705883,2336
181,2020-11-02,56.0,0.5,0.07279624782813553,14.5,7.9107142857142865,1.5178571428571428,3.3392857142857144,3529
182,2020-11-03,67.0,0.4328358208955224,0.07208707544528431,6.283582089552239,4.059701492537314,1.0746268656716418,2.238805970149253,4738
183,2020-11-04,60.0,0.38333333333333336,0.048671356421356365,6.366666666666666,5.4833333333333325,0.75,2.3,2782
184,2020-11-05,58.0,0.4137931034482759,0.050227708115639084,7.310344827586207,5.465517241379311,1.3275862068965518,3.327586206896552,2784
185,2020-11-06,63.0,0.3968253968253968,0.05506782106782096,10.507936507936508,7.238095238095237,3.063492063492064,3.3174603174603177,5393
186,2020-11-07,32.0,0.625,0.1002947443181817,11.375,9.71875,4.34375,14.53125,4346
187,2020-11-08,28.0,0.5357142857142857,0.12254058441558435,19.5,12.892857142857142,5.214285714285714,8.0,3944
188,2020-11-09,78.0,0.3076923076923077,0.04844821844821838,4.487179487179487,3.782051282051282,1.1923076923076923,2.6538461538461537,4871
189,2020-11-10,73.0,0.3835616438356164,0.057089226412856464,10.534246575342467,7.4520547945205475,2.2054794520547945,4.068493150684931,4445
190,2020-11-11,27.0,0.5925925925925926,0.1255050505050504,16.814814814814813,7.62962962962963,1.8888888888888888,5.962962962962963,3984
191,2020-11-12,66.0,0.4393939393939394,0.05890848419257502,10.409090909090908,6.545454545454546,1.2121212121212122,3.696969696969697,5474
192,2020-11-13,84.0,0.3690476190476191,0.026400828007970827,8.880952380952381,6.0357142857142865,1.2738095238095235,4.845238095238095,4770
193,2020-11-14,37.0,0.5135135135135135,0.08740727740727733,26.702702702702698,13.702702702702705,5.1891891891891895,6.54054054054054,4430
194,2020-11-15,31.0,0.5161290322580645,0.11304985337243398,7.096774193548387,4.903225806451613,1.4838709677419355,6.709677419354839,4301
195,2020-11-16,61.0,0.4098360655737705,0.052897298512052576,7.7049180327868845,6.80327868852459,1.540983606557377,6.688524590163934,6033
196,2020-11-17,96.0,0.40625,0.05006567857572314,7.0625,5.416666666666668,1.0520833333333333,3.09375,4462
197,2020-11-18,73.0,0.410958904109589,0.058573133487516964,23.46575342465753,10.684931506849317,2.7260273972602738,5.602739726027397,4518
198,2020-11-19,72.0,0.4583333333333333,0.045868681858265134,13.125,11.069444444444445,2.75,8.819444444444445,4794
199,2020-11-20,108.0,0.3611111111111111,0.0317675121395359,17.12962962962963,12.379629629629632,2.6481481481481484,5.4444444444444455,4987
200,2020-11-21,53.0,0.490566037735849,0.06484777015437386,10.981132075471699,7.150943396226416,3.1132075471698117,6.943396226415095,4957
201,2020-11-22,47.0,0.3191489361702128,0.06165377176015471,5.872340425531916,5.0638297872340425,1.680851063829787,5.127659574468085,4745
202,2020-11-23,99.0,0.42424242424242425,0.042797892343346855,7.363636363636362,5.959595959595959,1.4545454545454546,3.3737373737373737,6795
203,2020-11-24,110.0,0.3545454545454545,0.03617296340023608,12.336363636363634,8.00909090909091,1.9090909090909087,4.7727272727272725,5282
204,2020-11-25,126.0,0.3888888888888889,0.02448694713575662,12.126984126984127,8.071428571428571,3.6746031746031744,6.634920634920635,4958
205,2020-11-26,100.0,0.37,0.040066991341991286,4.85,3.14,0.81,2.69,5679
206,2020-11-27,95.0,0.4105263157894737,0.060710499734183875,10.23157894736842,5.905263157894738,1.368421052631579,2.863157894736842,5954
207,2020-11-28,76.0,0.4868421052631579,0.057934704184704124,4.947368421052632,4.355263157894736,1.0657894736842106,2.026315789473684,5675
208,2020-11-29,42.0,0.4047619047619048,0.055180031608602964,5.8809523809523805,4.4523809523809526,1.1666666666666667,1.880952380952381,5383
209,2020-11-30,76.0,0.42105263157894735,0.05641931533378894,5.697368421052633,4.7631578947368425,1.0,2.486842105263158,7895
210,2020-12-01,72.0,0.4583333333333333,0.06015209135000792,9.041666666666666,5.152777777777779,0.7777777777777778,2.4722222222222223,5495
211,2020-12-02,68.0,0.5147058823529411,0.07755038757927406,12.058823529411766,6.0735294117647065,1.0441176470588236,3.779411764705882,6454
212,2020-12-03,84.0,0.42857142857142855,0.05061220195148757,5.9642857142857135,3.928571428571429,0.8690476190476191,2.8928571428571432,6264
213,2020-12-04,79.0,0.4430379746835443,0.06486292247368187,6.5316455696202524,4.4556962025316444,0.7341772151898734,2.5063291139240507,6419
214,2020-12-05,35.0,0.5142857142857142,0.08287824675324665,6.142857142857142,4.342857142857143,1.0857142857142856,3.5142857142857142,6354
215,2020-12-06,54.0,0.3888888888888889,0.0481126075570519,4.481481481481481,3.7222222222222223,1.2222222222222223,1.3333333333333333,6305
216,2020-12-07,70.0,0.6,0.06531679035250458,8.957142857142857,7.0,1.3714285714285714,3.8428571428571434,7724
217,2020-12-08,98.0,0.4081632653061225,0.05274306475837082,10.234693877551019,7.0102040816326525,1.5816326530612246,3.7142857142857135,6171
218,2020-12-09,81.0,0.41975308641975306,0.05500303965581736,6.987654320987653,5.1234567901234565,0.9382716049382716,1.4197530864197532,6399
219,2020-12-10,9.0,0.6666666666666666,0.09550505050505034,26.11111111111111,9.0,2.2222222222222223,2.2222222222222223,6686
