,created_at,total_count,covid_ratio,soft_covid_ratio,sentiment_avg,like_avg,retweet_avg,quote_avg,reply_avg,soft_sentiment_avg,soft_like_avg,soft_retweet_avg,soft_quote_avg,soft_reply_avg,confirmed_cases
0,2020-09-27,36.0,0.16666666666666666,0.16666666666666666,0.021711560044893358,26.0,12.333333333333336,4.972222222222221,22.777777777777782,0.021711560044893358,26.0,12.333333333333336,4.972222222222221,22.777777777777782,161107
1,2020-09-28,38.0,0.2631578947368421,0.3684210526315789,0.05279557796005161,62.42105263157895,35.368421052631575,30.78947368421053,58.26315789473684,0.07776424963924958,85.05263157894737,41.68421052631579,34.263157894736835,86.81578947368419,162930
2,2020-09-29,48.0,0.14583333333333334,0.1875,0.02179301697530861,26.875,11.020833333333336,5.479166666666668,32.916666666666664,0.035170091289882896,29.20833333333333,11.3125,5.583333333333332,33.229166666666664,165054
3,2020-09-30,58.0,0.2241379310344828,0.3448275862068966,0.031586555207244835,18.068965517241377,7.5344827586206895,2.5,9.70689655172414,0.06413564524555898,41.086206896551715,19.068965517241377,4.2586206896551735,15.672413793103447,166360
4,2020-10-01,57.0,0.12280701754385966,0.17543859649122806,0.01653685982633351,10.508771929824562,4.7368421052631575,1.1228070175438596,4.105263157894736,0.02826931596668435,12.052631578947368,4.964912280701754,1.1929824561403508,5.052631578947368,168501
5,2020-10-02,49.0,0.16326530612244894,0.16326530612244894,0.012916188120269734,26.79591836734694,12.6734693877551,6.755102040816326,17.306122448979593,0.012916188120269734,26.79591836734694,12.6734693877551,6.755102040816326,17.306122448979593,171384
6,2020-10-03,34.0,0.08823529411764706,0.1176470588235294,0.013955733808675002,17.0,9.617647058823527,3.3529411764705883,14.588235294117649,0.02411616161616162,19.88235294117647,9.911764705882351,3.4117647058823533,14.735294117647056,173756
7,2020-10-04,42.0,0.11904761904761905,0.19047619047619047,0.03795206529581529,16.857142857142858,7.023809523809524,1.7857142857142858,9.238095238095235,0.05662978638425065,74.19047619047619,17.166666666666668,6.9523809523809526,45.0952380952381,175380
8,2020-10-05,41.0,0.14634146341463414,0.1951219512195122,0.028843311160384293,21.65853658536585,7.414634146341463,2.463414634146341,12.292682926829267,0.052420546932742014,32.19512195121951,11.439024390243905,2.756097560975609,12.780487804878051,177730
9,2020-10-06,34.0,0.2647058823529412,0.3235294117647059,0.06405723905723902,101.67647058823529,21.323529411764707,9.676470588235292,57.941176470588225,0.0748415527827292,130.85294117647058,30.058823529411764,13.117647058823529,76.70588235294117,180625
10,2020-10-07,71.0,0.28169014084507044,0.30985915492957744,0.056756098459443474,17.408450704225352,6.014084507042254,2.605633802816901,19.95774647887324,0.06461171701928738,19.366197183098592,6.450704225352112,2.647887323943662,20.464788732394368,182767
11,2020-10-08,39.0,0.10256410256410256,0.10256410256410256,0.03067599067599067,27.461538461538463,13.051282051282053,7.410256410256411,11.461538461538463,0.03067599067599067,27.461538461538463,13.051282051282053,7.410256410256411,11.461538461538463,184403
12,2020-10-09,42.0,0.21428571428571427,0.2380952380952381,0.05697158661444369,29.73809523809524,16.238095238095234,6.976190476190476,15.071428571428573,0.06887634851920559,30.33333333333333,16.38095238095238,6.976190476190476,15.5,185378
13,2020-10-10,33.0,0.18181818181818185,0.21212121212121213,0.005889659582841364,42.03030303030303,13.333333333333336,4.878787878787879,35.18181818181818,0.009526023219205,42.48484848484848,13.606060606060606,4.878787878787879,35.24242424242424,189489
14,2020-10-11,32.0,0.1875,0.21875,0.02689067009379509,80.96875,16.96875,5.71875,45.5,0.03782817009379511,140.6875,50.03125,12.375,56.09375,192064
15,2020-10-12,29.0,0.10344827586206896,0.13793103448275862,0.024245689655172414,9.344827586206897,1.9310344827586208,0.5862068965517241,2.9655172413793105,0.024245689655172414,10.827586206896553,2.2068965517241383,0.7586206896551724,4.0344827586206895,194362
16,2020-10-13,34.0,0.2352941176470588,0.2352941176470588,0.04154188948306591,199.67647058823533,68.79411764705883,28.088235294117645,80.11764705882355,0.04154188948306591,199.67647058823533,68.79411764705883,28.088235294117645,80.11764705882355,196928
17,2020-10-14,47.0,0.2127659574468085,0.23404255319148934,0.06273130238555767,19.48936170212766,8.468085106382981,3.0,15.553191489361698,0.06769584139264988,21.70212765957447,9.382978723404257,3.148936170212766,15.787234042553193,197067
18,2020-10-15,66.0,0.24242424242424246,0.3181818181818182,0.04269460217512161,26.46969696969697,9.363636363636363,2.606060606060606,15.090909090909092,0.050040791339492574,53.60606060606061,18.045454545454547,4.787878787878788,30.51515151515152,200804
19,2020-10-16,49.0,0.22448979591836732,0.22448979591836732,0.06406484671790792,28.755102040816325,15.387755102040815,2.122448979591837,13.265306122448981,0.06406484671790792,28.755102040816325,15.387755102040815,2.122448979591837,13.265306122448981,204111
20,2020-10-17,40.0,0.15,0.225,0.034880952380952325,34.75,9.75,2.75,22.675,0.040165043290043216,37.375,10.35,3.075,23.7,206349
21,2020-10-18,32.0,0.21875,0.28125,0.003196022727272689,108.59375,20.25,11.1875,68.6875,0.023508522727272663,116.5,21.3125,11.46875,71.25,209036
22,2020-10-19,28.0,0.25,0.25,0.032368970315398864,37.285714285714285,16.928571428571427,2.9642857142857144,8.714285714285714,0.032368970315398864,37.285714285714285,16.928571428571427,2.9642857142857144,8.714285714285714,211617
23,2020-10-20,42.0,0.14285714285714285,0.19047619047619047,0.01582096474953614,43.16666666666666,11.666666666666664,5.238095238095238,12.428571428571427,0.02891620284477424,52.047619047619044,13.190476190476188,6.404761904761906,24.619047619047624,214519
24,2020-10-21,47.0,0.1702127659574468,0.23404255319148934,0.05934880722114761,9.361702127659576,4.595744680851063,1.4468085106382982,10.127659574468085,0.074455190199871,16.446808510638302,5.617021276595745,1.7872340425531914,11.808510638297873,216051
25,2020-10-22,38.0,0.18421052631578946,0.21052631578947367,0.03882044125465177,23.921052631578952,8.921052631578947,2.9473684210526314,7.86842105263158,0.037139154704944194,25.342105263157894,9.052631578947368,3.0526315789473686,8.026315789473685,218874
26,2020-10-23,57.0,0.15789473684210525,0.2982456140350877,0.013754841649578476,20.263157894736842,6.192982456140351,1.6140350877192982,6.6491228070175445,0.004289574947469648,42.85964912280702,10.666666666666666,2.771929824561404,11.508771929824562,222973
27,2020-10-24,44.0,0.11363636363636365,0.20454545454545456,0.01454028925619832,17.568181818181817,9.045454545454543,7.363636363636362,9.909090909090908,0.0386794077134986,30.568181818181817,11.818181818181818,8.545454545454545,22.0,225703
28,2020-10-25,40.0,0.1,0.175,0.010308291245791251,31.65,12.075,12.325,17.75,0.02280829124579125,37.35,13.325,12.35,17.975,228366
29,2020-10-26,42.0,0.21428571428571427,0.3333333333333333,0.02085961657390224,28.23809523809524,8.619047619047619,3.571428571428572,15.857142857142858,0.02572072768501334,49.97619047619048,13.809523809523812,4.4523809523809526,18.761904761904766,231383
30,2020-10-27,44.0,0.13636363636363635,0.1590909090909091,0.0433416961826052,8.704545454545455,3.863636363636364,2.25,7.0681818181818175,0.049411321002230016,46.86363636363637,9.840909090909092,5.659090909090909,15.113636363636365,234939
31,2020-10-28,34.0,0.2058823529411765,0.2647058823529412,0.030500381970970183,16.11764705882353,5.352941176470588,2.0588235294117645,7.8235294117647065,0.03785332314744077,34.029411764705884,7.5,2.794117647058824,13.264705882352944,237313
32,2020-10-29,37.0,0.13513513513513514,0.2432432432432433,0.03645850395850394,10.756756756756756,5.378378378378378,3.918918918918919,10.891891891891891,0.08134589134589132,34.594594594594604,9.972972972972975,5.486486486486488,20.27027027027027,239649
33,2020-10-30,52.0,0.21153846153846154,0.28846153846153844,0.022382235819735797,22.55769230769231,6.846153846153847,2.4230769230769234,12.576923076923075,0.03592390248640244,24.73076923076923,7.211538461538463,2.480769230769231,13.0,243178
34,2020-10-31,31.0,0.03225806451612903,0.1935483870967742,0.006842619745845549,8.709677419354838,6.903225806451613,4.32258064516129,8.419354838709678,0.094208211143695,26.193548387096772,10.225806451612904,5.161290322580644,16.129032258064516,247916
35,2020-11-01,21.0,0.14285714285714285,0.19047619047619047,0.002301587301587286,27.285714285714285,8.523809523809524,3.3809523809523814,19.047619047619047,0.025052910052910004,33.666666666666664,8.857142857142858,3.4285714285714284,19.38095238095238,250698
36,2020-11-02,29.0,0.3793103448275862,0.4482758620689655,0.06912822809374528,59.72413793103448,16.413793103448278,6.206896551724138,26.551724137931036,0.07178627407075679,61.137931034482754,16.655172413793107,6.241379310344827,26.689655172413797,253482
37,2020-11-03,44.0,0.2727272727272727,0.3181818181818182,0.0683500317023044,31.38636363636364,10.613636363636363,8.363636363636363,27.522727272727273,0.08558488018715288,41.61363636363637,12.272727272727273,9.545454545454543,33.79545454545455,258875
38,2020-11-04,31.0,0.1935483870967742,0.2258064516129032,0.03569159335288369,27.483870967741932,7.32258064516129,3.0967741935483866,17.70967741935484,0.06472385141739982,69.3225806451613,9.322580645161288,6.03225806451613,33.32258064516129,263221
39,2020-11-05,45.0,0.3555555555555556,0.4666666666666667,0.09000505050505044,22.97777777777777,5.844444444444443,2.0888888888888895,15.311111111111114,0.10294155844155843,28.244444444444447,6.288888888888889,2.6444444444444444,17.777777777777782,267165
40,2020-11-06,52.0,0.28846153846153844,0.3076923076923077,0.05197750166500156,24.01923076923077,9.73076923076923,3.0576923076923075,16.0,0.059532446719946584,118.09615384615385,19.55769230769231,6.3269230769230775,27.211538461538463,272036
41,2020-11-07,29.0,0.20689655172413796,0.20689655172413796,0.02036572622779521,25.82758620689655,8.896551724137929,8.137931034482758,21.517241379310345,0.02036572622779521,25.82758620689655,8.896551724137929,8.137931034482758,21.517241379310345,276481
42,2020-11-08,28.0,0.2857142857142857,0.35714285714285715,0.03839382343846619,76.21428571428571,21.285714285714285,18.964285714285715,32.035714285714285,0.03477279169243444,86.0,23.0,19.357142857142858,33.67857142857143,280465
43,2020-11-09,41.0,0.2195121951219512,0.3414634146341464,0.03121612466124661,20.439024390243897,7.292682926829267,4.219512195121951,13.317073170731707,0.07259639073663464,66.5609756097561,12.780487804878051,7.365853658536586,29.853658536585368,285939
44,2020-11-10,39.0,0.2307692307692308,0.3076923076923077,0.027807932807932773,26.43589743589743,8.820512820512821,8.23076923076923,23.538461538461537,0.044746549746549694,34.82051282051282,10.538461538461537,8.692307692307693,24.897435897435894,290709
45,2020-11-11,45.0,0.2,0.2222222222222222,0.024777777777777784,25.044444444444448,9.288888888888891,5.888888888888888,13.133333333333333,0.022888888888888917,39.22222222222222,11.755555555555556,8.444444444444445,35.822222222222216,295139
46,2020-11-12,26.0,0.19230769230769232,0.3076923076923077,0.005589549339549271,29.80769230769231,13.115384615384615,13.884615384615385,48.5,0.04180749805749796,65.88461538461539,17.96153846153846,17.53846153846154,75.26923076923076,299440
47,2020-11-13,41.0,0.2926829268292683,0.3902439024390244,0.02667418963150661,34.41463414634146,10.634146341463415,3.5853658536585367,17.585365853658537,0.03556184668989537,38.609756097560975,11.268292682926829,3.902439024390244,21.60975609756097,305473
48,2020-11-14,27.0,0.2962962962962963,0.4074074074074074,0.02446190298042148,29.259259259259263,11.370370370370368,5.37037037037037,18.555555555555557,0.04468824042898111,68.07407407407408,15.407407407407408,10.111111111111109,59.66666666666666,309935
49,2020-11-15,45.0,0.3111111111111111,0.37777777777777777,0.033479918229918235,110.0,34.266666666666666,18.155555555555555,70.75555555555556,0.035348605098605095,112.42222222222222,34.666666666666664,18.4,72.4,314453
50,2020-11-16,31.0,0.25806451612903225,0.3870967741935484,0.02478727365824136,20.677419354838708,6.96774193548387,5.354838709677419,26.032258064516128,0.08235383791835403,50.67741935483871,12.419354838709678,11.06451612903226,64.51612903225806,319247
51,2020-11-17,45.0,0.37777777777777777,0.5555555555555556,0.05951162417829078,44.93333333333333,13.044444444444444,15.266666666666667,55.577777777777776,0.08762273528940184,87.26666666666668,20.11111111111111,18.95555555555556,78.6,324234
52,2020-11-18,48.0,0.3541666666666667,0.4583333333333333,0.07001330266955266,32.0,8.791666666666666,3.4166666666666665,18.854166666666668,0.08519638347763346,36.395833333333336,9.979166666666666,3.625,20.375,329191
53,2020-11-19,54.0,0.2777777777777778,0.3148148148148148,0.052078189300411484,18.814814814814813,5.518518518518518,2.333333333333333,14.611111111111109,0.04158436213991767,24.092592592592588,8.0,3.185185185185185,14.962962962962965,333936
54,2020-11-20,70.0,0.32857142857142857,0.4,0.039432917611489,53.38571428571429,14.4,4.7,25.52857142857143,0.0526174414210128,62.2,18.014285714285716,6.414285714285715,37.07142857142857,340731
55,2020-11-21,38.0,0.3947368421052632,0.4473684210526316,0.02727400888585097,55.5,14.0,8.605263157894736,54.05263157894736,0.03288804397357027,57.73684210526316,14.23684210526316,8.736842105263158,54.92105263157895,346013
56,2020-11-22,45.0,0.3333333333333333,0.4222222222222222,0.060881667201111614,41.08888888888889,12.533333333333333,3.2666666666666666,10.044444444444443,0.057918704238148634,60.755555555555546,15.888888888888891,5.644444444444446,31.711111111111112,350971
57,2020-11-23,40.0,0.45,0.525,0.050998376623376654,112.65,21.5,8.05,47.175,0.031831709956709975,119.625,22.225,9.4,57.2,356650
58,2020-11-24,41.0,0.5365853658536586,0.5853658536585366,0.05992681607010876,109.41463414634147,21.07317073170732,13.707317073170733,91.17073170731709,0.05992681607010876,129.21951219512195,23.609756097560968,15.390243902439025,106.65853658536585,362604
59,2020-11-25,68.0,0.4117647058823529,0.4705882352941176,0.0501177103417124,56.558823529411775,11.661764705882351,6.735294117647059,32.72058823529412,0.0548469884165787,84.61764705882355,19.22058823529412,9.352941176470589,46.529411764705884,368279
60,2020-11-26,61.0,0.4754098360655738,0.5245901639344263,0.07122214534099773,44.622950819672134,11.508196721311474,3.885245901639344,29.21311475409836,0.07056374636292663,64.54098360655738,14.21311475409836,5.131147540983607,37.57377049180328,373662
61,2020-11-27,54.0,0.3703703703703704,0.4444444444444444,0.04421939857125034,64.25925925925925,12.518518518518519,8.018518518518519,22.33333333333333,0.05283124454420742,88.16666666666669,15.25925925925926,13.370370370370368,58.185185185185176,381557
62,2020-11-28,43.0,0.3953488372093023,0.3953488372093023,0.028395583744420912,45.27906976744186,11.930232558139535,6.767441860465117,33.55813953488372,0.028395583744420912,45.27906976744186,11.930232558139535,6.767441860465117,33.55813953488372,387052
63,2020-11-29,28.0,0.42857142857142855,0.42857142857142855,0.018157467532467463,53.07142857142857,20.285714285714285,5.214285714285714,21.107142857142858,0.018157467532467463,53.07142857142857,20.285714285714285,5.214285714285714,21.107142857142858,393506
64,2020-11-30,39.0,0.5384615384615384,0.5384615384615384,0.0317490102490101,79.2051282051282,15.17948717948718,10.64102564102564,60.153846153846146,0.0317490102490101,79.2051282051282,15.17948717948718,10.64102564102564,60.153846153846146,399770
65,2020-12-01,54.0,0.3703703703703704,0.3703703703703704,0.0552186548019881,16.462962962962962,3.851851851851852,2.055555555555556,11.907407407407408,0.0552186548019881,16.462962962962962,3.851851851851852,2.055555555555556,11.907407407407408,406189
66,2020-12-02,38.0,0.3947368421052632,0.5263157894736842,0.052286018075491665,14.0,5.578947368421051,1.973684210526316,9.736842105263158,0.09055655236576277,21.73684210526316,6.578947368421053,2.473684210526316,13.68421052631579,412543
67,2020-12-03,67.0,0.4328358208955224,0.5074626865671642,0.03756640421885623,34.23880597014925,7.059701492537314,3.2238805970149254,23.58208955223881,0.05696938929348307,40.985074626865675,8.134328358208956,5.641791044776119,29.373134328358212,418848
68,2020-12-04,46.0,0.39130434782608703,0.4130434782608696,0.0592884591254156,66.56521739130434,16.304347826086953,6.978260869565218,39.41304347826087,0.06811998086454604,67.67391304347827,16.456521739130434,7.108695652173912,40.21739130434783,426572
69,2020-12-05,32.0,0.34375,0.34375,0.025799107142857037,67.375,13.25,17.21875,73.25,0.025799107142857037,67.375,13.25,17.21875,73.25,432743
70,2020-12-06,38.0,0.3157894736842105,0.34210526315789475,0.032417015550239216,23.447368421052627,7.157894736842105,3.657894736842105,12.0,0.036802980462519896,23.63157894736842,7.184210526315789,3.657894736842105,12.026315789473687,439142
71,2020-12-07,48.0,0.3125,0.4583333333333333,0.057943722943722915,17.9375,6.083333333333332,2.8125,12.25,0.09482548701298693,36.79166666666666,8.958333333333334,5.0625,31.58333333333333,445828
72,2020-12-08,39.0,0.4615384615384616,0.5128205128205128,0.062235467002133685,76.48717948717949,9.692307692307693,6.0,43.384615384615394,0.06799012900679571,118.66666666666669,17.076923076923073,8.794871794871796,50.69230769230769,452543
