,created_at,avg(confirmed_cases),avg(prediction)
0,2020-12-10,6686.0,3895.8325958474366
1,2020-12-09,6399.0,4323.328005107974
2,2020-12-08,6171.0,3947.5309739848876
3,2020-12-07,7724.0,3642.125730095783
4,2020-12-06,6305.0,3315.996507364479
5,2020-12-05,6354.0,3735.110618740753
6,2020-12-04,6419.0,3609.054238324551
7,2020-12-03,6264.0,3812.626488587224
