,created_at,confirmed_cases,prediction
0,2020-11-26,5954,5173.339099419103
1,2020-11-27,5675,5797.571540043567
2,2020-11-28,5383,5307.379792562955
3,2020-11-29,7895,5656.308924141447
4,2020-11-30,5495,6885.793718627947
5,2020-12-01,6454,4976.651015106931
6,2020-12-02,6264,5389.0508693105285
7,2020-12-03,6419,5468.377523415076
8,2020-12-04,6354,4570.445008124766
9,2020-12-05,6305,5024.558795270685
10,2020-12-06,7724,4933.390357068418
11,2020-12-07,6171,4206.337553179826
12,2020-12-08,6399,6233.761146501004
13,2020-12-09,6686,5112.4076604956335
14,2020-12-10,6715,9598.646163713995
