,created_at,confirmed_cases,prediction
0,2020-10-23,3556,1132.628563356434
1,2020-10-24,2374,1190.410950395552
2,2020-10-25,2336,1345.2491191075965
3,2020-10-26,3529,1343.5947027624652
4,2020-10-27,4738,957.534105628367
5,2020-10-28,2782,1080.1106452599315
6,2020-10-29,2784,1273.1982924559961
7,2020-10-30,5393,1515.8453605813866
8,2020-10-31,4346,1289.7257153904593
9,2020-11-01,3944,1079.0280936023323
10,2020-11-02,4871,808.4924421104912
11,2020-11-03,4445,992.1138646920535
12,2020-11-04,3984,1138.6030083798942
13,2020-11-05,5474,1208.1492984012184
14,2020-11-06,4770,1161.964755330588
15,2020-11-07,4430,1981.3379896428846
16,2020-11-08,4301,1007.9844334563234
17,2020-11-09,6033,1232.3519093809703
18,2020-11-10,4462,1173.8395668107373
19,2020-11-11,4518,444.3419409850256
20,2020-11-12,4794,1041.5039120463412
21,2020-11-13,4987,1293.3283493868528
22,2020-11-14,4957,498.99562746852695
23,2020-11-15,4745,1132.0141400952743
24,2020-11-16,6795,1522.3791778450245
25,2020-11-17,5282,1271.6683532690045
26,2020-11-18,4958,380.8134051947918
27,2020-11-19,5679,1753.1939035545747
28,2020-11-20,5954,1376.3070373901105
29,2020-11-21,5675,1317.6732366791698
30,2020-11-22,5383,1218.7451715724883
31,2020-11-23,7895,1461.2422490489948
32,2020-11-24,5495,1369.3307869269313
33,2020-11-25,6454,1692.5280125916515
34,2020-11-26,6264,1221.9608189452542
35,2020-11-27,6419,955.0239324825559
36,2020-11-28,6354,1313.372826560091
37,2020-11-29,6305,976.9003718127459
38,2020-11-30,7724,1094.7190450928608
39,2020-12-01,6171,972.1150421015539
40,2020-12-02,6399,846.1697146945178
41,2020-12-03,6686,1190.4524067340367
42,2020-12-04,6715,1108.9412988979955
