,created_at,confirmed_cases,prediction
0,2020-11-24,5954,6478.675459338192
1,2020-11-25,5675,5214.737996136481
2,2020-11-26,5383,5319.627079603408
3,2020-11-27,7895,5505.588626199085
4,2020-11-28,5495,4599.558275024043
5,2020-11-29,6454,4320.791808020509
6,2020-11-30,6264,6105.890830938433
7,2020-12-01,6419,4167.820156631943
8,2020-12-02,6354,4777.279418986332
9,2020-12-03,6305,5451.964509605379
10,2020-12-04,7724,4368.038566516357
11,2020-12-05,6171,4779.380987487555
12,2020-12-06,6399,4005.2043183685228
13,2020-12-07,6686,4393.80061712745
14,2020-12-08,6715,6129.069200716512
