,created_at,confirmed_cases,prediction
0,2020-12-03,6264,6142.464704251079
1,2020-12-04,6419,5581.665502389574
2,2020-12-05,6354,5660.4391195654625
3,2020-12-06,6305,4850.095991853675
4,2020-12-07,7724,6422.211715269048
5,2020-12-08,6171,5719.815084570616
6,2020-12-09,6399,5826.989317913308
7,2020-12-10,6686,6108.258070795756
