,created_at,confirmed_cases,prediction
0,2020-11-29,418848,364745.81324436096
1,2020-11-30,426572,384633.3212736625
2,2020-12-01,432743,422844.3544662347
3,2020-12-02,439142,357465.70903821685
4,2020-12-03,445828,386923.17316684854
5,2020-12-04,452543,375086.2810469513
