,created_at,avg(confirmed_cases),avg(prediction)
0,2020-12-04,6715.0,3944.431118356396
1,2020-12-03,6686.0,3850.0063807277356
2,2020-12-02,6399.0,3509.6607859792034
3,2020-12-01,6171.0,3745.5859096840345
4,2020-11-30,7724.0,4129.271493393737
5,2020-11-29,6305.0,2665.4829684454335
