,created_at,confirmed_cases,prediction
0,2020-11-03,6264,5344.874518424417
1,2020-11-04,6419,6351.808523635995
2,2020-11-05,6354,6471.9612417933595
3,2020-11-06,6305,7608.3406977775585
4,2020-11-07,7724,4609.433345864036
5,2020-11-08,6171,6973.414639416775
6,2020-11-09,6399,6438.627503928135
7,2020-11-10,6686,5129.08073921419
8,2020-11-11,6715,3609.1928357249417
