,created_at,confirmed_cases,prediction
0,2020-12-03,6264,6003.085789264803
1,2020-12-04,6419,5641.254864175213
2,2020-12-05,6354,4926.066060369317
3,2020-12-06,6305,4256.185082110426
4,2020-12-07,7724,5179.116869269023
5,2020-12-08,6171,5229.4356328833455
6,2020-12-09,6399,5272.332720211605
7,2020-12-10,6686,5009.6897494445675
