,created_at,confirmed_cases,prediction
0,2020-10-26,231383,180638.1108569239
1,2020-10-27,234939,160886.7884407006
2,2020-10-28,237313,143571.527170158
3,2020-10-29,239649,153465.079882264
4,2020-10-30,243178,234555.60613807302
5,2020-10-31,247916,198349.60959280652
6,2020-11-01,250698,145240.35779602436
7,2020-11-02,253482,144167.21781286813
8,2020-11-03,258875,151657.78386963936
9,2020-11-04,263221,152924.81803953546
10,2020-11-05,267165,179159.9333802938
11,2020-11-06,272036,195444.2060540091
12,2020-11-07,276481,417465.3778433839
13,2020-11-08,280465,272973.7631425299
14,2020-11-09,285939,171821.30149805514
15,2020-11-10,290709,187819.69739446678
16,2020-11-11,295139,184151.93707693473
17,2020-11-12,299440,164166.5572051208
18,2020-11-13,305473,195881.5482369542
19,2020-11-14,309935,218656.47365135007
20,2020-11-15,314453,237172.85492318321
21,2020-11-16,319247,239930.58865238092
22,2020-11-17,324234,159112.6770346314
23,2020-11-18,329191,164384.99284948802
24,2020-11-19,333936,274427.6794156178
25,2020-11-20,340731,184474.93589034077
26,2020-11-21,346013,260823.44601862176
27,2020-11-22,350971,225220.35374759324
28,2020-11-23,356650,171726.70775699147
29,2020-11-24,362604,179981.3792353423
30,2020-11-25,368279,248543.13594015
31,2020-11-26,373662,159409.66313350797
32,2020-11-27,381557,144018.51125958312
33,2020-11-28,387052,155041.57667288193
34,2020-11-29,393506,160418.64859335928
35,2020-11-30,399770,158245.58649981255
36,2020-12-01,406189,138356.24307290275
37,2020-12-02,412543,150004.5502497348
38,2020-12-03,418848,161243.0815514207
39,2020-12-04,426572,146605.58142831302
40,2020-12-05,432743,182827.3678088019
41,2020-12-06,439142,156598.041062471
42,2020-12-07,445828,174844.12556884103
43,2020-12-08,452543,164242.37677598326
