,created_at,confirmed_cases,prediction
0,2020-11-05,412543,372139.4817453982
1,2020-11-06,418848,366441.33019818773
2,2020-11-07,426572,351250.4704782861
3,2020-11-08,432743,367111.2917104017
4,2020-11-09,439142,417548.4802163636
5,2020-11-10,445828,341524.8760603316
6,2020-11-11,452543,365388.42596203956
