,created_at,avg(confirmed_cases),avg(prediction)
0,2020-12-10,445828.0,262292.2109359313
1,2020-12-09,439142.0,282494.66560157767
2,2020-12-08,432743.0,268057.6958679534
3,2020-12-07,426572.0,258114.86508082616
4,2020-12-06,418848.0,246737.0463143625
5,2020-12-05,412543.0,268984.47778422205
6,2020-12-04,406189.0,246630.35525680782
7,2020-12-03,399770.0,256772.39733552453
