,created_at,confirmed_cases,prediction
0,2020-10-28,2663,1123.3236184610996
1,2020-10-29,3017,1478.2470294835077
2,2020-10-30,3556,2374.885550469377
3,2020-10-31,2374,1632.9528955730893
4,2020-11-01,2336,1192.7165684457939
5,2020-11-02,3529,1308.9517793253315
6,2020-11-03,4738,1226.4236186569772
7,2020-11-04,2782,1260.3842096590668
8,2020-11-05,2784,1558.6774462949722
9,2020-11-06,5393,1748.3687867336118
10,2020-11-07,4346,4116.725004422127
11,2020-11-08,3944,2343.4169998476477
12,2020-11-09,4871,1562.0547787563348
13,2020-11-10,4445,1782.6937440700544
14,2020-11-11,3984,1305.6924295375554
15,2020-11-12,5474,1606.7743241462047
16,2020-11-13,4770,2046.6530700831215
17,2020-11-14,4430,1899.7982127014468
18,2020-11-15,4301,1910.216982903092
19,2020-11-16,6033,2380.2806032127855
20,2020-11-17,4462,1714.0421225799323
21,2020-11-18,4518,1520.033849611132
22,2020-11-19,4794,3051.521107630156
23,2020-11-20,4987,2374.219540370461
24,2020-11-21,4957,2452.2105972715353
25,2020-11-22,4745,1767.6919713616116
26,2020-11-23,6795,2044.560747269719
27,2020-11-24,5282,2409.5501735702496
28,2020-11-25,4958,3154.8641062288293
29,2020-11-26,5679,1658.5308202936424
30,2020-11-27,5954,1550.0778152308092
31,2020-11-28,5675,1566.7501122343808
32,2020-11-29,5383,1056.689537335202
33,2020-11-30,7895,1401.938996094889
34,2020-12-01,5495,1375.0701080217248
35,2020-12-02,6454,1405.7613599685967
36,2020-12-03,6264,1594.0814703465314
37,2020-12-04,6419,1442.8690325316
38,2020-12-05,6354,1430.959355809488
39,2020-12-06,6305,1472.4062638026685
40,2020-12-07,7724,2070.200486591102
41,2020-12-08,6171,1959.537993448789
42,2020-12-09,6399,1295.088242141184
43,2020-12-10,6686,225.04224238843406
