,created_at,confirmed_cases,prediction
0,2020-10-29,253482,158996.46141142258
1,2020-10-30,258875,162824.34373800716
2,2020-10-31,263221,165866.05311863634
3,2020-11-01,267165,204627.98249242976
4,2020-11-02,272036,160972.94710072124
5,2020-11-03,276481,145966.56078721414
6,2020-11-04,280465,161102.26748654427
7,2020-11-05,285939,164570.7326361438
8,2020-11-06,290709,167762.58952995154
9,2020-11-07,295139,191067.2037262103
10,2020-11-08,299440,211631.90895386122
11,2020-11-09,305473,164229.1549830478
12,2020-11-10,309935,178969.73189062404
13,2020-11-11,314453,157880.5570801139
14,2020-11-12,319247,185224.95123740385
15,2020-11-13,324234,155227.38154702948
16,2020-11-14,329191,213895.09211163508
17,2020-11-15,333936,182188.79249471723
18,2020-11-16,340731,183499.3262821479
19,2020-11-17,346013,163459.42149788982
20,2020-11-18,350971,169143.43270051593
21,2020-11-19,356650,178011.75596328
22,2020-11-20,362604,175190.1407118522
23,2020-11-21,368279,194132.36500507424
24,2020-11-22,373662,201567.23617643307
25,2020-11-23,381557,167353.97307155147
26,2020-11-24,387052,157140.59042823754
27,2020-11-25,393506,171298.22312758106
28,2020-11-26,399770,184709.49234255572
29,2020-11-27,406189,147782.25600752138
30,2020-11-28,412543,189474.57912449026
31,2020-11-29,418848,192986.25626069563
32,2020-11-30,426572,168406.5295107545
33,2020-12-01,432743,168117.5933086275
34,2020-12-02,439142,153880.32586770132
35,2020-12-03,445828,163610.14109260947
36,2020-12-04,452543,163222.4516452349
