,created_at,confirmed_cases,prediction
0,2020-11-03,4738,1198.0909966492095
1,2020-11-04,2782,1462.8698805955319
2,2020-11-05,2784,1269.4895808107572
3,2020-11-06,5393,1649.9790649631045
4,2020-11-07,4346,2225.151767584178
5,2020-11-08,3944,1883.5366191962391
6,2020-11-09,4871,1393.6353287081843
7,2020-11-10,4445,1890.2568499307722
8,2020-11-11,3984,1231.0041062165585
9,2020-11-12,5474,2120.033472062327
10,2020-11-13,4770,1574.3839887564131
11,2020-11-14,4430,2574.020629122271
12,2020-11-15,4301,1672.1529449054399
13,2020-11-16,6033,1574.5596207944927
14,2020-11-17,4462,1640.259749483106
15,2020-11-18,4518,1553.6895913950154
16,2020-11-19,4794,1429.124319196323
17,2020-11-20,4987,1683.0968203804664
18,2020-11-21,4957,1940.9456695227336
19,2020-11-22,4745,2313.778751692885
20,2020-11-23,6795,1573.2316338507721
21,2020-11-24,5282,1322.5375133664038
22,2020-11-25,4958,1719.5758287239723
23,2020-11-26,5679,2040.8539599184235
24,2020-11-27,5954,1385.7801635827022
25,2020-11-28,5675,1889.7583448198766
26,2020-11-29,5383,1735.009757857867
27,2020-11-30,7895,1680.4752799912105
28,2020-12-01,5495,1609.132156039555
29,2020-12-02,6454,1377.8279012795206
30,2020-12-03,6264,1530.342922662676
31,2020-12-04,6419,1578.4171319507495
32,2020-12-05,6354,3076.9312067818532
33,2020-12-06,6305,2160.866802543105
34,2020-12-07,7724,2055.2583414571645
35,2020-12-08,6171,1236.6950911489262
36,2020-12-09,6399,1477.2452931357827
37,2020-12-10,6686,513.9292859598564
