,created_at,confirmed_cases,prediction
0,2020-10-24,263221,157657.08161999477
1,2020-10-25,267165,167388.4607325219
2,2020-10-26,272036,159329.35947197356
3,2020-10-27,276481,162939.23135492334
4,2020-10-28,280465,157702.30215267
5,2020-10-29,285939,159035.2258704874
6,2020-10-30,290709,161642.06644847608
7,2020-10-31,295139,168153.93049722625
8,2020-11-01,299440,207129.5010362963
9,2020-11-02,305473,159465.94395071967
10,2020-11-03,309935,144066.79091030077
11,2020-11-04,314453,161290.63039756226
12,2020-11-05,319247,156405.13661205958
13,2020-11-06,324234,165534.63481173106
14,2020-11-07,329191,186678.36786131008
15,2020-11-08,333936,202312.62673072325
16,2020-11-09,340731,168123.57958036975
17,2020-11-10,346013,173792.17661995962
18,2020-11-11,350971,162356.7285649965
19,2020-11-12,356650,182713.65033629283
20,2020-11-13,362604,150681.44646087964
21,2020-11-14,368279,201568.9697095221
22,2020-11-15,373662,185135.70837497056
23,2020-11-16,381557,173515.2581381775
24,2020-11-17,387052,172310.7991875931
25,2020-11-18,393506,166003.97233063314
26,2020-11-19,399770,170745.70776866324
27,2020-11-20,406189,169427.91474754811
28,2020-11-21,412543,188021.87578473322
29,2020-11-22,418848,198983.945259427
30,2020-11-23,426572,162570.98264608183
31,2020-11-24,432743,156070.9909497141
32,2020-11-25,439142,173228.72503355972
33,2020-11-26,445828,181909.2027756218
34,2020-11-27,452543,150379.7590760801
