,created_at,confirmed_cases,prediction
0,2020-11-23,7724,8246.668048770784
1,2020-11-24,6171,7201.69074338336
2,2020-11-25,6399,7188.726133382021
3,2020-11-26,6686,6473.840317347034
4,2020-11-27,6715,6937.148414096042
