,created_at,confirmed_cases,prediction
0,2020-12-03,6419,5879.733636547677
1,2020-12-04,6354,5028.410439749296
2,2020-12-05,6305,4146.247040248231
3,2020-12-06,7724,4477.319516449909
4,2020-12-07,6171,5594.365291119729
5,2020-12-08,6399,4434.845073596503
6,2020-12-09,6686,4322.958329748043
7,2020-12-10,6715,5100.024006561485
