,created_at,confirmed_cases,prediction
0,2020-10-05,2782,1243.4290624047178
1,2020-10-06,2784,781.4843168168113
2,2020-10-07,5393,1048.1107257829954
3,2020-10-08,4346,1614.304414829023
4,2020-10-09,3944,1349.2540579756287
5,2020-10-10,4871,1524.37882456448
6,2020-10-11,4445,1278.1918778988493
7,2020-10-12,3984,1081.1809148617303
8,2020-10-13,5474,1790.272343254727
9,2020-10-14,4770,1502.337005195581
10,2020-10-15,4430,968.3266385628872
11,2020-10-16,4301,1301.2748262639325
12,2020-10-17,6033,1770.027616978969
13,2020-10-18,4462,1239.923843019229
14,2020-10-19,4518,987.64836697155
15,2020-10-20,4794,738.5590291437671
16,2020-10-21,4987,817.0863916181502
17,2020-10-22,4957,1232.1383084693255
18,2020-10-23,4745,1383.9742043970164
19,2020-10-24,6795,807.8369509427948
20,2020-10-25,5282,2076.2619227894165
21,2020-10-26,4958,1759.9183653737773
22,2020-10-27,5679,946.1720841189144
23,2020-10-28,5954,1078.465886892598
24,2020-10-29,5675,1176.8966432301445
25,2020-10-30,5383,1125.8707162972646
26,2020-10-31,7895,2720.5505739032187
27,2020-11-01,5495,944.4911461181571
28,2020-11-02,6454,1220.1079972597886
29,2020-11-03,6264,1263.87397353653
30,2020-11-04,6419,1552.7878117524606
31,2020-11-05,6354,1828.529762296927
32,2020-11-06,6305,455.75718638343074
33,2020-11-07,7724,6237.284935653863
34,2020-11-08,6171,1149.0687587646148
35,2020-11-09,6399,1559.1832210491737
36,2020-11-10,6686,1279.4370838434047
37,2020-11-11,6715,2258.2906587516554
