,created_at,confirmed_cases,prediction
0,2020-11-03,399770,300523.3345012557
1,2020-11-04,406189,329246.4065718486
2,2020-11-05,412543,333313.6774051414
3,2020-11-06,418848,297321.87982763903
4,2020-11-07,426572,343068.13656569406
5,2020-11-08,432743,419744.6456474877
6,2020-11-09,439142,328129.8827453574
7,2020-11-10,445828,324577.23139256693
8,2020-11-11,452543,326658.54557473474
