dataset,test_size,r2,rmse,percent_error
news_soft_change_0,13,-8.0233744569016,2129.629058471959,0.45094002225906044
news_soft_change_1,13,-6.057734278994804,1807.9280382713457,0.3599681341549166
news_soft_change_3,12,-11.064351439910892,2176.647510800738,0.47468239141215957
news_soft_change_7,11,-30.58696054294047,2839.1685386715308,3.607369243413608
news_soft_change_14,10,-30.726319945826308,2387.75253019268,1.0348293776650501
news_soft_change_30,7,-7.795501461104063,1441.0004139292005,0.24182916651145586
news_soft_total_0,13,-21.59550555835486,115284.02369201454,0.3777793530779192
news_soft_total_1,13,-21.94727862418827,116916.19396500854,0.3770099387839435
news_soft_total_3,12,-26.88729786910948,118684.21494818044,0.3930477999701514
news_soft_total_7,11,-54.81813811089444,155089.4464028402,0.5925911468696037
news_soft_total_14,10,-55.92938202334801,142767.95449495083,0.5074742265480662
news_soft_total_30,7,-24.749357973791263,67626.1987266004,0.17661556504930223
news_strict_change_0,13,-8.961726807942256,2237.6223311781846,0.42358667116086923
news_strict_change_1,13,-4.50121063123965,1596.1644180647143,0.28926969562012883
news_strict_change_3,12,-8.228339504098486,1903.6973104077501,0.3718332138336897
news_strict_change_7,11,-9.14035173511573,1608.658153991813,0.29900337572366725
news_strict_change_14,10,-19.80111868676445,1933.4048787138395,0.3776040036320771
news_strict_change_30,7,-6.554319412584478,1335.4618156108188,0.2158962759066224
news_strict_total_0,13,-18.425332010114552,106891.29035624089,0.32653501067773666
news_strict_total_1,13,-18.653171004800104,108199.53421273384,0.32509819882461577
news_strict_total_3,12,-20.123363881660538,103293.09343841209,0.3028502767897052
news_strict_total_7,11,-24.098280988715924,103995.9822857275,0.299601149769765
news_strict_total_14,10,-33.54064817814287,111205.87818143061,0.3513920366087747
news_strict_total_30,7,-25.785328432960547,68973.18195763369,0.17720686843614614
prov_rep_soft_change_0,15,-5.192490286437744,1719.9583741478157,0.3318518343610339
prov_rep_soft_change_1,15,-6.186985316480716,1809.1926866874282,0.33201298110260613
prov_rep_soft_change_3,15,-5.497310377955217,1720.1972599108828,0.30870085494552113
prov_rep_soft_change_7,14,-2.556466493620169,1297.3042348539955,0.2300233219658728
prov_rep_soft_change_14,13,-5.745318576729411,1767.4605187652937,0.34275320577748786
prov_rep_soft_change_30,9,-12.97760204072532,1665.930468615995,0.2592292810510323
prov_rep_soft_total_0,15,-11.117836338056815,96333.34589482115,0.2976894817547091
prov_rep_soft_total_1,15,-11.30904582361599,97954.10061924956,0.297821889672364
prov_rep_soft_total_3,15,-11.960525325786579,100512.88293883885,0.299601511732681
prov_rep_soft_total_7,14,-10.574954210475516,89123.64186826564,0.24690697635496917
prov_rep_soft_total_14,13,-18.776936016676466,108539.69051486952,0.34449763766909364
prov_rep_soft_total_30,9,-24.42035145485412,86170.33537314263,0.21059759237857983
prov_rep_strict_change_0,15,-4.184424458155794,1573.7492812526523,0.22150854087797753
prov_rep_strict_change_1,15,-4.667141899711315,1606.5471953308859,0.2486427331132217
prov_rep_strict_change_3,15,-3.1136790384371578,1368.7579246341365,0.20204393722894637
prov_rep_strict_change_7,14,-0.13747456047911388,733.6743252126624,0.09011520817367577
prov_rep_strict_change_14,13,-6.340690759083078,1843.813340523208,0.3961598922177621
prov_rep_strict_change_30,9,-15.49715540210326,1809.8603603266965,0.35456571676733684
prov_rep_strict_total_0,15,-7.470117139212297,80539.47820539612,0.21555209118292892
prov_rep_strict_total_1,15,-7.6054443683859585,81902.48481370806,0.2160202020995892
prov_rep_strict_total_3,15,-6.752534410715755,77737.80584880958,0.19774847502132537
prov_rep_strict_total_7,14,-4.209385332200904,59789.720802772674,0.14161192799904504
prov_rep_strict_total_14,13,-17.61720008711509,105309.186481808,0.33929541809109315
prov_rep_strict_total_30,9,-32.02888756031087,98223.17790204096,0.2868889395376535
prov_gov_soft_change_0,44,-6.001361868359744,3570.8524843108266,2.570179113517276
prov_gov_soft_change_1,44,-7.380572793464577,3835.0130690572923,2.5598749175323623
prov_gov_soft_change_3,44,-8.415177138823413,4064.847384811872,3.3049696391031205
prov_gov_soft_change_7,43,-9.328378258133084,4181.612366665218,3.8212480305208367
prov_gov_soft_change_14,42,-8.34575513494685,3952.856333876333,3.205669462433114
prov_gov_soft_change_30,38,-11.734734496564348,4082.8036693664803,3.3915302756200343
prov_gov_soft_total_0,44,-6.176461104732348,174225.403798383,0.995989158514525
prov_gov_soft_total_1,44,-6.230535703068001,177882.39358208765,1.009075391623882
prov_gov_soft_total_3,44,-6.2142529638105035,177681.99037350237,1.0109142073130386
prov_gov_soft_total_7,43,-6.6963544347676764,180919.6498213648,1.0509926711065403
prov_gov_soft_total_14,42,-6.36838807305668,174440.6774001793,0.9985748259490405
prov_gov_soft_total_30,38,-9.078385280289952,190370.4741560428,1.1672167982420167
prov_gov_strict_change_0,44,-5.116041289940585,3337.4583245452986,1.808636943693417
prov_gov_strict_change_1,44,-6.786334770844559,3696.549558287677,2.2146780720592854
prov_gov_strict_change_3,44,-7.465494859211576,3854.3945812330207,2.5959324661518735
prov_gov_strict_change_7,43,-8.599276406467542,4031.3170249368845,3.1247898188686447
prov_gov_strict_change_14,42,-7.17726095940708,3697.496401445232,2.597842189525634
prov_gov_strict_change_30,38,-10.735321138104556,3919.322838986694,3.1482359307481804
prov_gov_strict_total_0,44,-5.5213000487527335,166082.3202280218,0.8775098506306911
prov_gov_strict_total_1,44,-5.570206605989011,169565.40069378528,0.8888798904803984
prov_gov_strict_total_3,44,-5.410278712519069,167488.9590883819,0.8721914153951201
prov_gov_strict_total_7,43,-5.700897273577121,168814.47741070692,0.8963234182871168
prov_gov_strict_total_14,42,-5.352445971495967,161969.04034452545,0.8721899683992181
prov_gov_strict_total_30,38,-8.752567438802917,187268.00949321536,1.131607718227663
health_soft_change_0,38,-10.564524396207107,3833.4311529274455,2.4511904110733376
health_soft_change_1,38,-10.68689666875087,3911.2281597127644,2.5123706451609453
health_soft_change_3,37,-12.128480525104804,3896.1725951582753,2.3559838081729354
health_soft_change_7,37,-12.370824312196836,3931.9686485800844,2.3306651719591516
health_soft_change_14,35,-14.86169713681713,4007.0194818310706,2.412366281937882
health_soft_change_30,32,-17.21164727068725,4178.899910924579,2.9443553405011187
health_soft_total_0,38,-7.870140922773555,175859.38768297734,0.9842091630768036
health_soft_total_1,38,-7.97904977236392,179688.0942830323,0.9975154711420945
health_soft_total_3,37,-8.124747355576833,177626.95190255943,0.9692667338720664
health_soft_total_7,37,-8.88451162675559,184874.08915382257,1.0408930747379705
health_soft_total_14,35,-10.16240804995796,188273.96389620376,1.0658410569901453
health_soft_total_30,32,-13.053738353889726,197224.81165126423,1.1452787533530633
health_strict_change_0,38,-10.489767563944799,3821.020793818792,2.4845157610634203
health_strict_change_1,38,-10.62289294137509,3900.5034622399194,2.4715131283237355
health_strict_change_3,37,-12.02883317992921,3881.3581323729654,2.297037596673936
health_strict_change_7,37,-11.82156483576695,3850.361193405852,2.1706142686431376
health_strict_change_14,35,-13.918000344333844,3885.992282489369,2.1863956442034866
health_strict_change_30,32,-16.66773646300579,4116.023168374385,2.67906248692112
health_strict_total_0,38,-7.822300727629729,175384.50672818988,0.9710655270964653
health_strict_total_1,38,-7.9301835709960855,179198.47377253592,0.9841568557232541
health_strict_total_3,37,-8.046369547065844,176862.4355904642,0.9517633870972734
health_strict_total_7,37,-8.609490418600531,182284.0285331576,1.006252480548469
health_strict_total_14,35,-9.733149641775661,184618.3695718507,1.0209354229424694
health_strict_total_30,32,-12.698140950456551,194713.66592723137,1.1177366732043097
mp_soft_change_0,8,-9.001787208234374,1483.3096533214195,0.2637234168265863
mp_soft_change_1,8,-16.54755108937502,1924.5671576236712,0.3762974868225437
mp_soft_change_3,7,-7.649990726235567,1429.0309141038347,0.23678511765569135
mp_soft_change_7,6,-1.0725270792175299,736.1357387440605,0.099138306241378
mp_soft_change_14,5,-4.927635424272404,1293.7416458931982,0.21850527477648912
mp_soft_change_30,2,-105601.95070501397,4712.008105439674,2.6864492957362405
mp_soft_total_0,8,-45.414395899314975,103251.13697254412,0.30867023039126806
mp_soft_total_1,8,-46.68476280876023,105115.89075848839,0.3095397187664769
mp_soft_total_3,7,-52.65738506918674,97621.7358879002,0.2727671189551237
mp_soft_total_7,6,-26.66682452712455,59733.61505325495,0.14720432107300851
mp_soft_total_14,5,-30.335386473517662,51487.09069493063,0.11342329579552193
mp_soft_total_30,2,-28.081197572477187,18105.98535712723,0.03123383483776967
mp_strict_change_0,8,-9.428135809950232,1514.5944361174973,0.27153875501565483
mp_strict_change_1,8,-13.580420673382717,1754.3241414984843,0.32469291117553334
mp_strict_change_3,7,-7.663335711349374,1430.132825494106,0.2543899969106337
mp_strict_change_7,6,-3.1145981049749674,1037.221491519781,0.14455173697445026
mp_strict_change_14,5,-7.120572775916363,1514.2589438080333,0.26477218865917784
mp_strict_change_30,2,-42229.6273973092,2979.763314473863,0.7623687534982792
mp_strict_total_0,8,-44.361183991069915,102072.95374556164,0.30776929730861335
mp_strict_total_1,8,-45.45082008751578,103746.93004629201,0.30795619051007056
mp_strict_total_3,7,-56.13464675542844,100735.26824071596,0.29486117902871584
mp_strict_total_7,6,-38.794671015224935,71639.34400443891,0.19250510666738663
mp_strict_total_14,5,-64.58637965918038,74488.2299123109,0.19231646835083402
mp_strict_total_30,2,-141.83227619464105,40126.30777667784,0.08288615879827871
all_soft_change_0,8,-2.3371422419143633,856.8018134424638,0.13332933913335163
all_soft_change_1,8,-13.69741745657858,1761.3486363747754,0.2961999693928036
all_soft_change_3,7,-6.688541236506654,1347.2735292922416,0.2064461355395863
all_soft_change_7,6,-0.7875667460101885,683.6580461380927,0.09339407624975214
all_soft_change_14,5,-0.45451541206495416,640.8641528869144,0.07622964873841936
all_soft_change_30,2,-4141.0757568512645,933.2049227677587,0.1345985690374646
all_soft_total_0,8,-33.85826642894688,89479.05401218393,0.24853949526905939
all_soft_total_1,8,-34.80648810021433,91087.63480867085,0.24886555837114113
all_soft_total_3,7,-39.4421986371156,84751.84335306937,0.22507249441907332
all_soft_total_7,6,-27.113635057587544,60214.02277843106,0.15155629584725713
all_soft_total_14,5,-11.65680829031009,32722.23247579717,0.06857732636641048
all_soft_total_30,2,-60.39560218322364,26307.807358530605,0.05031863878236612
all_strict_change_0,8,-3.43924665179214,988.2063852648884,0.16196201848545608
all_strict_change_1,8,-9.240730415471637,1470.2469238190436,0.21878203821035874
all_strict_change_3,7,-5.729586212016285,1260.4568523973712,0.20079639773559319
all_strict_change_7,6,-1.1220662708200244,744.8816356552971,0.09365483966411321
all_strict_change_14,5,0.3170496456389247,439.1383678520961,0.05738964272602802
all_strict_change_30,2,-30590.541135353425,2536.113468224176,0.5896810279650827
all_strict_total_0,8,-23.49498021851407,75007.90542126141,0.2014739525951486
all_strict_total_1,8,-24.114692793911633,76285.58774603957,0.20137965637203642
all_strict_total_3,7,-36.173922290901125,81255.1632683773,0.2189905119777126
all_strict_total_7,6,-26.04081432444313,59053.959800825556,0.14466724879515988
all_strict_total_14,5,-29.910544364155836,51136.87110966024,0.12427660184768456
all_strict_total_30,2,-53.32981344284022,24747.716269178924,0.05806995042711968
ensemble_soft_change_0,8,-39.290702389953076,2977.113808645306,0.8227078851108601
ensemble_soft_change_1,8,-41.215109325217256,2985.099225426591,0.8101391919156213
ensemble_soft_change_3,7,-38.24280502672337,3043.783961845679,0.8355398789741708
ensemble_soft_change_7,6,-34.771340508089764,3058.2670364889623,0.8576309829073986
ensemble_soft_change_14,5,-28.244283830376485,2873.606591632743,0.725342730084808
ensemble_soft_change_30,2,-65015.379600934735,3697.254902099195,1.2318768432230796
ensemble_soft_total_0,8,-124.12893889931597,169530.31633597548,0.6667387295303417
ensemble_soft_total_1,8,-127.38028451930762,172475.6254283569,0.668721121937342
ensemble_soft_total_3,7,-167.5504613377581,173020.17489900408,0.6659843692136577
ensemble_soft_total_7,6,-248.48243691589215,179373.8500270973,0.6980612406239892
ensemble_soft_total_14,5,-347.65615061146417,171743.1761285614,0.6386686401721999
ensemble_soft_total_30,2,-2117.829141945029,154548.2138169188,0.5245120437852848
ensemble_strict_change_0,8,-35.02389814413489,2815.0646347997717,0.7380481995869876
ensemble_strict_change_1,8,-35.6216602979576,2780.313878063918,0.7169164513412712
ensemble_strict_change_3,7,-35.53192416239284,2936.770957929745,0.7776887097237453
ensemble_strict_change_7,6,-24.91984049056194,2603.298441145352,0.6258947665114499
ensemble_strict_change_14,5,-27.41940839686489,2832.789686319101,0.7051608083737431
ensemble_strict_change_30,2,-35934.024787100556,2748.6976846295574,0.6987322262406499
ensemble_strict_total_0,8,-113.21034918399265,161965.0170959658,0.619546721162362
ensemble_strict_total_1,8,-116.05024435255636,164689.04981476566,0.6208530173567524
ensemble_strict_total_3,7,-159.38356946149833,168776.39695653212,0.6386041450400286
ensemble_strict_total_7,6,-198.11419749772585,160247.12808136697,0.5755544374742959
ensemble_strict_total_14,5,-311.87110069561305,162691.00793823053,0.587159567583417
ensemble_strict_total_30,2,-2128.7543495366194,154946.1459424567,0.5274742699799847
